<?xml version="1.0" encoding="UTF-8" standalone="no"?>
<!-- Created with Inkscape (http://www.inkscape.org/) -->

<svg
   width="48"
   height="48"
   viewBox="0 0 48 48"
   version="1.1"
   id="svg8"
   inkscape:version="1.2.2 (b0a8486541, 2022-12-01)"
   sodipodi:docname="application-relaxng.svg"
   xml:space="preserve"
   xmlns:inkscape="http://www.inkscape.org/namespaces/inkscape"
   xmlns:sodipodi="http://sodipodi.sourceforge.net/DTD/sodipodi-0.dtd"
   xmlns:xlink="http://www.w3.org/1999/xlink"
   xmlns="http://www.w3.org/2000/svg"
   xmlns:svg="http://www.w3.org/2000/svg"
   xmlns:rdf="http://www.w3.org/1999/02/22-rdf-syntax-ns#"
   xmlns:cc="http://creativecommons.org/ns#"
   xmlns:dc="http://purl.org/dc/elements/1.1/"><title
     id="title7895">Antu icon Theme</title><defs
     id="defs2"><linearGradient
       inkscape:collect="always"
       id="linearGradient2492"><stop
         style="stop-color:#1684f3;stop-opacity:1;"
         offset="0"
         id="stop2488" /><stop
         style="stop-color:#02b2fe;stop-opacity:1;"
         offset="1"
         id="stop2490" /></linearGradient><style
       id="current-color-scheme"
       type="text/css">
      .ColorScheme-Text {
        color:#122036;
      }
      </style><style
       id="current-color-scheme-2"
       type="text/css">
      .ColorScheme-Text {
        color:#122036;
      }
      </style><style
       id="current-color-scheme-0"
       type="text/css">
      .ColorScheme-Text {
        color:#122036;
      }
      </style><style
       type="text/css"
       id="current-color-scheme-3">
      .ColorScheme-Text {
        color:#122036;
      }
      </style><linearGradient
       inkscape:collect="always"
       xlink:href="#linearGradient2492"
       id="linearGradient2494"
       x1="-6.0000019"
       y1="293.77499"
       x2="-6.0000019"
       y2="253.77501"
       gradientUnits="userSpaceOnUse" /></defs><sodipodi:namedview
     id="base"
     pagecolor="#ffffff"
     bordercolor="#666666"
     borderopacity="1.0"
     inkscape:pageopacity="0.0"
     inkscape:pageshadow="2"
     inkscape:zoom="16.000001"
     inkscape:cx="22.281249"
     inkscape:cy="24.749999"
     inkscape:document-units="px"
     inkscape:current-layer="g2217"
     showgrid="true"
     units="px"
     inkscape:window-width="2560"
     inkscape:window-height="1363"
     inkscape:window-x="0"
     inkscape:window-y="0"
     inkscape:window-maximized="1"
     objecttolerance="10"
     gridtolerance="10"
     guidetolerance="10"
     inkscape:snap-bbox="true"
     inkscape:bbox-paths="true"
     inkscape:bbox-nodes="true"
     inkscape:snap-bbox-edge-midpoints="true"
     inkscape:snap-bbox-midpoints="true"
     inkscape:object-paths="true"
     inkscape:snap-intersection-paths="true"
     inkscape:showpageshadow="2"
     inkscape:pagecheckerboard="0"
     inkscape:deskcolor="#d1d1d1"><inkscape:grid
       type="xygrid"
       id="grid7897"
       empspacing="4" /></sodipodi:namedview><metadata
     id="metadata5"><rdf:RDF><cc:Work
         rdf:about=""><dc:format>image/svg+xml</dc:format><dc:type
           rdf:resource="http://purl.org/dc/dcmitype/StillImage" /><dc:title>Antu icon Theme</dc:title></cc:Work></rdf:RDF></metadata><g
     inkscape:label="Capa 1"
     inkscape:groupmode="layer"
     id="layer1"
     transform="translate(0,-266.64999)"><g
       id="g2217"
       transform="translate(30.000001,16.999985)"><g
         id="g203038"
         transform="translate(-39.999988,-35)"><g
           id="g2217-9"
           transform="translate(39.999989,34.875)"><path
             style="opacity:1;fill:#1570d9;fill-opacity:0.98039216;stroke:none;stroke-width:6;stroke-linecap:square;stroke-linejoin:round;stroke-miterlimit:18;stroke-dasharray:none;stroke-dashoffset:0;stroke-opacity:1;paint-order:markers stroke fill"
             d="M -22,251.775 H 9.999997 c 1.662002,0 3,1.33799 3,3 v 38.00001 c 0,1.66197 -1.337998,3 -3,3 H -22 c -1.661998,0 -3,-1.33803 -3,-3 V 254.775 c 0,-1.66201 1.338002,-3 3,-3 z"
             id="rect6397-1-9"
             inkscape:connector-curvature="0" /><path
             style="opacity:1;fill:url(#linearGradient2494);fill-opacity:1;stroke:none;stroke-width:6;stroke-linecap:square;stroke-linejoin:round;stroke-miterlimit:18;stroke-dasharray:none;stroke-dashoffset:0;stroke-opacity:1;paint-order:markers stroke fill"
             d="M -22,252.77499 H 9.999997 c 1.107999,0 2.000001,0.892 2.000001,2.00001 v 38.00001 c 0,1.10797 -0.892002,1.99998 -2.000001,1.99998 H -22 c -1.107999,0 -2.000001,-0.89201 -2.000001,-1.99998 V 254.775 c 0,-1.10801 0.892002,-2.00001 2.000001,-2.00001 z"
             id="rect6399-4-3"
             inkscape:connector-curvature="0"
             sodipodi:nodetypes="sssssssss" /></g></g><g
         id="g5832-6"
         transform="matrix(1,0,0,-1,-61.000004,286.64999)"
         style="fill:#1471da;fill-opacity:1"><g
           inkscape:label="Capa 1"
           id="layer1-1-7"
           transform="scale(3.7795276)"
           style="fill:#1471da;fill-opacity:1"><path
             id="rect1728-5"
             style="opacity:1;fill:#1471da;fill-opacity:1;stroke-width:0.529167;stroke-linecap:round;stroke-linejoin:round;stroke-miterlimit:1.8;paint-order:fill markers stroke;stop-color:#000000"
             d="m 12.435417,5.82083 c -0.293157,0 -0.529167,-0.2360093 -0.529167,-0.5291667 V 1.05833 c 0,-0.29315744 0.23601,-0.52916667 0.529167,-0.52916667 h 4.233333 c 0.293158,0 0.529167,0.23600923 0.529167,0.52916667 v 4.2333333 c 0,0.2931574 -0.236009,0.5291667 -0.529167,0.5291667 z M 12.7,5.02708 h 3.704167 V 4.4979133 h 0.264583 v -0.79375 h -0.264583 v -0.79375 h 0.264583 v -0.79375 H 16.404167 V 1.85208 1.5874967 h -0.79375 V 1.3229133 H 13.49375 V 1.5874967 H 12.7 V 1.85208 2.1166633 h -0.264583 v 0.79375 H 12.7 v 0.79375 h -0.264583 v 0.79375 H 12.7 Z M 13.229167,4.4979133 V 3.43958 h 0.529167 v 1.0583333 z m 1.058333,0 V 3.43958 h 0.529167 v 1.0583333 z m 1.058334,0 V 3.43958 H 15.875 v 1.0583333 z" /></g></g><g
         id="g5832"
         transform="matrix(1,0,0,-1,-61.000002,285.64999)"
         style="fill:#d5effe;fill-opacity:1"><g
           inkscape:label="Capa 1"
           id="layer1-1"
           transform="scale(3.7795276)"
           style="fill:#d5effe;fill-opacity:1"><path
             id="rect1728"
             style="opacity:1;fill:#d5effe;fill-opacity:1;stroke-width:0.529167;stroke-linecap:round;stroke-linejoin:round;stroke-miterlimit:1.8;paint-order:fill markers stroke;stop-color:#000000"
             d="m 12.435417,5.82083 c -0.293157,0 -0.529167,-0.2360093 -0.529167,-0.5291667 V 1.05833 c 0,-0.29315744 0.23601,-0.52916667 0.529167,-0.52916667 h 4.233333 c 0.293158,0 0.529167,0.23600923 0.529167,0.52916667 v 4.2333333 c 0,0.2931574 -0.236009,0.5291667 -0.529167,0.5291667 z M 12.7,5.02708 h 3.704167 V 4.4979133 h 0.264583 v -0.79375 h -0.264583 v -0.79375 h 0.264583 v -0.79375 H 16.404167 V 1.85208 1.5874967 h -0.79375 V 1.3229133 H 13.49375 V 1.5874967 H 12.7 V 1.85208 2.1166633 h -0.264583 v 0.79375 H 12.7 v 0.79375 h -0.264583 v 0.79375 H 12.7 Z M 13.229167,4.4979133 V 3.43958 h 0.529167 v 1.0583333 z m 1.058333,0 V 3.43958 h 0.529167 v 1.0583333 z m 1.058334,0 V 3.43958 H 15.875 v 1.0583333 z" /></g></g></g></g></svg>
