<?xml version="1.0" encoding="UTF-8" standalone="no"?>
<!-- Created with Inkscape (http://www.inkscape.org/) -->

<svg
   width="48"
   height="48"
   viewBox="0 0 48 48"
   version="1.1"
   id="svg8"
   inkscape:version="1.2.2 (b0a8486541, 2022-12-01)"
   sodipodi:docname="application-wps-office.xlt.svg"
   xml:space="preserve"
   xmlns:inkscape="http://www.inkscape.org/namespaces/inkscape"
   xmlns:sodipodi="http://sodipodi.sourceforge.net/DTD/sodipodi-0.dtd"
   xmlns:xlink="http://www.w3.org/1999/xlink"
   xmlns="http://www.w3.org/2000/svg"
   xmlns:svg="http://www.w3.org/2000/svg"
   xmlns:rdf="http://www.w3.org/1999/02/22-rdf-syntax-ns#"
   xmlns:cc="http://creativecommons.org/ns#"
   xmlns:dc="http://purl.org/dc/elements/1.1/"><title
     id="title7895">Antu icon Theme</title><defs
     id="defs2"><linearGradient
       gradientTransform="translate(-71,-66)"
       y2="322.64999"
       x2="60"
       y1="362.64999"
       x1="60"
       gradientUnits="userSpaceOnUse"
       id="linearGradient6625-7-2"
       xlink:href="#linearGradient7100"
       inkscape:collect="always" /><linearGradient
       inkscape:collect="always"
       id="linearGradient7100"><stop
         style="stop-color:#29b672;stop-opacity:1;"
         offset="0"
         id="stop7096" /><stop
         style="stop-color:#56d38c;stop-opacity:1;"
         offset="1"
         id="stop7098" /></linearGradient></defs><sodipodi:namedview
     id="base"
     pagecolor="#ffffff"
     bordercolor="#666666"
     borderopacity="1.0"
     inkscape:pageopacity="0.0"
     inkscape:pageshadow="2"
     inkscape:zoom="32.000001"
     inkscape:cx="23.109374"
     inkscape:cy="19.249999"
     inkscape:document-units="px"
     inkscape:current-layer="layer1-9"
     showgrid="true"
     units="px"
     inkscape:window-width="2560"
     inkscape:window-height="1363"
     inkscape:window-x="0"
     inkscape:window-y="0"
     inkscape:window-maximized="1"
     objecttolerance="10"
     gridtolerance="10"
     guidetolerance="10"
     inkscape:snap-bbox="true"
     inkscape:bbox-paths="true"
     inkscape:bbox-nodes="true"
     inkscape:snap-bbox-edge-midpoints="true"
     inkscape:snap-bbox-midpoints="true"
     inkscape:object-paths="true"
     inkscape:snap-intersection-paths="true"
     inkscape:showpageshadow="2"
     inkscape:pagecheckerboard="0"
     inkscape:deskcolor="#d1d1d1"><inkscape:grid
       type="xygrid"
       id="grid7897"
       empspacing="4" /></sodipodi:namedview><metadata
     id="metadata5"><rdf:RDF><cc:Work
         rdf:about=""><dc:format>image/svg+xml</dc:format><dc:type
           rdf:resource="http://purl.org/dc/dcmitype/StillImage" /><dc:title>Antu icon Theme</dc:title></cc:Work></rdf:RDF></metadata><g
     inkscape:label="Capa 1"
     inkscape:groupmode="layer"
     id="layer1"
     transform="translate(0,-266.64999)"><g
       transform="translate(35,14)"
       id="g1593"><path
         style="opacity:1;vector-effect:none;fill:#278c5a;fill-opacity:1;stroke:none;stroke-width:6;stroke-linecap:square;stroke-linejoin:round;stroke-miterlimit:18;stroke-dasharray:none;stroke-dashoffset:0;stroke-opacity:1;paint-order:markers stroke fill"
         d="M -27,254.64999 H 5.0000002 c 1.662,0 3,1.338 3,3 v 38 c 0,1.662 -1.338,3 -3,3 H -27 c -1.662,0 -3,-1.338 -3,-3 v -38 c 0,-1.662 1.338,-3 3,-3 z"
         id="rect6397-1-4"
         inkscape:connector-curvature="0" /><path
         style="opacity:1;vector-effect:none;fill:url(#linearGradient6625-7-2);fill-opacity:1.0;stroke:none;stroke-width:6;stroke-linecap:square;stroke-linejoin:round;stroke-miterlimit:18;stroke-dasharray:none;stroke-dashoffset:0;stroke-opacity:1;paint-order:markers stroke fill"
         d="M -27,255.64999 H 5.0000002 c 1.108,0 2,0.892 2,2 v 38 c 0,1.108 -0.892,2 -2,2 H -27 c -1.108,0 -2,-0.892 -2,-2 v -38 c 0,-1.108 0.892,-2 2,-2 z"
         id="rect6399-4-9"
         inkscape:connector-curvature="0"
         sodipodi:nodetypes="sssssssss" /></g><g
       inkscape:label="Capa 1"
       id="layer1-9"><g
         transform="translate(35,14)"
         id="g1593-3" /><path
         id="rect850-5-9-7-9-7-0-4-4"
         style="fill:#000000;fill-opacity:0.1;stroke-width:1.2;stroke-linecap:round;stroke-linejoin:round;stroke-miterlimit:1.8;paint-order:stroke fill markers;stop-color:#000000"
         d="m 9,269.64999 v 3 h 3 v -3 z m 3,3 v 3 h 3 v -3 z m 3,0 h 3 v -3 h -3 z m 3,0 v 3 h 3 v -3 z m 3,0 h 3 v -3 h -3 z m 3,0 v 3 h 3 v -3 z m 3,0 h 3 v -3 h -3 z m 3,0 v 3 h 3 v -3 z m 3,0 h 3 v -3 h -3 z m 3,0 v 3 h 3 v -3 z m 3,0 h 1.5 1.5 v -1.5 c 0,-0.83099 -0.669,-1.5 -1.5,-1.5 H 39 v 1.5 z m 0,3 v 3 h 3 v -3 z m 0,3 h -3 v 3 h 3 z m 0,3 v 3 h 3 v -3 z m 0,3 h -3 v 3 h 3 z m 0,3 v 3 h 3 v -3 z m 0,3 h -3 v 3 h 3 z m 0,3 v 3 h 3 v -3 z m 0,3 h -3 v 3 h 3 z m 0,3 v 3 h 3 v -3 z m 0,3 h -3 v 3 h 3 z m 0,3 v 3 h 3 v -3 z m 0,3 h -3 v 3 h 3 z m -3,0 v -3 h -3 v 3 z m -3,0 h -3 v 3 h 3 z m -3,0 v -3 h -3 v 3 z m -3,0 h -3 v 3 h 3 z m -3,0 v -3 h -3 v 3 z m -3,0 h -3 v 3 h 3 z m -3,0 v -3 h -3 v 3 z m -3,0 h -3 v 3 h 3 z m -3,0 v -3 H 9 v 3 z m -3,0 H 7.5 6 v 1.5 c 0,0.83098 0.669,1.5 1.5,1.5 H 9 v -1.5 z m 0,-3 v -3 H 6 v 3 z m 0,-3 h 3 v -3 H 9 Z m 0,-3 v -3 H 6 v 3 z m 0,-3 h 3 v -3 H 9 Z m 0,-3 v -3 H 6 v 3 z m 0,-3 h 3 v -3 H 9 Z m 0,-3 v -3 H 6 v 3 z m 0,-3 h 3 v -3 H 9 Z m 0,-3 v -3 H 6 v 3 z m 0,-3 h 3 v -3 H 9 Z m 0,-3 v -3 H 6 v 3 z m 3,3 v 3 h 3 v -3 z m 3,0 h 3 v -3 h -3 z m 3,0 v 3 h 3 v -3 z m 3,0 h 3 v -3 h -3 z m 3,0 v 3 h 3 v -3 z m 3,0 h 3 v -3 h -3 z m 3,0 v 3 h 3 v -3 z m 3,0 h 3 v -3 h -3 z m 0,3 v 3 h 3 v -3 z m 0,3 h -3 v 3 h 3 z m 0,3 v 3 h 3 v -3 z m 0,3 h -3 v 3 h 3 z m 0,3 v 3 h 3 v -3 z m 0,3 h -3 v 3 h 3 z m 0,3 v 3 h 3 v -3 z m 0,3 h -3 v 3 h 3 z m -3,0 v -3 h -3 v 3 z m -3,0 h -3 v 3 h 3 z m -3,0 v -3 h -3 v 3 z m -3,0 h -3 v 3 h 3 z m -3,0 v -3 h -3 v 3 z m -3,0 h -3 v 3 h 3 z m 0,-3 v -3 h -3 v 3 z m 0,-3 h 3 v -3 h -3 z m 0,-3 v -3 h -3 v 3 z m 0,-3 h 3 v -3 h -3 z m 0,-3 v -3 h -3 v 3 z m 0,-3 h 3 v -3 h -3 z m 3,0 v 3 h 3 v -3 z m 3,0 h 3 v -3 h -3 z m 3,0 v 3 h 3 v -3 z m 3,0 h 3 v -3 h -3 z m 0,3 v 3 h 3 v -3 z m 0,3 h -3 v 3 h 3 z m 0,3 v 3 h 3 v -3 z m 0,3 h -3 v 3 h 3 z m -3,0 v -3 h -3 v 3 z m -3,0 h -3 v 3 h 3 z m 0,-3 v -3 h -3 v 3 z m 0,-3 h 3 v -3 h -3 z" /><path
         style="fill:#278c5a;fill-opacity:1;stroke-width:2;stroke-linecap:round;stroke-linejoin:round;stroke-miterlimit:1.8;paint-order:stroke fill markers;stop-color:#000000"
         d="m 20.5,280.65008 c -3.600988,0 -6.5,2.899 -6.5,6.5 0,3.601 2.899012,6.5 6.5,6.5 H 21.496094 27.5 c 0.08656,0 0.171613,0.005 0.255859,0.0137 0.08425,0.009 0.168482,0.0205 0.25,0.0371 0.08152,0.0166 0.159904,0.0362 0.238282,0.0606 0.07838,0.0243 0.155644,0.0524 0.230468,0.084 0.07482,0.0315 0.147892,0.0671 0.21875,0.10548 0.07086,0.0384 0.140552,0.0802 0.207032,0.125 0.06648,0.0448 0.129718,0.0937 0.191406,0.14452 0.06169,0.0509 0.12125,0.10368 0.177734,0.16017 0.05648,0.0565 0.109289,0.11604 0.160156,0.17773 0.05087,0.0617 0.09969,0.12493 0.144532,0.19141 0.04484,0.0665 0.0866,0.13617 0.125,0.20703 0.0384,0.0709 0.07393,0.14393 0.105468,0.21875 0.03154,0.0748 0.05971,0.15208 0.08398,0.23047 0.02428,0.0784 0.04395,0.15676 0.06055,0.23828 0.0166,0.0815 0.0286,0.16575 0.03711,0.25 0.0085,0.0842 0.01367,0.1693 0.01367,0.25585 0,0.0866 -0.0052,0.17161 -0.01367,0.25586 -0.0085,0.0842 -0.02051,0.16848 -0.03711,0.25 -0.0166,0.0815 -0.03627,0.1599 -0.06055,0.23828 -0.02428,0.0784 -0.05244,0.15565 -0.08398,0.23047 -0.03154,0.0748 -0.06707,0.14789 -0.105468,0.21875 -0.0384,0.0709 -0.08016,0.14055 -0.125,0.20703 -0.04484,0.0665 -0.09366,0.12972 -0.144532,0.19141 -0.05087,0.0617 -0.103671,0.12125 -0.160156,0.17773 -0.05648,0.0565 -0.116046,0.10929 -0.177734,0.16016 -0.06169,0.0509 -0.124927,0.0997 -0.191406,0.14453 -0.06648,0.0448 -0.136174,0.0866 -0.207032,0.125 -0.07086,0.0384 -0.143926,0.0739 -0.21875,0.10547 -0.07482,0.0315 -0.152091,0.0597 -0.230468,0.084 -0.07838,0.0243 -0.156763,0.0439 -0.238282,0.0606 -0.08152,0.0166 -0.165753,0.0286 -0.25,0.0371 -0.08425,0.008 -0.169297,0.0137 -0.255859,0.0137 H 24 21.496094 21 16 c -1.107998,0 -2,0.892 -2,2 0,1.108 0.892002,2 2,2 h 5 3 3.5 c 3.600988,0 6.5,-2.899 6.5,-6.5 0,-3.601 -2.899012,-6.5 -6.5,-6.5 h -7 c -0.08656,0 -0.171613,-0.005 -0.255859,-0.0137 -0.08425,-0.009 -0.168482,-0.0205 -0.25,-0.0371 -0.08152,-0.0166 -0.159904,-0.0363 -0.238282,-0.0606 -0.07838,-0.0243 -0.155644,-0.0524 -0.230468,-0.084 -0.07482,-0.0315 -0.147892,-0.0671 -0.21875,-0.10547 -0.07086,-0.0384 -0.140552,-0.0802 -0.207032,-0.125 -0.06648,-0.0448 -0.129718,-0.0937 -0.191406,-0.14453 -0.06169,-0.0509 -0.12125,-0.10367 -0.177734,-0.16016 -0.05648,-0.0565 -0.109289,-0.11604 -0.160157,-0.17773 -0.05087,-0.0617 -0.09969,-0.12493 -0.144531,-0.19141 -0.04484,-0.0665 -0.0866,-0.13617 -0.125,-0.20703 -0.0384,-0.0709 -0.07393,-0.14393 -0.105469,-0.21875 -0.03154,-0.0748 -0.05971,-0.15209 -0.08398,-0.23047 -0.02428,-0.0784 -0.04395,-0.15676 -0.06055,-0.23828 -0.0166,-0.0815 -0.0286,-0.16575 -0.03711,-0.25 C 18.005167,287.32169 18,287.23665 18,287.15008 c 0,-0.0866 0.0052,-0.1716 0.01367,-0.25585 0.0085,-0.0842 0.02051,-0.16848 0.03711,-0.25 0.0166,-0.0815 0.03627,-0.1599 0.06055,-0.23828 0.02428,-0.0784 0.05244,-0.15565 0.08398,-0.23047 0.03154,-0.0748 0.06707,-0.1479 0.105469,-0.21875 0.0384,-0.0709 0.08016,-0.14056 0.125,-0.20703 0.04484,-0.0665 0.09366,-0.12972 0.144531,-0.19141 0.05087,-0.0617 0.103672,-0.12125 0.160156,-0.17773 0.05648,-0.0565 0.116047,-0.10929 0.177735,-0.16017 0.06169,-0.0509 0.124926,-0.0997 0.191406,-0.14452 0.06648,-0.0448 0.136173,-0.0866 0.207031,-0.125 0.07086,-0.0384 0.143926,-0.0739 0.21875,-0.10548 0.07482,-0.0315 0.152091,-0.0597 0.230469,-0.084 0.07838,-0.0243 0.156763,-0.0439 0.238281,-0.0606 0.08152,-0.0166 0.165754,-0.0286 0.25,-0.0371 0.08425,-0.008 0.169297,-0.0137 0.25586,-0.0137 H 24 26.503906 27 32 c 1.107998,0 2,-0.892 2,-2 0,-1.108 -0.892002,-2 -2,-2 h -5 -3 z"
         id="rect30720-6" /><path
         style="fill:#e3f7ec;fill-opacity:1;stroke-width:2;stroke-linecap:round;stroke-linejoin:round;stroke-miterlimit:1.8;paint-order:stroke fill markers;stop-color:#000000"
         d="m 20.5,279.64994 c -3.600988,0 -6.5,2.899 -6.5,6.5 0,3.601 2.899012,6.5 6.5,6.5 H 21.496094 27.5 c 0.08656,0 0.171613,0.005 0.255859,0.0137 0.08425,0.009 0.168482,0.0205 0.25,0.0371 0.08152,0.0166 0.159904,0.0362 0.238282,0.0606 0.07838,0.0243 0.155644,0.0524 0.230468,0.084 0.07482,0.0315 0.147892,0.0671 0.21875,0.10548 0.07086,0.0384 0.140552,0.0802 0.207032,0.125 0.06648,0.0448 0.129718,0.0937 0.191406,0.14452 0.06169,0.0509 0.12125,0.10368 0.177734,0.16017 0.05648,0.0565 0.109289,0.11604 0.160156,0.17773 0.05087,0.0617 0.09969,0.12493 0.144532,0.19141 0.04484,0.0665 0.0866,0.13617 0.125,0.20703 0.0384,0.0709 0.07393,0.14393 0.105468,0.21875 0.03154,0.0748 0.05971,0.15208 0.08398,0.23047 0.02428,0.0784 0.04395,0.15676 0.06055,0.23828 0.0166,0.0815 0.0286,0.16575 0.03711,0.25 0.0085,0.0842 0.01367,0.1693 0.01367,0.25585 0,0.0866 -0.0052,0.17161 -0.01367,0.25586 -0.0085,0.0842 -0.02051,0.16848 -0.03711,0.25 -0.0166,0.0815 -0.03627,0.1599 -0.06055,0.23828 -0.02428,0.0784 -0.05244,0.15565 -0.08398,0.23047 -0.03154,0.0748 -0.06707,0.14789 -0.105468,0.21875 -0.0384,0.0709 -0.08016,0.14055 -0.125,0.20703 -0.04484,0.0665 -0.09366,0.12972 -0.144532,0.19141 -0.05087,0.0617 -0.103671,0.12125 -0.160156,0.17773 -0.05648,0.0565 -0.116046,0.10929 -0.177734,0.16016 -0.06169,0.0509 -0.124927,0.0997 -0.191406,0.14453 -0.06648,0.0448 -0.136174,0.0866 -0.207032,0.125 -0.07086,0.0384 -0.143926,0.0739 -0.21875,0.10547 -0.07482,0.0315 -0.152091,0.0597 -0.230468,0.084 -0.07838,0.0243 -0.156763,0.0439 -0.238282,0.0606 -0.08152,0.0166 -0.165753,0.0286 -0.25,0.0371 -0.08425,0.008 -0.169297,0.0137 -0.255859,0.0137 H 24 21.496094 21 16 c -1.107998,0 -2,0.892 -2,2 0,1.108 0.892002,2 2,2 h 5 3 3.5 c 3.600988,0 6.5,-2.899 6.5,-6.5 0,-3.601 -2.899012,-6.5 -6.5,-6.5 h -7 c -0.08656,0 -0.171613,-0.005 -0.255859,-0.0137 -0.08425,-0.009 -0.168482,-0.0205 -0.25,-0.0371 -0.08152,-0.0166 -0.159904,-0.0363 -0.238282,-0.0606 -0.07838,-0.0243 -0.155644,-0.0524 -0.230468,-0.084 -0.07482,-0.0315 -0.147892,-0.0671 -0.21875,-0.10547 -0.07086,-0.0384 -0.140552,-0.0802 -0.207032,-0.125 -0.06648,-0.0448 -0.129718,-0.0937 -0.191406,-0.14453 -0.06169,-0.0509 -0.12125,-0.10367 -0.177734,-0.16016 -0.05648,-0.0565 -0.109289,-0.11604 -0.160157,-0.17773 -0.05087,-0.0617 -0.09969,-0.12493 -0.144531,-0.19141 -0.04484,-0.0665 -0.0866,-0.13617 -0.125,-0.20703 -0.0384,-0.0709 -0.07393,-0.14393 -0.105469,-0.21875 -0.03154,-0.0748 -0.05971,-0.15209 -0.08398,-0.23047 -0.02428,-0.0784 -0.04395,-0.15676 -0.06055,-0.23828 -0.0166,-0.0815 -0.0286,-0.16575 -0.03711,-0.25 C 18.005167,286.32155 18,286.23651 18,286.14994 c 0,-0.0866 0.0052,-0.1716 0.01367,-0.25585 0.0085,-0.0842 0.02051,-0.16848 0.03711,-0.25 0.0166,-0.0815 0.03627,-0.1599 0.06055,-0.23828 0.02428,-0.0784 0.05244,-0.15565 0.08398,-0.23047 0.03154,-0.0748 0.06707,-0.1479 0.105469,-0.21875 0.0384,-0.0709 0.08016,-0.14056 0.125,-0.20703 0.04484,-0.0665 0.09366,-0.12972 0.144531,-0.19141 0.05087,-0.0617 0.103672,-0.12125 0.160156,-0.17773 0.05648,-0.0565 0.116047,-0.10929 0.177735,-0.16017 0.06169,-0.0509 0.124926,-0.0997 0.191406,-0.14452 0.06648,-0.0448 0.136173,-0.0866 0.207031,-0.125 0.07086,-0.0384 0.143926,-0.0739 0.21875,-0.10548 0.07482,-0.0315 0.152091,-0.0597 0.230469,-0.084 0.07838,-0.0243 0.156763,-0.0439 0.238281,-0.0606 0.08152,-0.0166 0.165754,-0.0286 0.25,-0.0371 0.08425,-0.008 0.169297,-0.0137 0.25586,-0.0137 H 24 26.503906 27 32 c 1.107998,0 2,-0.892 2,-2 0,-1.108 -0.892002,-2 -2,-2 h -5 -3 z"
         id="rect30720" /></g></g></svg>
