<?xml version="1.0" encoding="UTF-8" standalone="no"?>
<!-- Created with Inkscape (http://www.inkscape.org/) -->

<svg
   width="48"
   height="48"
   viewBox="0 0 48 48"
   version="1.1"
   id="svg8"
   inkscape:version="1.2.2 (b0a8486541, 2022-12-01)"
   sodipodi:docname="audio-x-flac.svg"
   xmlns:inkscape="http://www.inkscape.org/namespaces/inkscape"
   xmlns:sodipodi="http://sodipodi.sourceforge.net/DTD/sodipodi-0.dtd"
   xmlns:xlink="http://www.w3.org/1999/xlink"
   xmlns="http://www.w3.org/2000/svg"
   xmlns:svg="http://www.w3.org/2000/svg"
   xmlns:rdf="http://www.w3.org/1999/02/22-rdf-syntax-ns#"
   xmlns:cc="http://creativecommons.org/ns#"
   xmlns:dc="http://purl.org/dc/elements/1.1/">
  <title
     id="title7895">Antu icon Theme</title>
  <defs
     id="defs2">
    <linearGradient
       inkscape:collect="always"
       xlink:href="#linearGradient9565"
       id="linearGradient1699"
       gradientUnits="userSpaceOnUse"
       gradientTransform="translate(-11.999997,16.00003)"
       x1="60"
       y1="362.64999"
       x2="60"
       y2="322.64999" />
    <linearGradient
       id="linearGradient9565"
       inkscape:collect="always">
      <stop
         id="stop9561"
         offset="0"
         style="stop-color:#25b4ce;stop-opacity:1;" />
      <stop
         id="stop9563"
         offset="1"
         style="stop-color:#3bc6e0;stop-opacity:1;" />
    </linearGradient>
  </defs>
  <sodipodi:namedview
     id="base"
     pagecolor="#ffffff"
     bordercolor="#666666"
     borderopacity="1.0"
     inkscape:pageopacity="0.0"
     inkscape:pageshadow="2"
     inkscape:zoom="2.8284272"
     inkscape:cx="-40.835416"
     inkscape:cy="46.669046"
     inkscape:document-units="px"
     inkscape:current-layer="layer1"
     showgrid="true"
     units="px"
     inkscape:window-width="2560"
     inkscape:window-height="1353"
     inkscape:window-x="0"
     inkscape:window-y="0"
     inkscape:window-maximized="1"
     objecttolerance="10"
     gridtolerance="10"
     guidetolerance="10"
     inkscape:snap-bbox="true"
     inkscape:bbox-paths="true"
     inkscape:bbox-nodes="true"
     inkscape:snap-bbox-edge-midpoints="true"
     inkscape:snap-bbox-midpoints="true"
     inkscape:object-paths="true"
     inkscape:snap-intersection-paths="true"
     inkscape:showpageshadow="2"
     inkscape:pagecheckerboard="0"
     inkscape:deskcolor="#d1d1d1">
    <inkscape:grid
       type="xygrid"
       id="grid7897"
       empspacing="4" />
  </sodipodi:namedview>
  <metadata
     id="metadata5">
    <rdf:RDF>
      <cc:Work
         rdf:about="">
        <dc:format>image/svg+xml</dc:format>
        <dc:type
           rdf:resource="http://purl.org/dc/dcmitype/StillImage" />
        <dc:title>Antu icon Theme</dc:title>
      </cc:Work>
    </rdf:RDF>
  </metadata>
  <g
     inkscape:label="Capa 1"
     inkscape:groupmode="layer"
     id="layer1"
     transform="translate(0,-266.64999)">
    <g
       id="g23029"
       transform="translate(-109,-110.00001)">
      <g
         id="g871-25"
         transform="translate(85,42.000006)">
        <path
           inkscape:connector-curvature="0"
           id="rect6397-1-4"
           d="m 32,336.64999 h 32 c 1.662,0 3,1.33798 3,3 v 38 c 0,1.66197 -1.338,3 -3,3 H 32 c -1.661998,0 -3,-1.33803 -3,-3 v -38 c 0,-1.66202 1.338002,-3 3,-3 z"
           style="opacity:1;vector-effect:none;fill:#288799;fill-opacity:1;stroke:none;stroke-width:6;stroke-linecap:square;stroke-linejoin:round;stroke-miterlimit:18;stroke-dasharray:none;stroke-dashoffset:0;stroke-opacity:1;paint-order:markers stroke fill" />
        <path
           sodipodi:nodetypes="sssssssss"
           inkscape:connector-curvature="0"
           id="rect6399-4-4"
           d="m 32,337.64999 h 32 c 1.108001,0 2,0.892 2,2.00001 v 38.00001 c 0,1.10797 -0.891999,1.99997 -2,1.99997 H 32 c -1.107999,0 -2,-0.892 -2,-1.99997 V 339.65 c 0,-1.10801 0.892001,-2.00001 2,-2.00001 z"
           style="opacity:1;vector-effect:none;fill:url(#linearGradient1699);fill-opacity:1;stroke:none;stroke-width:6;stroke-linecap:square;stroke-linejoin:round;stroke-miterlimit:18;stroke-dasharray:none;stroke-dashoffset:0;stroke-opacity:1;paint-order:markers stroke fill" />
        <g
           inkscape:label="Capa 1"
           id="layer1-2-9"
           transform="translate(24,67.49999)">
          <g
             transform="translate(-4.0000002,-21.998052)"
             id="g1286-6-9" />
          <g
             id="g9699-36"
             transform="translate(49.390235,-20.499996)">
            <path
               sodipodi:nodetypes="sssssssssssssssccccsssscccsssssssssscccccsssscccsssssssssssssssssssssssss"
               inkscape:connector-curvature="0"
               id="path9351-05"
               transform="translate(-49.390235,287.64999)"
               d="m 14.558594,6 c -0.831,0 -1.5,0.669 -1.5,1.5 0,0.831 0.669,1.5 1.5,1.5 0.831,0 1.5,-0.669 1.5,-1.5 0,-0.831 -0.669,-1.5 -1.5,-1.5 z M 9.5585938,8 c -0.831,0 -1.5000001,0.669 -1.5,1.5 0,0.831 0.669,1.5 1.5,1.5 0.8309992,0 1.5000002,-0.669 1.5000002,-1.5 0,-0.831 -0.669001,-1.5 -1.5000002,-1.5 z m 5.0000002,3 c -0.831,0 -1.5,0.669 -1.5,1.5 0,0.831 0.669,1.5 1.5,1.5 0.831,0 1.5,-0.669 1.5,-1.5 0,-0.831 -0.669,-1.5 -1.5,-1.5 z M 25,13 19,15 v 5 3.275391 C 18.528743,23.108744 18.029737,23 17.5,23 15.007001,23 13,25.007001 13,27.5 13,29.992999 15.007001,32 17.5,32 19.992999,32 22,29.992999 22,27.5 V 19 l 3,-1 z M 9.5585938,13 c -0.831,0 -1.5000001,0.669 -1.5,1.5 0,0.831 0.669,1.5 1.5,1.5 0.8309992,0 1.5000002,-0.669 1.5000002,-1.5 0,-0.831 -0.669001,-1.5 -1.5000002,-1.5 z m 0,5 c -0.831,0 -1.5000001,0.669 -1.5,1.5 0,0.831 0.669,1.5 1.5,1.5 0.8309992,0 1.5000002,-0.669 1.5000002,-1.5 0,-0.831 -0.669001,-1.5 -1.5000002,-1.5 z M 33,22 28,24 v 2 2 2.345703 C 27.544438,30.129513 27.039614,30 26.5,30 24.561,30 23,31.56099 23,33.5 23,35.43901 24.561,37 26.5,37 28.439003,37 30,35.43901 30,33.5 V 27.199219 L 33,26 Z m 5,6 c -0.831,0 -1.5,0.669 -1.5,1.5 0,0.831 0.669,1.5 1.5,1.5 0.831,0 1.5,-0.669 1.5,-1.5 C 39.5,28.669 38.831,28 38,28 Z m 0,5 c -0.831,0 -1.5,0.669 -1.5,1.5 0,0.831 0.669,1.5 1.5,1.5 0.831,0 1.5,-0.669 1.5,-1.5 C 39.5,33.669 38.831,33 38,33 Z m -5,2 c -0.831,0 -1.5,0.669 -1.5,1.5 0,0.831 0.669,1.5 1.5,1.5 0.831,0 1.5,-0.669 1.5,-1.5 C 34.5,35.669 33.831,35 33,35 Z m 5,3 c -0.831,0 -1.5,0.669 -1.5,1.5 0,0.831 0.669,1.5 1.5,1.5 0.831,0 1.5,-0.669 1.5,-1.5 C 39.5,38.669 38.831,38 38,38 Z m -5,2 c -0.831,0 -1.5,0.669 -1.5,1.5 0,0.831 0.669,1.5 1.5,1.5 0.831,0 1.5,-0.669 1.5,-1.5 C 34.5,40.669 33.831,40 33,40 Z"
               style="opacity:1;fill:#288799;fill-opacity:1;stroke:none;stroke-width:1;stroke-opacity:1" />
          </g>
        </g>
        <g
           style="fill:#f7faff;fill-opacity:1"
           inkscape:label="Capa 1"
           id="layer1-2-6-0"
           transform="translate(24,66.5)">
          <g
             style="fill:#f7faff;fill-opacity:1"
             transform="translate(-4.0000002,-21.998052)"
             id="g1286-6-1-2" />
          <g
             style="fill:#f7faff;fill-opacity:1"
             id="g9699-3-94"
             transform="translate(49.390235,-20.499996)">
            <path
               sodipodi:nodetypes="sssssssssssssssccccsssscccsssssssssscccccsssscccsssssssssssssssssssssssss"
               id="path9351-2-3"
               transform="translate(-49.390235,287.64999)"
               d="m 14.558594,6 c -0.831,0 -1.5,0.669 -1.5,1.5 0,0.831 0.669,1.5 1.5,1.5 0.831,0 1.5,-0.669 1.5,-1.5 0,-0.831 -0.669,-1.5 -1.5,-1.5 z M 9.5585938,8 c -0.831,0 -1.5000001,0.669 -1.5,1.5 0,0.831 0.669,1.5 1.5,1.5 0.8309992,0 1.5000002,-0.669 1.5000002,-1.5 0,-0.831 -0.669001,-1.5 -1.5000002,-1.5 z m 5.0000002,3 c -0.831,0 -1.5,0.669 -1.5,1.5 0,0.831 0.669,1.5 1.5,1.5 0.831,0 1.5,-0.669 1.5,-1.5 0,-0.831 -0.669,-1.5 -1.5,-1.5 z M 25,13 19,15 v 5 3.275391 C 18.528743,23.108744 18.029737,23 17.5,23 15.007001,23 13,25.007001 13,27.5 13,29.992999 15.007001,32 17.5,32 19.992999,32 22,29.992999 22,27.5 V 19 l 3,-1 z M 9.5585938,13 c -0.831,0 -1.5000001,0.669 -1.5,1.5 0,0.831 0.669,1.5 1.5,1.5 0.8309992,0 1.5000002,-0.669 1.5000002,-1.5 0,-0.831 -0.669001,-1.5 -1.5000002,-1.5 z m 0,5 c -0.831,0 -1.5000001,0.669 -1.5,1.5 0,0.831 0.669,1.5 1.5,1.5 0.8309992,0 1.5000002,-0.669 1.5000002,-1.5 0,-0.831 -0.669001,-1.5 -1.5000002,-1.5 z M 33,22 28,24 v 2 2 2.345703 C 27.544438,30.129513 27.039614,30 26.5,30 24.561,30 23,31.56099 23,33.5 23,35.43901 24.561,37 26.5,37 28.439003,37 30,35.43901 30,33.5 V 27.199219 L 33,26 Z m 5,6 c -0.831,0 -1.5,0.669 -1.5,1.5 0,0.831 0.669,1.5 1.5,1.5 0.831,0 1.5,-0.669 1.5,-1.5 C 39.5,28.669 38.831,28 38,28 Z m 0,5 c -0.831,0 -1.5,0.669 -1.5,1.5 0,0.831 0.669,1.5 1.5,1.5 0.831,0 1.5,-0.669 1.5,-1.5 C 39.5,33.669 38.831,33 38,33 Z m -5,2 c -0.831,0 -1.5,0.669 -1.5,1.5 0,0.831 0.669,1.5 1.5,1.5 0.831,0 1.5,-0.669 1.5,-1.5 C 34.5,35.669 33.831,35 33,35 Z m 5,3 c -0.831,0 -1.5,0.669 -1.5,1.5 0,0.831 0.669,1.5 1.5,1.5 0.831,0 1.5,-0.669 1.5,-1.5 C 39.5,38.669 38.831,38 38,38 Z m -5,2 c -0.831,0 -1.5,0.669 -1.5,1.5 0,0.831 0.669,1.5 1.5,1.5 0.831,0 1.5,-0.669 1.5,-1.5 C 34.5,40.669 33.831,40 33,40 Z"
               style="opacity:1;fill:#e2fbf8;fill-opacity:1;stroke:none;stroke-width:1;stroke-opacity:1"
               inkscape:connector-curvature="0" />
          </g>
        </g>
      </g>
    </g>
  </g>
</svg>
