<?xml version="1.0" encoding="UTF-8" standalone="no"?>
<!-- Created with Inkscape (http://www.inkscape.org/) -->

<svg
   width="32"
   height="32"
   viewBox="0 0 32 32"
   version="1.1"
   id="svg8"
   inkscape:version="1.2.2 (b0a8486541, 2022-12-01)"
   sodipodi:docname="application-wps-office.xltx.svg"
   xml:space="preserve"
   xmlns:inkscape="http://www.inkscape.org/namespaces/inkscape"
   xmlns:sodipodi="http://sodipodi.sourceforge.net/DTD/sodipodi-0.dtd"
   xmlns:xlink="http://www.w3.org/1999/xlink"
   xmlns="http://www.w3.org/2000/svg"
   xmlns:svg="http://www.w3.org/2000/svg"
   xmlns:rdf="http://www.w3.org/1999/02/22-rdf-syntax-ns#"
   xmlns:cc="http://creativecommons.org/ns#"
   xmlns:dc="http://purl.org/dc/elements/1.1/"><title
     id="title7895">Antu icon Theme</title><defs
     id="defs2"><linearGradient
       gradientTransform="matrix(3.7795275,0,0,3.7795275,0,-807.86966)"
       inkscape:collect="always"
       xlink:href="#linearGradient961"
       id="linearGradient837-3"
       x1="4.2333336"
       y1="296.20624"
       x2="4.2333336"
       y2="289.59164"
       gradientUnits="userSpaceOnUse" /><linearGradient
       id="linearGradient961"
       inkscape:collect="always"><stop
         id="stop957"
         offset="0"
         style="stop-color:#29b672;stop-opacity:1" /><stop
         id="stop959"
         offset="1"
         style="stop-color:#56d38c;stop-opacity:1" /></linearGradient></defs><sodipodi:namedview
     id="base"
     pagecolor="#ffffff"
     bordercolor="#666666"
     borderopacity="1.0"
     inkscape:pageopacity="0.0"
     inkscape:pageshadow="2"
     inkscape:zoom="16"
     inkscape:cx="48.8125"
     inkscape:cy="22.125"
     inkscape:document-units="px"
     inkscape:current-layer="layer1"
     showgrid="true"
     units="px"
     inkscape:window-width="2560"
     inkscape:window-height="1363"
     inkscape:window-x="0"
     inkscape:window-y="0"
     inkscape:window-maximized="1"
     objecttolerance="10"
     gridtolerance="10"
     guidetolerance="10"
     inkscape:showpageshadow="2"
     inkscape:pagecheckerboard="0"
     inkscape:deskcolor="#d1d1d1"><inkscape:grid
       type="xygrid"
       id="grid7897"
       empspacing="4" /></sodipodi:namedview><metadata
     id="metadata5"><rdf:RDF><cc:Work
         rdf:about=""><dc:format>image/svg+xml</dc:format><dc:type
           rdf:resource="http://purl.org/dc/dcmitype/StillImage" /><dc:title>Antu icon Theme</dc:title></cc:Work></rdf:RDF></metadata><g
     inkscape:label="Capa 1"
     inkscape:groupmode="layer"
     id="layer1"
     transform="translate(0,-282.64999)"><path
       inkscape:connector-curvature="0"
       style="fill:#278c5a;fill-opacity:1;stroke:none;stroke-width:2;stroke-linecap:round;stroke-linejoin:round;stroke-miterlimit:4;stroke-dasharray:none;stroke-opacity:1"
       d="m 5,283.64999 h 21.999999 c 1.108,0 2,0.892 2,2 v 26 c 0,1.108 -0.892,2 -2,2 H 5 c -1.108,0 -2,-0.892 -2,-2 v -26 c 0,-1.108 0.892,-2 2,-2 z"
       id="rect827-3" /><path
       inkscape:connector-curvature="0"
       style="fill:url(#linearGradient837-3);fill-opacity:1;stroke:none;stroke-width:2;stroke-linecap:round;stroke-linejoin:round;stroke-miterlimit:4;stroke-dasharray:none;stroke-opacity:1"
       d="m 5,284.64999 h 21.999999 c 0.554,0 1,0.446 1,1 v 26 c 0,0.554 -0.446,1 -1,1 H 5 c -0.554,0 -1,-0.446 -1,-1 v -26 c 0,-0.554 0.446,-1 1,-1 z"
       id="rect829-5" /><g
       id="g847"
       transform="translate(46,-4.55627)"
       style="fill:#ffffff;fill-opacity:0.240122"><path
         style="fill:#ffffff;fill-opacity:0.240122;stroke-width:3.77953"
         d="m -30,305.20626 h -4 v 4 h 4 z"
         id="path2706" /><path
         style="fill:#ffffff;fill-opacity:0.240122;stroke-width:3.77953"
         d="m -30,301.20626 v 4 h 4 v -4 z"
         id="path2704" /><path
         style="fill:#ffffff;fill-opacity:0.240122;stroke-width:3.77953"
         d="m -34,301.20626 h 4 v -4 h -4 z"
         id="path2702" /><path
         style="fill:#ffffff;fill-opacity:0.240122;stroke-width:3.77953"
         d="m -38,301.20626 v -4 h -4 v 4 z"
         id="path2700" /><path
         style="fill:#ffffff;fill-opacity:0.240122;stroke-width:3.77953"
         d="m -38,305.20626 h 4 v -4 h -4 z"
         id="path2698" /><path
         style="fill:#ffffff;fill-opacity:0.240122;stroke-width:3.77953"
         d="m -38,309.20626 v -4 h -4 v 4 z"
         id="path2696" /><path
         style="fill:#ffffff;fill-opacity:0.240122;stroke-width:3.77953"
         d="m -38,313.20626 h -1 -2 -1 v 1 2 c 0,0.55394 0.446071,1 1,1 h 2 1 v -1 -2 z"
         id="path2694" /><path
         style="fill:#ffffff;fill-opacity:0.240122;stroke-width:3.77953"
         d="m -34,313.20626 v -4 h -4 v 4 z"
         id="path2692" /><path
         style="fill:#ffffff;fill-opacity:0.240122;stroke-width:3.77953"
         d="m -30,313.20626 h -4 v 4 h 4 z"
         id="path2690" /><path
         style="fill:#ffffff;fill-opacity:0.240122;stroke-width:3.77953"
         d="m -26,313.20626 v -4 h -4 v 4 z"
         id="path2688" /><path
         style="fill:#ffffff;fill-opacity:0.240122;stroke-width:3.77953"
         d="m -22,313.20626 h -4 v 4 h 4 z"
         id="path2686" /><path
         style="fill:#ffffff;fill-opacity:0.240122;stroke-width:3.77953"
         d="m -22,309.20626 v 1 2 1 h 3 1 v -1 -3 z"
         id="path2684" /><path
         style="fill:#ffffff;fill-opacity:0.240122;stroke-width:3.77953"
         d="m -22,305.20626 h -4 v 4 h 4 z"
         id="path2682" /><path
         style="fill:#ffffff;fill-opacity:0.240122;stroke-width:3.77953"
         d="m -22,301.20626 v 4 h 4 v -4 z"
         id="path2680" /><path
         style="fill:#ffffff;fill-opacity:0.240122;stroke-width:3.77953"
         d="m -22,297.20626 h -4 v 4 h 4 z"
         id="path2678" /><path
         style="fill:#ffffff;fill-opacity:0.240122;stroke-width:3.77953"
         d="m -22,293.20626 v 4 h 4 v -4 z"
         id="path2676" /><path
         style="fill:#ffffff;fill-opacity:0.240122;stroke-width:3.77953"
         d="m -26,293.20626 h 4 v -4 h -4 z"
         id="path2674" /><path
         style="fill:#ffffff;fill-opacity:0.240122;stroke-width:3.77953"
         d="m -30,293.20626 v 4 h 4 v -4 z"
         id="path2672" /><path
         style="fill:#ffffff;fill-opacity:0.240122;stroke-width:3.77953"
         d="m -34,293.20626 h 4 v -4 h -4 z"
         id="path2670" /><path
         style="fill:#ffffff;fill-opacity:0.240122;stroke-width:3.77953"
         d="m -38,293.20626 v 4 h 4 v -4 z"
         id="path2668" /><path
         style="fill:#ffffff;fill-opacity:0.240122;stroke-width:3.77953"
         d="m -41,289.20626 c -0.553946,0 -1,0.44607 -1,1 v 2 1 h 1 2 1 v -1 -2 -1 h -1 z"
         id="path1128" /></g><g
       id="g180-3"
       transform="translate(-4.9e-5,283.64999)"
       style="fill:#278c5a;fill-opacity:1"><g
         transform="translate(16,-294.64999)"
         id="g166-6"
         style="fill:#278c5a;fill-opacity:1" /><path
         d="m 13.476561,288.17223 c -2.482064,0.0126 -4.4765621,2.01485 -4.4765621,4.5 0,2.47008 1.9705491,4.46165 4.4316411,4.49805 0.02283,0 0.04544,0.002 0.06836,0.002 h 0.5 1 1 0.511718 c 0.04791,3.7e-4 0.09586,0.003 0.142578,0.008 0.04321,0.004 0.08493,0.0116 0.126953,0.0195 0.0071,0.001 0.01438,0.002 0.02148,0.004 0.0032,6.5e-4 0.0066,0.001 0.0098,0.002 0.0086,0.002 0.0169,0.004 0.02539,0.006 0.03972,0.009 0.07876,0.0191 0.117188,0.0312 0.04411,0.0139 0.08668,0.0291 0.128906,0.0469 0.0027,0.001 0.0052,0.003 0.0078,0.004 0.0421,0.018 0.08501,0.0369 0.125,0.0586 0.002,10e-4 0.0038,0.003 0.0059,0.004 0.04033,0.0221 0.07924,0.0467 0.117188,0.0723 0.0019,10e-4 0.0039,0.003 0.0059,0.004 0.03781,0.0258 0.07417,0.053 0.109375,0.082 0.0014,0.001 0.0025,0.003 0.0039,0.004 0.03671,0.0305 0.07186,0.0619 0.105468,0.0957 0.02625,0.0264 0.05195,0.0556 0.07617,0.084 0.0057,0.007 0.012,0.0128 0.01758,0.0195 0.0012,10e-4 0.0028,0.002 0.0039,0.004 0.02923,0.0357 0.05615,0.073 0.08203,0.11133 8.1e-4,0.001 0.0012,0.003 0.002,0.004 0.05302,0.0791 0.09933,0.16309 0.136719,0.25196 2.29e-4,5.4e-4 -2.28e-4,10e-4 0,0.002 0.01864,0.0444 0.0364,0.0883 0.05078,0.13476 0.0037,0.012 0.0063,0.0249 0.0098,0.0371 0.0214,0.0759 0.03562,0.15402 0.04492,0.23438 8.46e-4,0.007 0.0032,0.0141 0.0039,0.0215 6.6e-5,6.5e-4 -6.5e-5,0.001 0,0.002 0.005,0.0499 0.0078,0.10106 0.0078,0.15234 0,0.0517 -0.0028,0.10203 -0.0078,0.15234 -6.3e-5,6.4e-4 6.5e-5,10e-4 0,0.002 -7.45e-4,0.007 -0.0031,0.0142 -0.0039,0.0215 -0.0093,0.0804 -0.02352,0.15847 -0.04492,0.23438 -0.0033,0.0116 -0.0062,0.0237 -0.0098,0.0352 -1.85e-4,6e-4 1.86e-4,0.001 0,0.002 -0.01431,0.0462 -0.03226,0.0906 -0.05078,0.13476 -2.37e-4,5.7e-4 2.38e-4,10e-4 0,0.002 -0.03739,0.0889 -0.0837,0.17287 -0.136719,0.25196 -8.05e-4,10e-4 -0.0011,0.003 -0.002,0.004 -0.02597,0.0385 -0.05268,0.0755 -0.08203,0.11133 -0.0012,10e-4 -0.0027,0.002 -0.0039,0.004 -0.02923,0.0354 -0.05947,0.0709 -0.0918,0.10351 -0.0013,0.001 -0.0026,0.003 -0.0039,0.004 -0.03244,0.0324 -0.06821,0.0624 -0.103515,0.0918 -0.0014,0.001 -0.0025,0.003 -0.0039,0.004 -0.03541,0.0292 -0.07133,0.0561 -0.109375,0.082 -0.0019,10e-4 -0.0039,0.003 -0.0059,0.004 -0.03777,0.0255 -0.07705,0.0503 -0.117188,0.0723 -0.0021,10e-4 -0.0038,0.003 -0.0059,0.004 -0.04027,0.0218 -0.08259,0.0404 -0.125,0.0586 -0.0027,0.001 -0.0051,0.003 -0.0078,0.004 -0.04203,0.0177 -0.085,0.033 -0.128906,0.0469 -0.03843,0.0122 -0.07747,0.0222 -0.117187,0.0312 -0.0085,0.002 -0.01681,0.004 -0.02539,0.006 -0.0033,6.8e-4 -0.0065,0.001 -0.0098,0.002 -0.0071,0.001 -0.01439,0.003 -0.02148,0.004 -0.04202,0.008 -0.08375,0.0152 -0.126954,0.0195 -0.05055,0.005 -0.102359,0.008 -0.154296,0.008 h -1.5 -3 -1.511719 c -0.8245854,0 -1.4882814,0.66369 -1.4882814,1.48828 v 0.0234 c 0,0.82459 0.663696,1.48828 1.4882814,1.48828 h 1.511719 3 1.511718 c 0.01891,-4.6e-4 0.03772,-0.002 0.05664,-0.002 0.07686,-0.001 0.152663,-0.005 0.228516,-0.01 0.07596,-0.005 0.151697,-0.0109 0.226562,-0.0195 0.07486,-0.009 0.148987,-0.019 0.222657,-0.0312 0.06109,-0.0101 0.121426,-0.0207 0.18164,-0.0332 0.01243,-0.003 0.02472,-0.005 0.03711,-0.008 0.06043,-0.0131 0.120209,-0.0275 0.179688,-0.043 0.01181,-0.003 0.02338,-0.007 0.03516,-0.01 0.0066,-0.002 0.01296,-0.004 0.01953,-0.006 0.06435,-0.0176 0.128259,-0.0362 0.191406,-0.0566 0.06967,-0.0225 0.138911,-0.0465 0.207031,-0.0723 0.06787,-0.0256 0.134935,-0.0532 0.201172,-0.082 0.057,-0.0247 0.114189,-0.0492 0.169922,-0.0762 0.0092,-0.004 0.01821,-0.009 0.02734,-0.0137 0.0091,-0.004 0.01826,-0.009 0.02734,-0.0137 0.05549,-0.0279 0.109926,-0.0579 0.164063,-0.0879 0.0627,-0.0348 0.124744,-0.0698 0.185546,-0.10742 0.05337,-0.033 0.10636,-0.0664 0.158204,-0.10157 0.0073,-0.005 0.01417,-0.0106 0.02148,-0.0156 0.05164,-0.0355 0.102305,-0.0738 0.152343,-0.11133 0.0071,-0.005 0.01445,-0.0103 0.02148,-0.0156 0.05054,-0.0384 0.09961,-0.0767 0.148438,-0.11718 0.006,-0.005 0.01155,-0.0106 0.01758,-0.0156 0.05458,-0.0457 0.107836,-0.0924 0.160156,-0.14062 0.0524,-0.0483 0.10426,-0.0977 0.154297,-0.14844 0.04517,-0.0458 0.08963,-0.0929 0.132813,-0.14063 0.0046,-0.005 0.0091,-0.0105 0.01367,-0.0156 0.04355,-0.0486 0.08553,-0.098 0.126954,-0.14844 0.0038,-0.005 0.0079,-0.009 0.01172,-0.0137 0.01173,-0.0144 0.02165,-0.0304 0.0332,-0.0449 0.03301,-0.0416 0.06611,-0.0822 0.09766,-0.125 0.0396,-0.0536 0.07801,-0.10668 0.115234,-0.16211 0.0026,-0.004 0.0052,-0.008 0.0078,-0.0117 0.03708,-0.0556 0.07279,-0.11261 0.107422,-0.16992 0.0024,-0.004 0.0054,-0.008 0.0078,-0.0117 0.03447,-0.0575 0.06767,-0.11667 0.09961,-0.17578 0.01771,-0.0328 0.03387,-0.0663 0.05078,-0.0996 0.01779,-0.035 0.03584,-0.0699 0.05273,-0.10547 0.02948,-0.062 0.05925,-0.12399 0.08594,-0.1875 0.0013,-0.003 0.0026,-0.007 0.0039,-0.01 0.02679,-0.0642 0.05035,-0.12966 0.07422,-0.19531 9.9e-4,-0.003 0.0029,-0.005 0.0039,-0.008 0.02375,-0.0657 0.04566,-0.13208 0.06641,-0.19922 0.02185,-0.0707 0.04213,-0.14266 0.06055,-0.21484 5.06e-4,-0.002 0.0015,-0.004 0.002,-0.006 0.0054,-0.0212 0.0086,-0.0432 0.01367,-0.0645 0.01209,-0.0507 0.02479,-0.10094 0.03516,-0.15234 0.01442,-0.0715 0.02806,-0.14216 0.03906,-0.21484 1.91e-4,-0.001 -1.91e-4,-0.003 0,-0.004 0.01104,-0.0733 0.01986,-0.14817 0.02734,-0.22266 6.5e-5,-6.4e-4 -6.5e-5,-10e-4 0,-0.002 0.0074,-0.0745 0.01377,-0.14906 0.01758,-0.22461 3.2e-5,-6.4e-4 -3.2e-5,-10e-4 0,-0.002 0.0038,-0.0762 0.0059,-0.15328 0.0059,-0.23047 0,-0.0745 -0.0023,-0.1491 -0.0059,-0.22266 -1.28e-4,-0.003 1.32e-4,-0.005 0,-0.008 -0.0027,-0.0539 -0.0072,-0.10683 -0.01172,-0.16015 -0.0019,-0.0223 -0.0036,-0.0442 -0.0059,-0.0664 -0.0016,-0.0157 -0.0041,-0.0312 -0.0059,-0.0469 -0.0047,-0.0419 -0.0098,-0.0835 -0.01563,-0.125 -0.0058,-0.042 -0.01257,-0.0834 -0.01953,-0.125 -9.79e-4,-0.006 -9.53e-4,-0.0117 -0.002,-0.0176 -0.0074,-0.043 -0.01479,-0.0863 -0.02344,-0.12891 -0.0013,-0.007 -0.0026,-0.013 -0.0039,-0.0195 -0.008,-0.0387 -0.01833,-0.0769 -0.02734,-0.11524 -0.0084,-0.0358 -0.01617,-0.072 -0.02539,-0.10742 -0.03152,-0.12121 -0.06827,-0.24048 -0.109375,-0.35742 -0.03517,-0.10006 -0.07335,-0.19829 -0.115234,-0.29492 -0.02058,-0.0475 -0.0423,-0.096 -0.06445,-0.14258 l -0.002,-0.002 c -0.01789,-0.0376 -0.0358,-0.0743 -0.05469,-0.11133 -0.0049,-0.01 -0.0087,-0.0197 -0.01367,-0.0293 -6.73e-4,-10e-4 -0.0013,-0.003 -0.002,-0.004 -0.04744,-0.091 -0.09899,-0.18041 -0.152344,-0.26758 -0.03042,-0.0497 -0.06148,-0.10003 -0.09375,-0.14844 -0.0076,-0.0113 -0.01576,-0.0219 -0.02344,-0.0332 -0.03228,-0.0475 -0.06558,-0.0945 -0.09961,-0.14063 -0.01599,-0.0217 -0.03247,-0.0431 -0.04883,-0.0645 -0.02731,-0.0357 -0.05368,-0.0706 -0.08203,-0.10547 -0.0044,-0.005 -0.0093,-0.0103 -0.01367,-0.0156 -0.02856,-0.0348 -0.05831,-0.0697 -0.08789,-0.10352 -0.0046,-0.005 -0.0091,-0.0104 -0.01367,-0.0156 -0.0079,-0.009 -0.01547,-0.0184 -0.02344,-0.0273 -0.0267,-0.0298 -0.05455,-0.0588 -0.08203,-0.0879 -0.02161,-0.0229 -0.04237,-0.0459 -0.06445,-0.0684 -0.01419,-0.0144 -0.02858,-0.0288 -0.04297,-0.043 -0.03621,-0.0358 -0.07392,-0.0709 -0.111328,-0.10547 l -0.002,-0.002 c -0.0517,-0.0477 -0.104295,-0.0935 -0.158203,-0.13867 -0.06565,-0.055 -0.13239,-0.10699 -0.201172,-0.1582 -0.02358,-0.0176 -0.04637,-0.0356 -0.07031,-0.0527 -0.01814,-0.013 -0.03635,-0.0264 -0.05469,-0.0391 -0.0046,-0.003 -0.0091,-0.007 -0.01367,-0.01 -0.08127,-0.0558 -0.164958,-0.10769 -0.25,-0.1582 -0.03786,-0.0225 -0.07667,-0.045 -0.115235,-0.0664 -0.0071,-0.004 -0.01437,-0.008 -0.02148,-0.0117 -0.05606,-0.0308 -0.11243,-0.0614 -0.169921,-0.0898 -0.0044,-0.002 -0.0092,-0.004 -0.01367,-0.006 -0.124966,-0.0612 -0.253536,-0.11636 -0.384766,-0.16601 -0.0013,-5.1e-4 -0.0026,-10e-4 -0.0039,-0.002 -0.06665,-0.0251 -0.134988,-0.0483 -0.203125,-0.0703 h -0.0019 c -0.138641,-0.0447 -0.279573,-0.0839 -0.423828,-0.11523 -0.0032,-7.1e-4 -0.0065,-0.001 -0.0098,-0.002 -0.14892,-0.032 -0.300973,-0.0573 -0.455078,-0.0742 -0.141969,-0.0156 -0.285967,-0.0232 -0.431641,-0.0254 -0.01892,0 -0.03772,-10e-4 -0.05664,-0.002 h -0.511719 -1 -1 -0.5 c -0.830993,0 -1.5,-0.669 -1.5,-1.5 0,-0.82706 0.662761,-1.494 1.488282,-1.5 h 4.511718 1.511719 c 0.824585,0 1.488281,-0.66369 1.488281,-1.48828 v -0.0234 c 0,-0.82459 -0.663696,-1.48828 -1.488281,-1.48828 H 17.999999 13.48828 c -0.0039,10e-6 -0.0078,-2e-5 -0.01172,0 z"
         transform="translate(1.000004,-279.17223)"
         id="path168-7"
         style="fill:#278c5a;fill-opacity:1" /></g><g
       id="g180"
       transform="translate(5e-7,282.64999)"
       style="fill:#ebf9f2;fill-opacity:1"><g
         transform="translate(16,-294.64999)"
         id="g166"
         style="fill:#ebf9f2;fill-opacity:1" /><path
         d="m 13.476561,288.17223 c -2.482064,0.0126 -4.4765621,2.01485 -4.4765621,4.5 0,2.47008 1.9705491,4.46165 4.4316411,4.49805 0.02283,0 0.04544,0.002 0.06836,0.002 h 0.5 1 1 0.511718 c 0.04791,3.7e-4 0.09586,0.003 0.142578,0.008 0.04321,0.004 0.08493,0.0116 0.126953,0.0195 0.0071,0.001 0.01438,0.002 0.02148,0.004 0.0032,6.5e-4 0.0066,0.001 0.0098,0.002 0.0086,0.002 0.0169,0.004 0.02539,0.006 0.03972,0.009 0.07876,0.0191 0.117188,0.0312 0.04411,0.0139 0.08668,0.0291 0.128906,0.0469 0.0027,0.001 0.0052,0.003 0.0078,0.004 0.0421,0.018 0.08501,0.0369 0.125,0.0586 0.002,10e-4 0.0038,0.003 0.0059,0.004 0.04033,0.0221 0.07924,0.0467 0.117188,0.0723 0.0019,10e-4 0.0039,0.003 0.0059,0.004 0.03781,0.0258 0.07417,0.053 0.109375,0.082 0.0014,0.001 0.0025,0.003 0.0039,0.004 0.03671,0.0305 0.07186,0.0619 0.105468,0.0957 0.02625,0.0264 0.05195,0.0556 0.07617,0.084 0.0057,0.007 0.012,0.0128 0.01758,0.0195 0.0012,10e-4 0.0028,0.002 0.0039,0.004 0.02923,0.0357 0.05615,0.073 0.08203,0.11133 8.1e-4,0.001 0.0012,0.003 0.002,0.004 0.05302,0.0791 0.09933,0.16309 0.136719,0.25196 2.29e-4,5.4e-4 -2.28e-4,10e-4 0,0.002 0.01864,0.0444 0.0364,0.0883 0.05078,0.13476 0.0037,0.012 0.0063,0.0249 0.0098,0.0371 0.0214,0.0759 0.03562,0.15402 0.04492,0.23438 8.46e-4,0.007 0.0032,0.0141 0.0039,0.0215 6.6e-5,6.5e-4 -6.5e-5,0.001 0,0.002 0.005,0.0499 0.0078,0.10106 0.0078,0.15234 0,0.0517 -0.0028,0.10203 -0.0078,0.15234 -6.3e-5,6.4e-4 6.5e-5,10e-4 0,0.002 -7.45e-4,0.007 -0.0031,0.0142 -0.0039,0.0215 -0.0093,0.0804 -0.02352,0.15847 -0.04492,0.23438 -0.0033,0.0116 -0.0062,0.0237 -0.0098,0.0352 -1.85e-4,6e-4 1.86e-4,0.001 0,0.002 -0.01431,0.0462 -0.03226,0.0906 -0.05078,0.13476 -2.37e-4,5.7e-4 2.38e-4,10e-4 0,0.002 -0.03739,0.0889 -0.0837,0.17287 -0.136719,0.25196 -8.05e-4,10e-4 -0.0011,0.003 -0.002,0.004 -0.02597,0.0385 -0.05268,0.0755 -0.08203,0.11133 -0.0012,10e-4 -0.0027,0.002 -0.0039,0.004 -0.02923,0.0354 -0.05947,0.0709 -0.0918,0.10351 -0.0013,0.001 -0.0026,0.003 -0.0039,0.004 -0.03244,0.0324 -0.06821,0.0624 -0.103515,0.0918 -0.0014,0.001 -0.0025,0.003 -0.0039,0.004 -0.03541,0.0292 -0.07133,0.0561 -0.109375,0.082 -0.0019,10e-4 -0.0039,0.003 -0.0059,0.004 -0.03777,0.0255 -0.07705,0.0503 -0.117188,0.0723 -0.0021,10e-4 -0.0038,0.003 -0.0059,0.004 -0.04027,0.0218 -0.08259,0.0404 -0.125,0.0586 -0.0027,0.001 -0.0051,0.003 -0.0078,0.004 -0.04203,0.0177 -0.085,0.033 -0.128906,0.0469 -0.03843,0.0122 -0.07747,0.0222 -0.117187,0.0312 -0.0085,0.002 -0.01681,0.004 -0.02539,0.006 -0.0033,6.8e-4 -0.0065,0.001 -0.0098,0.002 -0.0071,0.001 -0.01439,0.003 -0.02148,0.004 -0.04202,0.008 -0.08375,0.0152 -0.126954,0.0195 -0.05055,0.005 -0.102359,0.008 -0.154296,0.008 h -1.5 -3 -1.511719 c -0.8245854,0 -1.4882814,0.66369 -1.4882814,1.48828 v 0.0234 c 0,0.82459 0.663696,1.48828 1.4882814,1.48828 h 1.511719 3 1.511718 c 0.01891,-4.6e-4 0.03772,-0.002 0.05664,-0.002 0.07686,-0.001 0.152663,-0.005 0.228516,-0.01 0.07596,-0.005 0.151697,-0.0109 0.226562,-0.0195 0.07486,-0.009 0.148987,-0.019 0.222657,-0.0312 0.06109,-0.0101 0.121426,-0.0207 0.18164,-0.0332 0.01243,-0.003 0.02472,-0.005 0.03711,-0.008 0.06043,-0.0131 0.120209,-0.0275 0.179688,-0.043 0.01181,-0.003 0.02338,-0.007 0.03516,-0.01 0.0066,-0.002 0.01296,-0.004 0.01953,-0.006 0.06435,-0.0176 0.128259,-0.0362 0.191406,-0.0566 0.06967,-0.0225 0.138911,-0.0465 0.207031,-0.0723 0.06787,-0.0256 0.134935,-0.0532 0.201172,-0.082 0.057,-0.0247 0.114189,-0.0492 0.169922,-0.0762 0.0092,-0.004 0.01821,-0.009 0.02734,-0.0137 0.0091,-0.004 0.01826,-0.009 0.02734,-0.0137 0.05549,-0.0279 0.109926,-0.0579 0.164063,-0.0879 0.0627,-0.0348 0.124744,-0.0698 0.185546,-0.10742 0.05337,-0.033 0.10636,-0.0664 0.158204,-0.10157 0.0073,-0.005 0.01417,-0.0106 0.02148,-0.0156 0.05164,-0.0355 0.102305,-0.0738 0.152343,-0.11133 0.0071,-0.005 0.01445,-0.0103 0.02148,-0.0156 0.05054,-0.0384 0.09961,-0.0767 0.148438,-0.11718 0.006,-0.005 0.01155,-0.0106 0.01758,-0.0156 0.05458,-0.0457 0.107836,-0.0924 0.160156,-0.14062 0.0524,-0.0483 0.10426,-0.0977 0.154297,-0.14844 0.04517,-0.0458 0.08963,-0.0929 0.132813,-0.14063 0.0046,-0.005 0.0091,-0.0105 0.01367,-0.0156 0.04355,-0.0486 0.08553,-0.098 0.126954,-0.14844 0.0038,-0.005 0.0079,-0.009 0.01172,-0.0137 0.01173,-0.0144 0.02165,-0.0304 0.0332,-0.0449 0.03301,-0.0416 0.06611,-0.0822 0.09766,-0.125 0.0396,-0.0536 0.07801,-0.10668 0.115234,-0.16211 0.0026,-0.004 0.0052,-0.008 0.0078,-0.0117 0.03708,-0.0556 0.07279,-0.11261 0.107422,-0.16992 0.0024,-0.004 0.0054,-0.008 0.0078,-0.0117 0.03447,-0.0575 0.06767,-0.11667 0.09961,-0.17578 0.01771,-0.0328 0.03387,-0.0663 0.05078,-0.0996 0.01779,-0.035 0.03584,-0.0699 0.05273,-0.10547 0.02948,-0.062 0.05925,-0.12399 0.08594,-0.1875 0.0013,-0.003 0.0026,-0.007 0.0039,-0.01 0.02679,-0.0642 0.05035,-0.12966 0.07422,-0.19531 9.9e-4,-0.003 0.0029,-0.005 0.0039,-0.008 0.02375,-0.0657 0.04566,-0.13208 0.06641,-0.19922 0.02185,-0.0707 0.04213,-0.14266 0.06055,-0.21484 5.06e-4,-0.002 0.0015,-0.004 0.002,-0.006 0.0054,-0.0212 0.0086,-0.0432 0.01367,-0.0645 0.01209,-0.0507 0.02479,-0.10094 0.03516,-0.15234 0.01442,-0.0715 0.02806,-0.14216 0.03906,-0.21484 1.91e-4,-0.001 -1.91e-4,-0.003 0,-0.004 0.01104,-0.0733 0.01986,-0.14817 0.02734,-0.22266 6.5e-5,-6.4e-4 -6.5e-5,-10e-4 0,-0.002 0.0074,-0.0745 0.01377,-0.14906 0.01758,-0.22461 3.2e-5,-6.4e-4 -3.2e-5,-10e-4 0,-0.002 0.0038,-0.0762 0.0059,-0.15328 0.0059,-0.23047 0,-0.0745 -0.0023,-0.1491 -0.0059,-0.22266 -1.28e-4,-0.003 1.32e-4,-0.005 0,-0.008 -0.0027,-0.0539 -0.0072,-0.10683 -0.01172,-0.16015 -0.0019,-0.0223 -0.0036,-0.0442 -0.0059,-0.0664 -0.0016,-0.0157 -0.0041,-0.0312 -0.0059,-0.0469 -0.0047,-0.0419 -0.0098,-0.0835 -0.01563,-0.125 -0.0058,-0.042 -0.01257,-0.0834 -0.01953,-0.125 -9.79e-4,-0.006 -9.53e-4,-0.0117 -0.002,-0.0176 -0.0074,-0.043 -0.01479,-0.0863 -0.02344,-0.12891 -0.0013,-0.007 -0.0026,-0.013 -0.0039,-0.0195 -0.008,-0.0387 -0.01833,-0.0769 -0.02734,-0.11524 -0.0084,-0.0358 -0.01617,-0.072 -0.02539,-0.10742 -0.03152,-0.12121 -0.06827,-0.24048 -0.109375,-0.35742 -0.03517,-0.10006 -0.07335,-0.19829 -0.115234,-0.29492 -0.02058,-0.0475 -0.0423,-0.096 -0.06445,-0.14258 l -0.002,-0.002 c -0.01789,-0.0376 -0.0358,-0.0743 -0.05469,-0.11133 -0.0049,-0.01 -0.0087,-0.0197 -0.01367,-0.0293 -6.73e-4,-10e-4 -0.0013,-0.003 -0.002,-0.004 -0.04744,-0.091 -0.09899,-0.18041 -0.152344,-0.26758 -0.03042,-0.0497 -0.06148,-0.10003 -0.09375,-0.14844 -0.0076,-0.0113 -0.01576,-0.0219 -0.02344,-0.0332 -0.03228,-0.0475 -0.06558,-0.0945 -0.09961,-0.14063 -0.01599,-0.0217 -0.03247,-0.0431 -0.04883,-0.0645 -0.02731,-0.0357 -0.05368,-0.0706 -0.08203,-0.10547 -0.0044,-0.005 -0.0093,-0.0103 -0.01367,-0.0156 -0.02856,-0.0348 -0.05831,-0.0697 -0.08789,-0.10352 -0.0046,-0.005 -0.0091,-0.0104 -0.01367,-0.0156 -0.0079,-0.009 -0.01547,-0.0184 -0.02344,-0.0273 -0.0267,-0.0298 -0.05455,-0.0588 -0.08203,-0.0879 -0.02161,-0.0229 -0.04237,-0.0459 -0.06445,-0.0684 -0.01419,-0.0144 -0.02858,-0.0288 -0.04297,-0.043 -0.03621,-0.0358 -0.07392,-0.0709 -0.111328,-0.10547 l -0.002,-0.002 c -0.0517,-0.0477 -0.104295,-0.0935 -0.158203,-0.13867 -0.06565,-0.055 -0.13239,-0.10699 -0.201172,-0.1582 -0.02358,-0.0176 -0.04637,-0.0356 -0.07031,-0.0527 -0.01814,-0.013 -0.03635,-0.0264 -0.05469,-0.0391 -0.0046,-0.003 -0.0091,-0.007 -0.01367,-0.01 -0.08127,-0.0558 -0.164958,-0.10769 -0.25,-0.1582 -0.03786,-0.0225 -0.07667,-0.045 -0.115235,-0.0664 -0.0071,-0.004 -0.01437,-0.008 -0.02148,-0.0117 -0.05606,-0.0308 -0.11243,-0.0614 -0.169921,-0.0898 -0.0044,-0.002 -0.0092,-0.004 -0.01367,-0.006 -0.124966,-0.0612 -0.253536,-0.11636 -0.384766,-0.16601 -0.0013,-5.1e-4 -0.0026,-10e-4 -0.0039,-0.002 -0.06665,-0.0251 -0.134988,-0.0483 -0.203125,-0.0703 h -0.0019 c -0.138641,-0.0447 -0.279573,-0.0839 -0.423828,-0.11523 -0.0032,-7.1e-4 -0.0065,-0.001 -0.0098,-0.002 -0.14892,-0.032 -0.300973,-0.0573 -0.455078,-0.0742 -0.141969,-0.0156 -0.285967,-0.0232 -0.431641,-0.0254 -0.01892,0 -0.03772,-10e-4 -0.05664,-0.002 h -0.511719 -1 -1 -0.5 c -0.830993,0 -1.5,-0.669 -1.5,-1.5 0,-0.82706 0.662761,-1.494 1.488282,-1.5 h 4.511718 1.511719 c 0.824585,0 1.488281,-0.66369 1.488281,-1.48828 v -0.0234 c 0,-0.82459 -0.663696,-1.48828 -1.488281,-1.48828 H 17.999999 13.48828 c -0.0039,10e-6 -0.0078,-2e-5 -0.01172,0 z"
         transform="translate(1.000004,-279.17223)"
         id="path168"
         style="fill:#ebf9f2;fill-opacity:1" /></g></g></svg>
