<?xml version="1.0" encoding="UTF-8" standalone="no"?>
<!-- Created with Inkscape (http://www.inkscape.org/) -->

<svg
   width="32"
   height="32"
   viewBox="0 0 32 32"
   version="1.1"
   id="svg8"
   inkscape:version="1.2.2 (b0a8486541, 2022-12-01)"
   sodipodi:docname="application-certificate.svg"
   xml:space="preserve"
   xmlns:inkscape="http://www.inkscape.org/namespaces/inkscape"
   xmlns:sodipodi="http://sodipodi.sourceforge.net/DTD/sodipodi-0.dtd"
   xmlns:xlink="http://www.w3.org/1999/xlink"
   xmlns="http://www.w3.org/2000/svg"
   xmlns:svg="http://www.w3.org/2000/svg"
   xmlns:rdf="http://www.w3.org/1999/02/22-rdf-syntax-ns#"
   xmlns:cc="http://creativecommons.org/ns#"
   xmlns:dc="http://purl.org/dc/elements/1.1/"><title
     id="title7895">Antu icon Theme</title><defs
     id="defs2"><linearGradient
       gradientTransform="matrix(3.7795275,0,0,3.7795275,-43.999999,-806.11971)"
       inkscape:collect="always"
       xlink:href="#linearGradient1500"
       id="linearGradient837-3"
       x1="4.2333336"
       y1="296.20624"
       x2="4.2333336"
       y2="289.59164"
       gradientUnits="userSpaceOnUse" /><linearGradient
       id="linearGradient1500"
       inkscape:collect="always"><stop
         id="stop1496"
         offset="0"
         style="stop-color:#262626;stop-opacity:1" /><stop
         id="stop1498"
         offset="1"
         style="stop-color:#333333;stop-opacity:1" /></linearGradient></defs><sodipodi:namedview
     id="base"
     pagecolor="#ffffff"
     bordercolor="#666666"
     borderopacity="1.0"
     inkscape:pageopacity="0.0"
     inkscape:pageshadow="2"
     inkscape:zoom="63.999996"
     inkscape:cx="25.179689"
     inkscape:cy="23.093751"
     inkscape:document-units="px"
     inkscape:current-layer="g4218"
     showgrid="true"
     units="px"
     inkscape:window-width="2560"
     inkscape:window-height="1363"
     inkscape:window-x="0"
     inkscape:window-y="0"
     inkscape:window-maximized="1"
     objecttolerance="10"
     gridtolerance="10"
     guidetolerance="10"
     inkscape:showpageshadow="2"
     inkscape:pagecheckerboard="0"
     inkscape:deskcolor="#d1d1d1"><inkscape:grid
       type="xygrid"
       id="grid7897"
       empspacing="4" /></sodipodi:namedview><metadata
     id="metadata5"><rdf:RDF><cc:Work
         rdf:about=""><dc:format>image/svg+xml</dc:format><dc:type
           rdf:resource="http://purl.org/dc/dcmitype/StillImage" /><dc:title>Antu icon Theme</dc:title></cc:Work></rdf:RDF></metadata><g
     inkscape:label="Capa 1"
     inkscape:groupmode="layer"
     id="layer1"
     transform="translate(0,-282.64999)"><g
       id="g4218"
       transform="translate(44,-1.75)"><path
         id="rect827-8"
         d="m -38.999999,285.39999 21.999999,0 c 1.108,0 2,0.89202 2,2.00001 l 0,26.00001 c 0,1.10797 -0.892,1.99998 -2,1.99998 l -21.999999,0 c -1.108,0 -2,-0.89201 -2,-1.99998 l 0,-26 c 0,-1.108 0.892,-2 2,-2.00002 z"
         style="opacity:1;fill:#1a1a1a;fill-opacity:1;stroke:none;stroke-width:1.99999988;stroke-linecap:round;stroke-linejoin:round;stroke-miterlimit:4;stroke-dasharray:none;stroke-opacity:1"
         inkscape:connector-curvature="0" /><path
         id="rect829-6"
         d="m -38.999999,286.40001 21.999999,0 c 0.554,0 1,0.44599 1,1 l 0,26 c 0,0.55401 -0.446,1 -1,1 l -21.999999,0 c -0.554,0 -1,-0.44599 -1,-1 l 0,-26 c 0,-0.55399 0.446,-1 1,-1 z"
         style="opacity:1;fill:url(#linearGradient837-3);fill-opacity:1;stroke:none;stroke-width:1.99999988;stroke-linecap:round;stroke-linejoin:round;stroke-miterlimit:4;stroke-dasharray:none;stroke-opacity:1"
         inkscape:connector-curvature="0" /><g
         transform="translate(-44,2.75)"
         id="g394-3-2"
         style="fill:#1a1a1a;fill-opacity:1"><g
           transform="translate(28,-2e-5)"
           id="g330-6-0"
           style="fill:#1a1a1a;fill-opacity:1" /><g
           fill="#eaedf0"
           id="g380-3-6"
           style="fill:#1a1a1a;fill-opacity:1"><path
             id="path332-5-1"
             style="fill:#1a1a1a;fill-opacity:1"
             d="M 6 286.64999 L 6 288.64999 L 11 288.64999 L 11 286.64999 L 6 286.64999 z M 12 286.64999 L 12 288.64999 L 14 288.64999 L 14 286.64999 L 12 286.64999 z M 15 286.64999 L 15 288.64999 L 20 288.64999 L 20 286.64999 L 15 286.64999 z M 21 286.64999 L 21 288.64999 L 23 288.64999 L 23 286.64999 L 21 286.64999 z M 6 289.64999 L 6 291.64999 L 14 291.64999 L 14 289.64999 L 6 289.64999 z M 15 289.64999 L 15 291.64999 L 17 291.64999 L 17 289.64999 L 15 289.64999 z M 18 289.64999 L 18 291.64999 L 23 291.64999 L 23 289.64999 L 18 289.64999 z M 6 292.64999 L 6 294.64999 L 8 294.64999 L 8 292.64999 L 6 292.64999 z M 9 292.64999 L 9 294.64999 L 11 294.64999 L 11 292.64999 L 9 292.64999 z M 12 292.64999 L 12 294.64999 L 17 294.64999 L 17 292.64999 L 12 292.64999 z M 18 292.64999 L 18 294.64999 L 20 294.64999 L 20 292.64999 L 18 292.64999 z M 21 292.64999 L 21 294.64999 L 23 294.64999 L 23 292.64999 L 21 292.64999 z M 6 295.64999 L 6 297.64999 L 11 297.64999 L 11 295.64999 L 6 295.64999 z M 12 295.64999 L 12 297.64999 L 14 297.64999 L 14 295.64999 L 12 295.64999 z M 15 295.64999 L 15 297.64999 L 20 297.64999 L 20 295.64999 L 15 295.64999 z M 6 298.64999 L 6 300.64999 L 8 300.64999 L 8 298.64999 L 6 298.64999 z M 9 298.64999 L 9 300.64999 L 14 300.64999 L 14 298.64999 L 9 298.64999 z M 15 298.64999 L 15 300.64999 L 18 300.64999 L 18 298.64999 L 15 298.64999 z M 23 298.64999 C 20.784002 298.64999 19 300.43399 19 302.64999 C 19 303.66816 19.377906 304.59379 20 305.29843 L 20 311.64999 L 23 309.64999 L 26 311.64999 L 26 305.29843 C 26.622094 304.59379 27 303.66816 27 302.64999 C 27 300.43399 25.215998 298.64999 23 298.64999 z M 6 301.64999 L 6 303.64999 L 11 303.64999 L 11 301.64999 L 6 301.64999 z M 12 301.64999 L 12 303.64999 L 14 303.64999 L 14 301.64999 L 12 301.64999 z M 15 301.64999 L 15 303.64999 L 18 303.64999 L 18 301.64999 L 15 301.64999 z M 6 304.64999 L 6 306.64999 L 8 306.64999 L 8 304.64999 L 6 304.64999 z M 9 304.64999 L 9 306.64999 L 12 306.64999 L 12 304.64999 L 9 304.64999 z M 13 304.64999 L 13 306.64999 L 18 306.64999 L 18 304.64999 L 13 304.64999 z M 6 307.64999 L 6 309.64999 L 11 309.64999 L 11 307.64999 L 6 307.64999 z M 12 307.64999 L 12 309.64999 L 15 309.64999 L 15 307.64999 L 12 307.64999 z " /></g><g
           stroke-miterlimit="1.8"
           id="g392-5-8"
           style="fill:#1a1a1a;fill-opacity:1" /></g><path
         style="fill:#1aa7ff;fill-opacity:1;stroke:none;stroke-width:2;stroke-linecap:round;stroke-linejoin:round;paint-order:stroke fill markers"
         d="m -24,305.39999 h 6 v 8 l -3,-2 -3,2 z"
         id="path5106" /><g
         transform="translate(-44,1.75)"
         id="g394-3"><g
           transform="translate(28,-2e-5)"
           id="g330-6" /><g
           fill="#eaedf0"
           id="g380-3"><path
             d="m 6,286.64999 h 5 v 2 H 6 Z"
             id="path332-5" /><path
             d="m 12,286.64999 h 2 v 2 h -2 z"
             id="path334-6" /><path
             d="m 15,286.64999 h 5 v 2 h -5 z"
             id="path336-2" /><path
             d="m 21,286.64999 h 2 v 2 h -2 z"
             id="path338-9" /><path
             d="m 6,289.64999 h 8 v 2 H 6 Z"
             id="path340-1" /><path
             d="m 15,289.64999 h 2 v 2 h -2 z"
             id="path342-2" /><path
             d="m 18,289.64999 h 5 v 2 h -5 z"
             id="path344-7" /><path
             d="m 6,292.64999 h 2 v 2 H 6 Z"
             id="path346-0" /><path
             d="m 9,292.64999 h 2 v 2 H 9 Z"
             id="path348-9" /><path
             d="m 12,292.64999 h 5 v 2 h -5 z"
             id="path350-3" /><path
             d="m 18,292.64999 h 2 v 2 h -2 z"
             id="path352-6" /><path
             d="m 21,292.64999 h 2 v 2 h -2 z"
             id="path354-0" /><path
             d="m 6,295.64999 h 5 v 2 H 6 Z"
             id="path356-6" /><path
             d="m 6,298.64999 h 2 v 2 H 6 Z"
             id="path358-2" /><path
             d="m 9,298.64999 v 2 h 5 v -2 z m 6,0 v 2 h 3 v -2 z m 0,3 v 2 h 3 v -2 z"
             id="path360-6" /><path
             d="m 6,301.64999 h 5 v 2 H 6 Z"
             id="path362-1" /><path
             d="m 6,304.64999 h 2 v 2 H 6 Z"
             id="path364-8" /><path
             d="m 13,304.64999 h 5 v 2 h -5 z"
             id="path366-7" /><path
             d="m 9,304.64999 h 3 v 2 H 9 Z"
             id="path368-9" /><path
             d="m 6,307.64999 h 5 v 2 H 6 Z"
             id="path370-2" /><path
             d="m 12,307.64999 h 3 v 2 h -3 z"
             id="path372-0" /><path
             d="m 12,301.64999 h 2 v 2 h -2 z"
             id="path374-2" /><path
             d="m 12,295.64999 h 2 v 2 h -2 z"
             id="path376-3" /><path
             d="m 15,295.64999 h 5 v 2 h -5 z"
             id="path378-7" /></g></g><path
         style="fill:#5ac0ff;fill-opacity:1;stroke-width:2;stroke-linecap:round;stroke-linejoin:round;paint-order:stroke fill markers"
         d="m -23,304.39999 v 7 l 2,-1 2,1 v -7 z"
         id="path21380"
         sodipodi:nodetypes="cccccc" /><path
         id="rect1982"
         style="fill:#fcb936;stroke-width:2;stroke-linecap:round;stroke-linejoin:round;paint-order:stroke fill markers;fill-opacity:1"
         d="m -21,300.39999 c 2.216,0 4,1.784 4,4 v 10e-6 c 0,2.216 -1.784,4 -4,4 -2.216,0 -4,-1.784 -4,-4 v -10e-6 c 0,-2.216 1.784,-4 4,-4 z" /><path
         id="rect1982-3"
         style="fill:#fcd277;fill-opacity:1;stroke-width:1.5;stroke-linecap:round;stroke-linejoin:round;paint-order:stroke fill markers"
         d="m -21,301.39999 c 1.662,0 3,1.338 3,3 v 10e-6 c 0,1.662 -1.338,3 -3,3 -1.662,0 -3,-1.338 -3,-3 v -10e-6 c 0,-1.662 1.338,-3 3,-3 z" /></g></g></svg>
