<?xml version="1.0" encoding="UTF-8" standalone="no"?>
<svg
   height="32"
   viewBox="0 0 32 32"
   width="32"
   version="1.1"
   id="svg10"
   sodipodi:docname="application-mathml+xml.svg"
   xml:space="preserve"
   inkscape:version="1.2.2 (b0a8486541, 2022-12-01)"
   xmlns:inkscape="http://www.inkscape.org/namespaces/inkscape"
   xmlns:sodipodi="http://sodipodi.sourceforge.net/DTD/sodipodi-0.dtd"
   xmlns:xlink="http://www.w3.org/1999/xlink"
   xmlns="http://www.w3.org/2000/svg"
   xmlns:svg="http://www.w3.org/2000/svg"><defs
     id="defs14"><linearGradient
       inkscape:collect="always"
       id="linearGradient1204"><stop
         style="stop-color:#de386d;stop-opacity:1;"
         offset="0"
         id="stop1200" /><stop
         style="stop-color:#f15082;stop-opacity:1;"
         offset="1"
         id="stop1202" /></linearGradient><linearGradient
       inkscape:collect="always"
       xlink:href="#linearGradient1204"
       id="linearGradient1206"
       x1="-12"
       y1="305.39999"
       x2="-12"
       y2="279.39999"
       gradientUnits="userSpaceOnUse" /></defs><sodipodi:namedview
     id="namedview12"
     pagecolor="#ffffff"
     bordercolor="#000000"
     borderopacity="0.25"
     inkscape:showpageshadow="2"
     inkscape:pageopacity="0.0"
     inkscape:pagecheckerboard="0"
     inkscape:deskcolor="#d1d1d1"
     showgrid="true"
     inkscape:zoom="22.693708"
     inkscape:cx="17.119283"
     inkscape:cy="15.070256"
     inkscape:window-width="2560"
     inkscape:window-height="1363"
     inkscape:window-x="0"
     inkscape:window-y="0"
     inkscape:window-maximized="1"
     inkscape:current-layer="svg10"><inkscape:grid
       type="xygrid"
       id="grid1898" /></sodipodi:namedview><g
     transform="translate(28 -276.39999)"
     id="g6"><path
       style="fill:#ba205b;fill-opacity:1"
       d="m -23,277.39999 h 21.999999 c 1.108,0 2,0.892 2,2 v 26 c 0,1.108 -0.892,2 -2,2 H -23 c -1.108,0 -2,-0.892 -2,-2 v -26 c 0,-1.108 0.892,-2 2,-2 z"
       id="path2" /><path
       style="fill-opacity:1;fill:url(#linearGradient1206)"
       d="m -23,278.39999 h 21.999999 c 0.554,0 1,0.446 1,1 v 26 c 0,0.554 -0.446,1 -1,1 H -23 c -0.554,0 -1,-0.446 -1,-1 v -26 c 0,-0.554 0.446,-1 1,-1 z"
       id="path4" /></g><g
     inkscape:label="Capa 1"
     id="layer1-3"
     transform="matrix(3.7795275,0,0,3.7795275,3.2910926e-7,1.0000001)"
     style="fill:#ba205b;fill-opacity:1"><g
       id="g544-6"
       transform="translate(-14.552084,-10.583334)"
       style="fill:#ba205b;fill-opacity:1" /><path
       id="rect1356-7"
       style="fill:#ba205b;fill-opacity:1;stroke:none;stroke-width:0.264583;stroke-linecap:round;stroke-linejoin:round"
       d="M 2.9104167,2.6458333 V 3.175 H 2.38125 V 3.7041667 H 2.9104167 V 4.2333333 H 3.4395833 V 3.7041667 H 3.96875 V 3.175 H 3.4395833 V 2.6458333 Z M 5.2777141,2.9104167 C 4.9909376,2.9176337 4.7625,3.1510059 4.7625,3.4395833 c 0,0.2931581 0.2360087,0.5291667 0.5291667,0.5291667 0.293158,0 0.5291667,-0.2360086 0.5291667,-0.5291667 0,-0.293158 -0.2360087,-0.5291666 -0.5291667,-0.5291666 -0.00458,0 -0.0094,-1.146e-4 -0.013953,0 z m -0.7797974,1.5875 v 0.5291667 h 1.5875 V 4.4979167 Z M 2.38125,5.0270834 V 5.55625 h 1.5875 V 5.0270834 Z m 2.1166667,0.2645833 v 0.5291667 h 1.5875 V 5.2916667 Z" /></g><g
     inkscape:label="Capa 1"
     id="layer1"
     transform="scale(3.7795275)"
     style="fill:#ffffff;fill-opacity:1"><g
       id="g544"
       transform="translate(-14.552084,-10.583334)"
       style="fill:#ffffff;fill-opacity:1" /><path
       id="rect1356"
       style="fill:#ffffff;fill-opacity:1;stroke:none;stroke-width:0.264583;stroke-linecap:round;stroke-linejoin:round"
       d="M 2.9104167,2.6458333 V 3.175 H 2.38125 V 3.7041667 H 2.9104167 V 4.2333333 H 3.4395833 V 3.7041667 H 3.96875 V 3.175 H 3.4395833 V 2.6458333 Z M 5.2777141,2.9104167 C 4.9909376,2.9176337 4.7625,3.1510059 4.7625,3.4395833 c 0,0.2931581 0.2360087,0.5291667 0.5291667,0.5291667 0.293158,0 0.5291667,-0.2360086 0.5291667,-0.5291667 0,-0.293158 -0.2360087,-0.5291666 -0.5291667,-0.5291666 -0.00458,0 -0.0094,-1.146e-4 -0.013953,0 z m -0.7797974,1.5875 v 0.5291667 h 1.5875 V 4.4979167 Z M 2.38125,5.0270834 V 5.55625 h 1.5875 V 5.0270834 Z m 2.1166667,0.2645833 v 0.5291667 h 1.5875 V 5.2916667 Z" /></g></svg>
