<?xml version="1.0" encoding="UTF-8" standalone="no"?>
<!-- Created with Inkscape (http://www.inkscape.org/) -->

<svg
   width="32"
   height="32"
   viewBox="0 0 32 32"
   version="1.1"
   id="svg8"
   inkscape:version="1.2.2 (b0a8486541, 2022-12-01)"
   sodipodi:docname="application-x-font-type1.svg"
   xml:space="preserve"
   xmlns:inkscape="http://www.inkscape.org/namespaces/inkscape"
   xmlns:sodipodi="http://sodipodi.sourceforge.net/DTD/sodipodi-0.dtd"
   xmlns:xlink="http://www.w3.org/1999/xlink"
   xmlns="http://www.w3.org/2000/svg"
   xmlns:svg="http://www.w3.org/2000/svg"
   xmlns:rdf="http://www.w3.org/1999/02/22-rdf-syntax-ns#"
   xmlns:cc="http://creativecommons.org/ns#"
   xmlns:dc="http://purl.org/dc/elements/1.1/"><title
     id="title7895">Antu icon Theme</title><defs
     id="defs2"><style
       id="current-color-scheme"
       type="text/css">
      .ColorScheme-Text {
        color:#122036;
      }
      </style><style
       type="text/css"
       id="current-color-scheme-53">
      .ColorScheme-Text {
        color:#122036;
      }
      </style><style
       id="current-color-scheme-5"
       type="text/css">
      .ColorScheme-Text {
        color:#122036;
      }
      </style><style
       id="current-color-scheme-2"
       type="text/css">
      .ColorScheme-Text {
        color:#122036;
      }
      </style><style
       id="current-color-scheme-1"
       type="text/css">
      .ColorScheme-Text {
        color:#122036;
      }
      </style><style
       type="text/css"
       id="current-color-scheme-10">
      .ColorScheme-Text {
        color:#122036;
      }
      </style><style
       id="current-color-scheme-0"
       type="text/css">
      .ColorScheme-Text {
        color:#122036;
      }
      </style><style
       id="current-color-scheme-26"
       type="text/css">
      .ColorScheme-Text {
        color:#122036;
      }
      </style><style
       id="current-color-scheme-7"
       type="text/css">
      .ColorScheme-Text {
        color:#122036;
      }
      </style><linearGradient
       gradientTransform="matrix(3.7795275,0,0,3.7795275,-26.125,-825.36964)"
       inkscape:collect="always"
       xlink:href="#linearGradient4622"
       id="linearGradient837-3"
       x1="4.2333336"
       y1="296.20624"
       x2="4.2333336"
       y2="289.59164"
       gradientUnits="userSpaceOnUse" /><linearGradient
       inkscape:collect="always"
       id="linearGradient4622"><stop
         style="stop-color:#ff6a3e;stop-opacity:1"
         offset="0"
         id="stop4618" /><stop
         style="stop-color:#ff9065;stop-opacity:1"
         offset="1"
         id="stop4620" /></linearGradient></defs><sodipodi:namedview
     id="base"
     pagecolor="#ffffff"
     bordercolor="#666666"
     borderopacity="1.0"
     inkscape:pageopacity="0.0"
     inkscape:pageshadow="2"
     inkscape:zoom="22.627417"
     inkscape:cx="16.064582"
     inkscape:cy="17.810252"
     inkscape:document-units="px"
     inkscape:current-layer="g268-3"
     showgrid="true"
     units="px"
     inkscape:window-width="2560"
     inkscape:window-height="1363"
     inkscape:window-x="0"
     inkscape:window-y="0"
     inkscape:window-maximized="1"
     objecttolerance="10"
     gridtolerance="10"
     guidetolerance="10"
     inkscape:showpageshadow="2"
     inkscape:pagecheckerboard="0"
     inkscape:deskcolor="#d1d1d1"><inkscape:grid
       type="xygrid"
       id="grid7897"
       empspacing="4" /></sodipodi:namedview><metadata
     id="metadata5"><rdf:RDF><cc:Work
         rdf:about=""><dc:format>image/svg+xml</dc:format><dc:type
           rdf:resource="http://purl.org/dc/dcmitype/StillImage" /><dc:title>Antu icon Theme</dc:title></cc:Work></rdf:RDF></metadata><g
     inkscape:label="Capa 1"
     inkscape:groupmode="layer"
     id="layer1"
     transform="translate(0,-282.64999)"><g
       inkscape:label="Capa 1"
       id="layer1-2"><g
         id="g5515"
         transform="translate(26.125,17.49998)"><path
           inkscape:connector-curvature="0"
           style="opacity:1;fill:#dd4d25;fill-opacity:1;stroke:none;stroke-width:2;stroke-linecap:round;stroke-linejoin:round;stroke-miterlimit:4;stroke-dasharray:none;stroke-opacity:1"
           d="M -21.125,266.15001 H 0.87499937 c 1.10800003,0 2.00000003,0.89202 2.00000003,2.00001 v 26.00001 c 0,1.10797 -0.892,1.99998 -2.00000003,1.99998 H -21.125 c -1.108,0 -2,-0.89201 -2,-1.99998 v -26 c 0,-1.108 0.892,-2.00001 2,-2.00002 z"
           id="rect827-8" /><path
           inkscape:connector-curvature="0"
           style="opacity:1;fill:url(#linearGradient837-3);fill-opacity:1;stroke:none;stroke-width:2;stroke-linecap:round;stroke-linejoin:round;stroke-miterlimit:4;stroke-dasharray:none;stroke-opacity:1"
           d="M -21.125,267.15003 H 0.87499937 c 0.55400003,0 1.00000003,0.44599 1.00000003,1 v 26 c 0,0.55401 -0.446,1 -1.00000003,1 H -21.125 c -0.554,0 -1,-0.44599 -1,-1 v -26 c 0,-0.554 0.446,-1 1,-1 z"
           id="rect829-6" /></g><g
         id="g1507"
         transform="translate(28,17.75)" /><g
         id="g268-3"
         transform="translate(-0.0034438,282.65147)"><g
           transform="translate(28,-264.89999)"
           id="g254-6" /><path
           style="fill:#dd4d25;fill-opacity:1;stroke-width:3.77953"
           d="M 9.0019678,8 V 9.0000003 10 l 3.0014762,-0.00148 0.0074,14.001491 c 0,0 0.0037,0.99852 -1,0.999999 l -1.001487,0.0015 v 1 h 7 v -1 h -1 c 0,0 -1.000001,0.0037 -1.000001,-1 l -0.0054,-6.001976 h 2.000001 c 0,0 1,-0.0037 1,1 h 0.999999 v -4 h -0.999999 c 0,0 0.0037,1 -1,1 h -2.000001 l -0.002,-5.999515 h 5 c 0,0 1,10e-7 1,1 v 1 h 2 V 10 9.0000003 8 h -13 z"
           id="path256-7-7" /><path
           style="fill:#ffffff;fill-opacity:1"
           d="m 2.1152324,0.52864396 v 0.2645834 0.26458324 l 0.7941404,-3.906e-4 0.00196,3.7045612 c 0,0 9.764e-4,0.2641919 -0.2645833,0.2645833 L 2.3817727,5.0269551 V 5.2915385 H 4.233856 V 5.0269551 H 3.9692727 c 0,0 -0.2645834,9.768e-4 -0.2645834,-0.2645833 L 3.703255,3.174349 h 0.5291667 c 0,0 0.2645833,-9.77e-4 0.2645833,0.2645833 H 4.7615883 V 2.380599 H 4.497005 c 0,0 9.769e-4,0.2645833 -0.2645833,0.2645833 H 3.703255 L 3.7027323,1.0578106 H 5.025649 c 0,0 0.2645833,3e-7 0.2645833,0.2645833 V 1.5869773 H 5.819399 V 1.0578106 0.79322736 0.52864394 l -3.4395833,2e-8 z"
           transform="matrix(3.7795276,0,0,3.7795276,1.007389,5.00197)"
           id="path256-7" /></g></g></g></svg>
