<?xml version="1.0" encoding="UTF-8" standalone="no"?>
<!-- Created with Inkscape (http://www.inkscape.org/) -->

<svg
   width="32"
   height="32"
   viewBox="0 0 32 32"
   version="1.1"
   id="svg8"
   inkscape:version="1.2.2 (b0a8486541, 2022-12-01)"
   sodipodi:docname="image-vnd.dgn.svg"
   xml:space="preserve"
   xmlns:inkscape="http://www.inkscape.org/namespaces/inkscape"
   xmlns:sodipodi="http://sodipodi.sourceforge.net/DTD/sodipodi-0.dtd"
   xmlns:xlink="http://www.w3.org/1999/xlink"
   xmlns="http://www.w3.org/2000/svg"
   xmlns:svg="http://www.w3.org/2000/svg"
   xmlns:rdf="http://www.w3.org/1999/02/22-rdf-syntax-ns#"
   xmlns:cc="http://creativecommons.org/ns#"
   xmlns:dc="http://purl.org/dc/elements/1.1/"><title
     id="title7895">Antu icon Theme</title><defs
     id="defs2"><linearGradient
       id="linearGradient5412"
       inkscape:collect="always"><stop
         id="stop5408"
         offset="0"
         style="stop-color:#157eef;stop-opacity:1;" /><stop
         id="stop5410"
         offset="1"
         style="stop-color:#34affa;stop-opacity:1;" /></linearGradient><linearGradient
       gradientTransform="matrix(3.7795275,0,0,3.7795275,10e-7,-807.86971)"
       inkscape:collect="always"
       xlink:href="#linearGradient5412"
       id="linearGradient837-3"
       x1="4.2333336"
       y1="296.20624"
       x2="4.2333331"
       y2="289.19476"
       gradientUnits="userSpaceOnUse" /><style
       type="text/css"
       id="current-color-scheme">
      .ColorScheme-Text {
        color:#122036;
      }
      </style><style
       type="text/css"
       id="current-color-scheme-63">
      .ColorScheme-Text {
        color:#36404d;
      }
      </style><style
       type="text/css"
       id="current-color-scheme-67">
      .ColorScheme-Text {
        color:#122036;
      }
      </style><style
       type="text/css"
       id="current-color-scheme-7">
      .ColorScheme-Text {
        color:#122036;
      }
      </style><style
       type="text/css"
       id="current-color-scheme-5">
      .ColorScheme-Text {
        color:#122036;
      }
      </style><style
       type="text/css"
       id="current-color-scheme-6">
      .ColorScheme-Text {
        color:#122036;
      }
      </style><style
       type="text/css"
       id="current-color-scheme-1">
      .ColorScheme-Text {
        color:#122036;
      }
      </style><style
       id="current-color-scheme-10"
       type="text/css">
      .ColorScheme-Text {
        color:#122036;
      }
      </style><style
       id="current-color-scheme-5-7"
       type="text/css">
      .ColorScheme-Text {
        color:#122036;
      }
      </style><style
       id="current-color-scheme-1-2"
       type="text/css">
      .ColorScheme-Text {
        color:#122036;
      }
      </style><style
       type="text/css"
       id="current-color-scheme-10-9">
      .ColorScheme-Text {
        color:#122036;
      }
      </style><style
       type="text/css"
       id="current-color-scheme-75">
      .ColorScheme-Text {
        color:#122036;
      }
      </style><style
       type="text/css"
       id="current-color-scheme-1-3">
      .ColorScheme-Text {
        color:#122036;
      }
      </style><style
       id="current-color-scheme-10-5"
       type="text/css">
      .ColorScheme-Text {
        color:#122036;
      }
      </style><style
       id="current-color-scheme-5-6"
       type="text/css">
      .ColorScheme-Text {
        color:#122036;
      }
      </style><style
       id="current-color-scheme-1-2-2"
       type="text/css">
      .ColorScheme-Text {
        color:#122036;
      }
      </style><style
       type="text/css"
       id="current-color-scheme-10-9-9">
      .ColorScheme-Text {
        color:#122036;
      }
      </style><style
       type="text/css"
       id="current-color-scheme-6-1">
      .ColorScheme-Text {
        color:#122036;
      }
      </style><style
       type="text/css"
       id="current-color-scheme-1-9">
      .ColorScheme-Text {
        color:#122036;
      }
      </style><style
       id="current-color-scheme-10-1"
       type="text/css">
      .ColorScheme-Text {
        color:#122036;
      }
      </style><style
       type="text/css"
       id="current-color-scheme-7-2">
      .ColorScheme-Text {
        color:#122036;
      }
      </style><style
       type="text/css"
       id="current-color-scheme-1-5">
      .ColorScheme-Text {
        color:#122036;
      }
      </style><style
       id="current-color-scheme-10-3"
       type="text/css">
      .ColorScheme-Text {
        color:#122036;
      }
      </style><style
       id="current-color-scheme-5-5"
       type="text/css">
      .ColorScheme-Text {
        color:#122036;
      }
      </style><style
       id="current-color-scheme-1-2-6"
       type="text/css">
      .ColorScheme-Text {
        color:#122036;
      }
      </style><style
       type="text/css"
       id="current-color-scheme-10-9-2">
      .ColorScheme-Text {
        color:#122036;
      }
      </style><style
       type="text/css"
       id="current-color-scheme-6-9">
      .ColorScheme-Text {
        color:#122036;
      }
      </style><style
       type="text/css"
       id="current-color-scheme-1-9-1">
      .ColorScheme-Text {
        color:#122036;
      }
      </style><style
       id="current-color-scheme-10-1-2"
       type="text/css">
      .ColorScheme-Text {
        color:#122036;
      }
      </style></defs><sodipodi:namedview
     id="base"
     pagecolor="#ffffff"
     bordercolor="#666666"
     borderopacity="1.0"
     inkscape:pageopacity="0.0"
     inkscape:pageshadow="2"
     inkscape:zoom="32"
     inkscape:cx="17.265625"
     inkscape:cy="17.46875"
     inkscape:document-units="px"
     inkscape:current-layer="layer1"
     showgrid="true"
     units="px"
     inkscape:window-width="2560"
     inkscape:window-height="1363"
     inkscape:window-x="0"
     inkscape:window-y="0"
     inkscape:window-maximized="1"
     objecttolerance="10"
     gridtolerance="10"
     guidetolerance="10"
     inkscape:snap-bbox="true"
     inkscape:bbox-nodes="true"
     inkscape:showpageshadow="false"
     inkscape:bbox-paths="true"
     inkscape:snap-bbox-edge-midpoints="true"
     inkscape:snap-bbox-midpoints="true"
     inkscape:object-paths="true"
     inkscape:snap-intersection-paths="true"
     inkscape:object-nodes="false"
     inkscape:snap-smooth-nodes="false"
     inkscape:snap-midpoints="false"
     inkscape:pagecheckerboard="0"
     inkscape:deskcolor="#d1d1d1"><inkscape:grid
       type="xygrid"
       id="grid7897"
       empspacing="4" /></sodipodi:namedview><metadata
     id="metadata5"><rdf:RDF><cc:Work
         rdf:about=""><dc:format>image/svg+xml</dc:format><dc:type
           rdf:resource="http://purl.org/dc/dcmitype/StillImage" /><dc:title>Antu icon Theme</dc:title></cc:Work></rdf:RDF></metadata><g
     inkscape:label="Capa 1"
     inkscape:groupmode="layer"
     id="layer1"
     transform="translate(0,-282.64999)"><path
       inkscape:connector-curvature="0"
       style="fill:#166ec1;fill-opacity:1;stroke:none;stroke-width:2;stroke-linecap:round;stroke-linejoin:round;stroke-miterlimit:4;stroke-dasharray:none;stroke-opacity:1"
       d="M 5.000001,283.64999 H 27 c 1.108,0 2,0.89202 2,2.00001 v 26.00001 c 0,1.10797 -0.892,1.99998 -2,1.99998 H 5.000001 c -1.108,0 -2,-0.89201 -2,-1.99998 v -26 c 0,-1.108 0.892,-2 2,-2.00002 z"
       id="rect827-8" /><path
       inkscape:connector-curvature="0"
       style="fill:url(#linearGradient837-3);fill-opacity:1;stroke:none;stroke-width:2;stroke-linecap:round;stroke-linejoin:round;stroke-miterlimit:4;stroke-dasharray:none;stroke-opacity:1"
       d="M 5.000001,284.65001 H 27 c 0.554,0 1,0.44599 1,1 v 26 c 0,0.55401 -0.446,1 -1,1 H 5.000001 c -0.554,0 -1,-0.44599 -1,-1 v -26 c 0,-0.55399 0.446,-1 1,-1 z"
       id="rect829-6" /><g
       transform="translate(15.997028,9.0000094)"
       id="g388-3"
       style="fill:#166ec1;fill-opacity:1" /><g
       transform="translate(15.994141,9.0039169)"
       id="g388-7"
       style="fill:#166ec1;fill-opacity:1"><path
         id="path1312-5"
         d="m 99.591852,162.52656 a 0.26460996,0.26460996 0 0 0 -0.09405,0.0264 l -1.058333,0.52968 a 0.2645835,0.2645835 0 0 0 -0.117305,0.35554 0.2645835,0.2645835 0 0 0 0.353466,0.11679 l 0.941545,-0.46871 1.260385,0.62942 -1.260385,0.63045 -1.468644,-0.73432 a 0.26460996,0.26460996 0 0 0 -0.38499,0.23616 v 1.58802 a 0.26460996,0.26460996 0 0 0 0.146761,0.23616 l 1.5875,0.79323 a 0.26460996,0.26460996 0 0 0 0.02997,0.0114 0.2645835,0.2645835 0 0 0 0.0078,0.003 0.26460996,0.26460996 0 0 0 0.03876,0.009 0.2645835,0.2645835 0 0 0 0.01189,0.002 0.26460996,0.26460996 0 0 0 0.04651,0.002 0.26460996,0.26460996 0 0 0 0.0031,0 0.26460996,0.26460996 0 0 0 0.04548,-0.008 0.26460996,0.26460996 0 0 0 0.0052,-0.001 0.2645835,0.2645835 0 0 0 0.0021,-5.2e-4 0.26460996,0.26460996 0 0 0 0.04599,-0.0176 l 1.588018,-0.79323 a 0.26460996,0.26460996 0 0 0 0.14624,-0.23616 v -1.57251 a 0.2645835,0.2645835 0 0 0 5.2e-4,-0.008 0.2645835,0.2645835 0 0 0 -5.2e-4,-0.0227 v -0.25063 a 0.26460996,0.26460996 0 0 0 -0.14624,-0.23617 l -1.588018,-0.79323 a 0.26460996,0.26460996 0 0 0 -0.142627,-0.0264 z m -1.299145,1.74924 1.205094,0.60358 a 0.26460996,0.26460996 0 0 0 0.236678,0 l 1.205091,-0.60306 v 0.99581 l -1.058846,0.52916 v -0.36535 a 0.2645835,0.2645835 0 0 0 -0.26355,-0.26562 0.2645835,0.2645835 0 0 0 -0.265617,0.26562 v 0.36535 l -1.05885,-0.52968 z"
         transform="matrix(3.7795276,0,0,3.7795276,-376.5,-330.61971)"
         style="fill:#166ec1;fill-opacity:1" /></g><g
       transform="translate(16.000001,8)"
       id="g388"><path
         id="path1312"
         d="M 99.591852 162.52656 A 0.26460996 0.26460996 0 0 0 99.497801 162.55291 L 98.439468 163.08259 A 0.2645835 0.2645835 0 0 0 98.322163 163.43813 A 0.2645835 0.2645835 0 0 0 98.675629 163.55492 L 99.617174 163.08621 L 100.87756 163.71563 L 99.617174 164.34608 L 98.14853 163.61176 A 0.26460996 0.26460996 0 0 0 97.76354 163.84792 L 97.76354 165.43594 A 0.26460996 0.26460996 0 0 0 97.910301 165.6721 L 99.497801 166.46533 A 0.26460996 0.26460996 0 0 0 99.527774 166.4767 A 0.2645835 0.2645835 0 0 0 99.535525 166.4798 A 0.26460996 0.26460996 0 0 0 99.574283 166.48859 A 0.2645835 0.2645835 0 0 0 99.586168 166.49066 A 0.26460996 0.26460996 0 0 0 99.632677 166.49272 A 0.26460996 0.26460996 0 0 0 99.635777 166.49272 A 0.26460996 0.26460996 0 0 0 99.681253 166.48445 A 0.26460996 0.26460996 0 0 0 99.68642 166.48342 A 0.2645835 0.2645835 0 0 0 99.688487 166.4829 A 0.26460996 0.26460996 0 0 0 99.734479 166.46533 L 101.3225 165.6721 A 0.26460996 0.26460996 0 0 0 101.46874 165.43594 L 101.46874 163.86343 A 0.2645835 0.2645835 0 0 0 101.46926 163.85567 A 0.2645835 0.2645835 0 0 0 101.46874 163.83294 L 101.46874 163.58231 A 0.26460996 0.26460996 0 0 0 101.3225 163.34614 L 99.734479 162.55291 A 0.26460996 0.26460996 0 0 0 99.591852 162.52656 z M 98.292707 164.2758 L 99.497801 164.87938 A 0.26460996 0.26460996 0 0 0 99.734479 164.87938 L 100.93957 164.27632 L 100.93957 165.27213 L 99.880724 165.80129 L 99.880724 165.43594 A 0.2645835 0.2645835 0 0 0 99.617174 165.17032 A 0.2645835 0.2645835 0 0 0 99.351557 165.43594 L 99.351557 165.80129 L 98.292707 165.27161 L 98.292707 164.2758 z "
         transform="matrix(3.7795276,0,0,3.7795276,-376.5,-330.61971)"
         style="fill:#e0f1fe;fill-opacity:1" /></g></g></svg>
