<?xml version="1.0" encoding="UTF-8" standalone="no"?>
<svg
   height="32"
   viewBox="0 0 32 32"
   width="32"
   version="1.1"
   id="svg10"
   sodipodi:docname="viewhtml.svg"
   inkscape:version="1.2.2 (b0a8486541, 2022-12-01)"
   xml:space="preserve"
   xmlns:inkscape="http://www.inkscape.org/namespaces/inkscape"
   xmlns:sodipodi="http://sodipodi.sourceforge.net/DTD/sodipodi-0.dtd"
   xmlns:xlink="http://www.w3.org/1999/xlink"
   xmlns="http://www.w3.org/2000/svg"
   xmlns:svg="http://www.w3.org/2000/svg"><defs
     id="defs14"><linearGradient
       inkscape:collect="always"
       id="linearGradient961"><stop
         style="stop-color:#1684f3;stop-opacity:1;"
         offset="0"
         id="stop957" /><stop
         style="stop-color:#02b2fe;stop-opacity:1;"
         offset="1"
         id="stop959" /></linearGradient><style
       type="text/css"
       id="current-color-scheme">
      .ColorScheme-Text {
        color:#122036;
      }
      </style><linearGradient
       inkscape:collect="always"
       xlink:href="#linearGradient961"
       id="linearGradient963"
       x1="0"
       y1="303.64999"
       x2="0"
       y2="277.64999"
       gradientUnits="userSpaceOnUse" /></defs><sodipodi:namedview
     id="namedview12"
     pagecolor="#ffffff"
     bordercolor="#000000"
     borderopacity="0.25"
     inkscape:showpageshadow="2"
     inkscape:pageopacity="0.0"
     inkscape:pagecheckerboard="0"
     inkscape:deskcolor="#d1d1d1"
     showgrid="true"
     inkscape:zoom="14.75"
     inkscape:cx="27.152542"
     inkscape:cy="12.067797"
     inkscape:window-width="1517"
     inkscape:window-height="1363"
     inkscape:window-x="0"
     inkscape:window-y="0"
     inkscape:window-maximized="0"
     inkscape:current-layer="svg10"><inkscape:grid
       type="xygrid"
       id="grid331" /></sodipodi:namedview><g
     transform="translate(16 -274.64999)"
     id="g8"><path
       style="fill:#1670d9;fill-opacity:0.98039216"
       d="m -11,275.64999 h 21.999999 c 1.108,0 2,0.892 2,2 v 26 c 0,1.108 -0.892,2 -2,2 H -11 c -1.108,0 -2,-0.892 -2,-2 v -26 c 0,-1.108 0.892,-2 2,-2 z"
       id="path2" /><path
       style="fill-opacity:1;fill:url(#linearGradient963)"
       d="m -11,276.64999 h 21.999999 c 0.554,0 1,0.446 1,1 v 26 c 0,0.554 -0.446,1 -1,1 H -11 c -0.554,0 -1,-0.446 -1,-1 v -26 c 0,-0.554 0.446,-1 1,-1 z"
       id="path4" /></g><path
     id="path10038-3"
     class="ColorScheme-Text"
     style="color:#122036;opacity:0.99;fill:#1570d9;fill-opacity:0.980392;stroke:none;stroke-width:0.999999"
     d="M 10.000001,11.000012 C 9.446001,11.000012 9,11.445997 9,12 V 22.999974 C 9,23.553978 9.446002,24 10.000001,24 H 12 l 1.000002,-3.8e-5 h 6 L 20,24 h 2.000001 C 22.554001,24 23,23.553978 23,22.999974 V 12 c 0,-0.554003 -0.446,-0.999988 -1,-0.999988 z m 1,1.999975 H 21 l 1e-6,7.999975 h -3 v 1.000025 h -4 l 1e-6,-1.000025 h -3 z M 12,15 v 3 h 2.000001 v -3 z m 3,0 v 3 h 2 v -3 z m 3,0 v 3 h 2 v -3 z"
     inkscape:connector-curvature="0"
     sodipodi:nodetypes="ssssccccssssscccccccccccccccccccccccc" /><path
     id="path10038"
     class="ColorScheme-Text"
     style="color:#122036;opacity:0.99;fill:#d7f0fe;fill-opacity:1;stroke:none;stroke-width:0.999999"
     d="M 10.000001,10 C 9.446001,10 9,10.445985 9,10.999988 v 10.999974 c 0,0.554004 0.446002,1.000026 1.000001,1.000026 H 12 l 1.000002,-3.8e-5 h 6 L 20,22.999988 h 2.000001 C 22.554001,22.999988 23,22.553966 23,21.999962 V 10.999988 C 23,10.445985 22.554,10 22,10 Z m 1,1.999975 H 21 l 1e-6,7.999975 h -3 v 1.000025 h -4 l 1e-6,-1.000025 h -3 z M 12,13.999988 v 3 h 2.000001 v -3 z m 3,0 v 3 h 2 v -3 z m 3,0 v 3 h 2 v -3 z"
     inkscape:connector-curvature="0"
     sodipodi:nodetypes="ssssccccssssscccccccccccccccccccccccc" /></svg>
