<?xml version="1.0" encoding="UTF-8" standalone="no"?>
<svg
   height="32"
   viewBox="0 0 32 32"
   width="32"
   version="1.1"
   id="svg70"
   sodipodi:docname="text-x-scala.svg"
   xml:space="preserve"
   inkscape:version="1.2.2 (b0a8486541, 2022-12-01)"
   xmlns:inkscape="http://www.inkscape.org/namespaces/inkscape"
   xmlns:sodipodi="http://sodipodi.sourceforge.net/DTD/sodipodi-0.dtd"
   xmlns:xlink="http://www.w3.org/1999/xlink"
   xmlns="http://www.w3.org/2000/svg"
   xmlns:svg="http://www.w3.org/2000/svg"><defs
     id="defs74"><linearGradient
       gradientTransform="matrix(3.7795275,0,0,3.7795275,-27.999999,-807.86969)"
       inkscape:collect="always"
       xlink:href="#linearGradient1500"
       id="linearGradient837-3"
       x1="4.2333336"
       y1="296.20624"
       x2="4.2333336"
       y2="289.59164"
       gradientUnits="userSpaceOnUse" /><linearGradient
       id="linearGradient1500"
       inkscape:collect="always"><stop
         id="stop1496"
         offset="0"
         style="stop-color:#263238;stop-opacity:1" /><stop
         id="stop1498"
         offset="1"
         style="stop-color:#37474f;stop-opacity:1" /></linearGradient></defs><sodipodi:namedview
     id="namedview72"
     pagecolor="#ffffff"
     bordercolor="#000000"
     borderopacity="0.25"
     inkscape:showpageshadow="2"
     inkscape:pageopacity="0.0"
     inkscape:pagecheckerboard="0"
     inkscape:deskcolor="#d1d1d1"
     showgrid="true"
     inkscape:zoom="22.693708"
     inkscape:cx="15.973591"
     inkscape:cy="8.4164298"
     inkscape:window-width="2510"
     inkscape:window-height="1411"
     inkscape:window-x="0"
     inkscape:window-y="0"
     inkscape:window-maximized="1"
     inkscape:current-layer="svg70"><inkscape:grid
       type="xygrid"
       id="grid621" /></sodipodi:namedview><g
     id="g5163"
     transform="translate(-4e-7,-282.64999)"><g
       transform="translate(28,-2e-5)"
       id="g9832"><path
         id="rect827-8"
         d="m -22.999999,283.65001 h 21.9999988 c 1.108,0 2,0.89202 2,2.00001 v 26.00001 c 0,1.10797 -0.892,1.99998 -2,1.99998 H -22.999999 c -1.108,0 -2,-0.89201 -2,-1.99998 v -26 c 0,-1.108 0.892,-2 2,-2.00002 z"
         style="opacity:1;fill:#1a2226;fill-opacity:1;stroke:none;stroke-width:2;stroke-linecap:round;stroke-linejoin:round;stroke-miterlimit:4;stroke-dasharray:none;stroke-opacity:1"
         inkscape:connector-curvature="0" /><path
         id="rect829-6"
         d="m -22.999999,284.65003 h 21.9999988 c 0.554,0 1,0.44599 1,1 v 26 c 0,0.55401 -0.446,1 -1,1 H -22.999999 c -0.554,0 -1,-0.44599 -1,-1 v -26 c 0,-0.55399 0.446,-1 1,-1 z"
         style="opacity:1;fill:url(#linearGradient837-3);fill-opacity:1;stroke:none;stroke-width:2;stroke-linecap:round;stroke-linejoin:round;stroke-miterlimit:4;stroke-dasharray:none;stroke-opacity:1"
         inkscape:connector-curvature="0" /><g
         inkscape:label="Capa 1"
         id="layer1-6"
         transform="translate(1.7500007,-0.24998022)"><g
           id="g2369"
           transform="translate(25,-8)" /></g></g></g><g
     transform="translate(28,-282.65001)"
     id="g6" /><path
     id="path8-3"
     d="m 6,5 v 2 h 5 V 5 Z m 6,0 v 2 h 2 V 5 Z m 3,0 v 2 h 5 V 5 Z m 6,0 v 2 h 2 V 5 Z M 6,7.9999998 v 2 h 8 v -2 z m 9,0 v 2 h 2 v -2 z m 3,0 v 2 h 5 v -2 z M 6,11 v 2 h 2 v -2 z m 3,0 v 2 h 2 v -2 z m 3,0 v 2 h 5 v -2 z m 6,0 v 2 h 2 v -2 z m 3,0 v 2 h 2 V 11 Z M 6,14 v 2 h 5 v -2 z m 6,0 v 2 h 2 v -2 z m 3,0 v 2 h 5 v -2 z m -9,3 v 2 h 2 v -2 z m 3,0 v 2 h 5 v -2 z m 17,0 -9,1 v 3 1 1 2 L 21.5,25.5 17,26 v 3 l 9,-1 V 26 25 24 23 21 L 21.5,20.5 26,20 Z M 6,20 v 2 h 5 v -2 z m 6,0 v 2 h 2 v -2 z m -6,3 v 2 h 2 v -2 z m 3,0 v 2 h 3 v -2 z m 4,0 v 2 h 2 v -2 z m -7,3 v 2 h 5 v -2 z m 6,0 v 2 h 3 v -2 z"
     style="fill:#1a2226;fill-opacity:1" /><path
     d="m 6,4 h 5 V 6 H 6 Z"
     fill="#ffffff"
     id="path8" /><path
     d="m 12,4 h 2 v 2 h -2 z"
     fill="#ff778a"
     id="path10" /><path
     d="m 15,4 h 5 v 2 h -5 z"
     fill="#fbebee"
     id="path12" /><path
     d="m 21,4 h 2 v 2 h -2 z"
     fill="#ff778a"
     id="path14" /><path
     d="m 6,7 h 8 V 9 H 6 Z"
     fill="#fbebee"
     id="path16" /><path
     d="m 15,7 h 2 v 2 h -2 z"
     fill="#ff778a"
     id="path18" /><path
     d="m 18,7 h 5 v 2 h -5 z"
     fill="#ffffff"
     id="path20" /><path
     d="m 6,10 h 2 v 2 H 6 Z"
     fill="#ffffff"
     id="path22" /><path
     d="m 9,10 h 2 v 2 H 9 Z"
     fill="#ff778a"
     id="path24" /><path
     d="m 12,10 h 5 v 2 h -5 z"
     fill="#fbebee"
     id="path26" /><path
     d="m 18,10 h 2 v 2 h -2 z"
     fill="#fbebee"
     id="path28" /><path
     d="m 21,10 h 2 v 2 h -2 z"
     fill="#ffffff"
     id="path30" /><path
     d="m 6,13 h 5 v 2 H 6 Z"
     fill="#fbebee"
     id="path32" /><path
     d="m 6,16 h 2 v 2 H 6 Z"
     fill="#fbebee"
     id="path34" /><path
     d="m 9,16 h 5 v 2 H 9 Z"
     fill="#ff778a"
     id="path36" /><path
     d="m 6,19 h 5 v 2 H 6 Z"
     fill="#ffffff"
     id="path38" /><path
     d="m 6,22 h 2 v 2 H 6 Z"
     fill="#ff778a"
     id="path40" /><path
     d="m 13,22 h 2 v 2 h -2 z"
     fill="#ffffff"
     id="path42" /><path
     d="m 9,22 h 3 v 2 H 9 Z"
     fill="#fbebee"
     id="path44" /><path
     d="m 6,25 h 5 v 2 H 6 Z"
     fill="#fbebee"
     id="path46" /><path
     d="m 12,25 h 3 v 2 h -3 z"
     fill="#ff778a"
     id="path48" /><path
     d="m 12,19 h 2 v 2 h -2 z"
     fill="#fbebee"
     id="path50" /><path
     d="m 12,13 h 2 v 2 h -2 z"
     fill="#ffffff"
     id="path52" /><path
     d="m 15,13 h 5 v 2 h -5 z"
     fill="#ff778a"
     id="path54" /><path
     d="m 17,19 v 2 l 9,1 v -2 z"
     fill="#dd4f66"
     id="path56" /><path
     d="m 17,22 v 2 l 9,1 v -2 z"
     fill="#dd4f66"
     id="path58" /><g
     fill="#ff778a"
     stroke-linecap="round"
     stroke-linejoin="round"
     stroke-miterlimit="1.8"
     stroke-width="4"
     id="g66"
     transform="translate(0,-282.64999)"><path
       d="m 17,307.64999 9,-1 v 3 l -9,1 z"
       id="path60" /><path
       d="m 17,303.64999 9,-1 v 3 l -9,1 z"
       id="path62" /><path
       d="m 17,299.64999 9,-1 v 3 l -9,1 z"
       id="path64" /></g><g
     fill="#ff778a"
     stroke-linecap="round"
     stroke-linejoin="round"
     stroke-miterlimit="1.8"
     stroke-width="4"
     id="g66-2"
     transform="translate(-27.45692,-299.09064)" /></svg>
