<?xml version="1.0" encoding="UTF-8" standalone="no"?>
<!-- Created with Inkscape (http://www.inkscape.org/) -->

<svg
   width="22"
   height="22"
   viewBox="0 0 22 22"
   version="1.1"
   id="svg5"
   inkscape:version="1.3.2 (091e20ef0f, 2023-11-25, custom)"
   sodipodi:docname="preferences-desktop-display.svg"
   xml:space="preserve"
   xmlns:inkscape="http://www.inkscape.org/namespaces/inkscape"
   xmlns:sodipodi="http://sodipodi.sourceforge.net/DTD/sodipodi-0.dtd"
   xmlns:xlink="http://www.w3.org/1999/xlink"
   xmlns="http://www.w3.org/2000/svg"
   xmlns:svg="http://www.w3.org/2000/svg"><sodipodi:namedview
     id="namedview7"
     pagecolor="#ffffff"
     bordercolor="#000000"
     borderopacity="0.25"
     inkscape:showpageshadow="false"
     inkscape:pageopacity="0.0"
     inkscape:pagecheckerboard="0"
     inkscape:deskcolor="#d1d1d1"
     inkscape:document-units="px"
     showgrid="true"
     inkscape:zoom="19.028871"
     inkscape:cx="17.158139"
     inkscape:cy="7.4097934"
     inkscape:window-width="2560"
     inkscape:window-height="1356"
     inkscape:window-x="0"
     inkscape:window-y="0"
     inkscape:window-maximized="1"
     inkscape:current-layer="layer1"><inkscape:grid
       type="xygrid"
       id="grid271"
       originx="0"
       originy="0"
       spacingy="1"
       spacingx="1"
       units="px"
       visible="true" /></sodipodi:namedview><defs
     id="defs2"><style
       id="current-color-scheme"
       type="text/css">
      .ColorScheme-Text {
        color:#122036;
      }
      </style><style
       id="current-color-scheme-6"
       type="text/css">
      .ColorScheme-Text {
        color:#122036;
      }
      </style><linearGradient
       inkscape:collect="always"
       xlink:href="#linearGradient2125"
       id="linearGradient2127"
       x1="3.175"
       y1="4.2333331"
       x2="3.175"
       y2="1.3229166"
       gradientUnits="userSpaceOnUse" /><linearGradient
       inkscape:collect="always"
       id="linearGradient2125"><stop
         style="stop-color:#303540;stop-opacity:1;"
         offset="0"
         id="stop2121" /><stop
         style="stop-color:#262626;stop-opacity:1;"
         offset="1"
         id="stop2123" /></linearGradient><linearGradient
       inkscape:collect="always"
       xlink:href="#linearGradient2616"
       id="linearGradient2618"
       x1="3.175"
       y1="5.2916665"
       x2="3.175"
       y2="4.7624998"
       gradientUnits="userSpaceOnUse" /><linearGradient
       inkscape:collect="always"
       id="linearGradient2616"><stop
         style="stop-color:#f8f8f8;stop-opacity:1;"
         offset="0"
         id="stop2612" /><stop
         style="stop-color:#e6e6e6;stop-opacity:1;"
         offset="1"
         id="stop2614" /></linearGradient><linearGradient
       inkscape:collect="always"
       xlink:href="#linearGradient4066"
       id="linearGradient4068"
       x1="1.5875"
       y1="3.4395833"
       x2="1.5875"
       y2="1.8520833"
       gradientUnits="userSpaceOnUse" /><linearGradient
       inkscape:collect="always"
       id="linearGradient4066"><stop
         style="stop-color:#f34343;stop-opacity:1;"
         offset="0"
         id="stop4062" /><stop
         style="stop-color:#ff6666;stop-opacity:1;"
         offset="1"
         id="stop4064" /></linearGradient><linearGradient
       inkscape:collect="always"
       xlink:href="#linearGradient5903"
       id="linearGradient5905"
       x1="3.175"
       y1="3.7041667"
       x2="3.175"
       y2="1.5875"
       gradientUnits="userSpaceOnUse" /><linearGradient
       inkscape:collect="always"
       id="linearGradient5903"><stop
         style="stop-color:#0e73ec;stop-opacity:1;"
         offset="0"
         id="stop5899" /><stop
         style="stop-color:#35b0fb;stop-opacity:1;"
         offset="1"
         id="stop5901" /></linearGradient><linearGradient
       inkscape:collect="always"
       xlink:href="#linearGradient7836"
       id="linearGradient7838"
       x1="4.7624998"
       y1="3.4395833"
       x2="4.7624998"
       y2="1.8520833"
       gradientUnits="userSpaceOnUse" /><linearGradient
       inkscape:collect="always"
       id="linearGradient7836"><stop
         style="stop-color:#0ac655;stop-opacity:1;"
         offset="0"
         id="stop7832" /><stop
         style="stop-color:#71d97c;stop-opacity:1;"
         offset="1"
         id="stop7834" /></linearGradient></defs><g
     inkscape:label="Capa 1"
     inkscape:groupmode="layer"
     id="layer1"><g
       id="g2"
       transform="matrix(3.7795276,0,0,3.7795276,-0.99999971,-0.99999962)"><path
         id="rect1475"
         style="opacity:1;fill:#90a4ae;fill-opacity:1;stroke-width:0.529167;stroke-linecap:round;stroke-linejoin:round;stroke-miterlimit:1.8;paint-order:fill markers stroke;stop-color:#000000"
         d="M 2.6458333,4.7625 V 5.55625 H 2.1166666 V 5.8208333 H 2.6458333 3.7041666 4.2333333 V 5.55625 H 3.7041666 V 4.7625 Z" /><path
         id="rect1345"
         style="opacity:1;fill:#040405;fill-opacity:1;stroke-width:0.529167;stroke-linecap:round;stroke-linejoin:round;stroke-miterlimit:1.8;paint-order:fill markers stroke;stop-color:#000000"
         d="m 0.52916663,0.52916643 5.29166657,2.3e-7 c 0.1465792,10e-9 0.2645833,0.11800417 0.2645833,0.26458335 V 4.4979164 c 0,0.1465792 -0.1180041,0.2645833 -0.2645833,0.2645833 l -5.29166657,-2e-7 c -0.14657918,0 -0.26458335,-0.1180041 -0.26458335,-0.2645833 V 0.79374978 c 0,-0.14657918 0.11800417,-0.26458336 0.26458335,-0.26458335 z"
         sodipodi:nodetypes="sssssssss" /><path
         id="rect1345-7"
         style="fill:url(#linearGradient2127);fill-opacity:1;stroke-width:0.529167;stroke-linecap:round;stroke-linejoin:round;stroke-miterlimit:1.8;paint-order:fill markers stroke;stop-color:#000000"
         d="M 0.79374999,1.0583333 H 5.55625 v 3.175 H 0.79374999 Z"
         sodipodi:nodetypes="ccccc" /><path
         id="rect1480"
         style="opacity:1;fill:url(#linearGradient2618);stroke-width:0.529167;stroke-linecap:round;stroke-linejoin:round;stroke-miterlimit:1.8;paint-order:fill markers stroke;stop-color:#000000"
         d="m 2.9104166,4.7624998 h 0.5291666 v 0.79375 H 2.9104166 Z" /><rect
         style="fill:#b22c2c;fill-opacity:1;stroke-width:0.529167;stroke-linecap:round;stroke-linejoin:round;stroke-miterlimit:1.8;paint-order:fill markers stroke;stop-color:#000000"
         id="rect3587-7-5"
         width="1.0583335"
         height="2.6458335"
         x="1.0583333"
         y="1.3229166" /><rect
         style="fill:url(#linearGradient4068);fill-opacity:1;stroke-width:0.529167;stroke-linecap:round;stroke-linejoin:round;stroke-miterlimit:1.8;paint-order:fill markers stroke;stop-color:#000000"
         id="rect3587-7-5-6"
         width="0.5291667"
         height="2.1166666"
         x="1.3229166"
         y="1.5875" /><rect
         style="fill:#0c3996;fill-opacity:1;stroke-width:0.529167;stroke-linecap:round;stroke-linejoin:round;stroke-miterlimit:1.8;paint-order:fill markers stroke;stop-color:#000000"
         id="rect3587-7-5-3"
         width="1.0583334"
         height="2.6458333"
         x="2.6458333"
         y="1.3229166" /><rect
         style="fill:#269334;fill-opacity:1;stroke-width:0.529167;stroke-linecap:round;stroke-linejoin:round;stroke-miterlimit:1.8;paint-order:fill markers stroke;stop-color:#000000"
         id="rect3587-7-5-5"
         width="1.0583335"
         height="2.6458333"
         x="4.2333331"
         y="1.3229166" /><rect
         style="opacity:1;fill:url(#linearGradient5905);fill-opacity:1;stroke-width:0.529167;stroke-linecap:round;stroke-linejoin:round;stroke-miterlimit:1.8;paint-order:fill markers stroke;stop-color:#000000"
         id="rect3782"
         width="0.52916664"
         height="2.1166666"
         x="2.9104166"
         y="1.5875" /><rect
         style="opacity:1;fill:url(#linearGradient7838);fill-opacity:1;stroke-width:0.529167;stroke-linecap:round;stroke-linejoin:round;stroke-miterlimit:1.8;paint-order:fill markers stroke;stop-color:#000000"
         id="rect3784"
         width="0.52916664"
         height="2.1166666"
         x="4.4979167"
         y="1.5875" /></g></g></svg>
