<?xml version="1.0" encoding="UTF-8" standalone="no"?>
<!-- Created with Inkscape (http://www.inkscape.org/) -->

<svg
   width="22"
   height="22"
   viewBox="0 0 22 22"
   version="1.1"
   id="svg5"
   inkscape:version="1.3.2 (091e20ef0f, 2023-11-25, custom)"
   sodipodi:docname="preferences-system-network-server-dhcp.svg"
   xml:space="preserve"
   xmlns:inkscape="http://www.inkscape.org/namespaces/inkscape"
   xmlns:sodipodi="http://sodipodi.sourceforge.net/DTD/sodipodi-0.dtd"
   xmlns:xlink="http://www.w3.org/1999/xlink"
   xmlns="http://www.w3.org/2000/svg"
   xmlns:svg="http://www.w3.org/2000/svg"><sodipodi:namedview
     id="namedview7"
     pagecolor="#ffffff"
     bordercolor="#000000"
     borderopacity="0.25"
     inkscape:showpageshadow="false"
     inkscape:pageopacity="0.0"
     inkscape:pagecheckerboard="0"
     inkscape:deskcolor="#d1d1d1"
     inkscape:document-units="px"
     showgrid="true"
     inkscape:zoom="19.028871"
     inkscape:cx="10.326414"
     inkscape:cy="18.340552"
     inkscape:window-width="2560"
     inkscape:window-height="1356"
     inkscape:window-x="0"
     inkscape:window-y="0"
     inkscape:window-maximized="1"
     inkscape:current-layer="g2"><inkscape:grid
       type="xygrid"
       id="grid3636"
       originx="0"
       originy="0"
       spacingy="1"
       spacingx="1"
       units="px"
       visible="true" /></sodipodi:namedview><defs
     id="defs2"><style
       type="text/css"
       id="current-color-scheme">
      .ColorScheme-Text {
        color:#36404d;
      }
      </style><style
       type="text/css"
       id="current-color-scheme-67">
      .ColorScheme-Text {
        color:#122036;
      }
      </style><style
       type="text/css"
       id="current-color-scheme-7">
      .ColorScheme-Text {
        color:#122036;
      }
      </style><style
       type="text/css"
       id="current-color-scheme-5">
      .ColorScheme-Text {
        color:#122036;
      }
      </style><style
       type="text/css"
       id="current-color-scheme-6">
      .ColorScheme-Text {
        color:#122036;
      }
      </style><style
       type="text/css"
       id="current-color-scheme-1">
      .ColorScheme-Text {
        color:#122036;
      }
      </style><style
       id="current-color-scheme-10"
       type="text/css">
      .ColorScheme-Text {
        color:#122036;
      }
      </style><style
       id="current-color-scheme-5-7"
       type="text/css">
      .ColorScheme-Text {
        color:#122036;
      }
      </style><style
       id="current-color-scheme-1-2"
       type="text/css">
      .ColorScheme-Text {
        color:#122036;
      }
      </style><style
       type="text/css"
       id="current-color-scheme-10-9">
      .ColorScheme-Text {
        color:#122036;
      }
      </style><style
       type="text/css"
       id="current-color-scheme-3">
      .ColorScheme-Text {
        color:#36404d;
      }
      </style><style
       type="text/css"
       id="current-color-scheme-67-5">
      .ColorScheme-Text {
        color:#122036;
      }
      </style><style
       type="text/css"
       id="current-color-scheme-7-6">
      .ColorScheme-Text {
        color:#122036;
      }
      </style><style
       type="text/css"
       id="current-color-scheme-5-2">
      .ColorScheme-Text {
        color:#122036;
      }
      </style><style
       type="text/css"
       id="current-color-scheme-6-9">
      .ColorScheme-Text {
        color:#122036;
      }
      </style><style
       type="text/css"
       id="current-color-scheme-1-1">
      .ColorScheme-Text {
        color:#122036;
      }
      </style><style
       id="current-color-scheme-10-2"
       type="text/css">
      .ColorScheme-Text {
        color:#122036;
      }
      </style><style
       id="current-color-scheme-5-7-7"
       type="text/css">
      .ColorScheme-Text {
        color:#122036;
      }
      </style><style
       id="current-color-scheme-1-2-0"
       type="text/css">
      .ColorScheme-Text {
        color:#122036;
      }
      </style><style
       type="text/css"
       id="current-color-scheme-10-9-9">
      .ColorScheme-Text {
        color:#122036;
      }
      </style><style
       type="text/css"
       id="current-color-scheme-18">
      .ColorScheme-Text {
        color:#36404d;
      }
      </style><style
       id="current-color-scheme-6-7"
       type="text/css">
      .ColorScheme-Text {
        color:#36404d;
      }
      </style><style
       id="current-color-scheme-62"
       type="text/css">
      .ColorScheme-Text {
        color:#36404d;
      }
      </style><style
       id="current-color-scheme-0"
       type="text/css">
      .ColorScheme-Text {
        color:#122036;
      }
      </style><style
       type="text/css"
       id="current-color-scheme-1-92">
      .ColorScheme-Text {
        color:#122036;
      }
      </style><style
       type="text/css"
       id="current-color-scheme-3-0">
      .ColorScheme-Text {
        color:#122036;
      }
      </style><style
       id="current-color-scheme-1-7"
       type="text/css">
      .ColorScheme-Text {
        color:#122036;
      }
      </style><style
       id="current-color-scheme-06"
       type="text/css">
      .ColorScheme-Text {
        color:#122036;
      }
      </style><style
       type="text/css"
       id="current-color-scheme-1-1-2">
      .ColorScheme-Text {
        color:#122036;
      }
      </style><style
       type="text/css"
       id="current-color-scheme-56">
      .ColorScheme-Text {
        color:#36404d;
      }
      </style><style
       type="text/css"
       id="current-color-scheme-0-2">
      .ColorScheme-Text {
        color:#122036;
      }
      </style><style
       id="current-color-scheme-1-9"
       type="text/css">
      .ColorScheme-Text {
        color:#122036;
      }
      </style><style
       id="current-color-scheme-3-1"
       type="text/css">
      .ColorScheme-Text {
        color:#122036;
      }
      </style><style
       type="text/css"
       id="current-color-scheme-1-7-2">
      .ColorScheme-Text {
        color:#122036;
      }
      </style><style
       type="text/css"
       id="current-color-scheme-06-7">
      .ColorScheme-Text {
        color:#122036;
      }
      </style><style
       id="current-color-scheme-1-1-0"
       type="text/css">
      .ColorScheme-Text {
        color:#122036;
      }
      </style><style
       id="current-color-scheme-5-37"
       type="text/css">
      .ColorScheme-Text {
        color:#36404d;
      }
      </style><style
       type="text/css"
       id="current-color-scheme-3-6">
      .ColorScheme-Text {
        color:#36404d;
      }
      </style><style
       id="current-color-scheme-9"
       type="text/css">
      .ColorScheme-Text {
        color:#36404d;
      }
      </style><style
       type="text/css"
       id="current-color-scheme-4">
      .ColorScheme-Text {
        color:#122036;
      }
      </style><style
       id="current-color-scheme-7-5"
       type="text/css">
      .ColorScheme-Text {
        color:#36404d;
      }
      </style><style
       type="text/css"
       id="current-color-scheme-91">
      .ColorScheme-Text {
        color:#122036;
      }
      </style><style
       type="text/css"
       id="current-color-scheme-7-27">
      .ColorScheme-Text {
        color:#122036;
      }
      </style><style
       type="text/css"
       id="current-color-scheme-5-09">
      .ColorScheme-Text {
        color:#122036;
      }
      </style><style
       type="text/css"
       id="current-color-scheme-0-3">
      .ColorScheme-Text {
        color:#122036;
      }
      </style><style
       type="text/css"
       id="current-color-scheme-7-9">
      .ColorScheme-Text {
        color:#122036;
      }
      </style><style
       type="text/css"
       id="current-color-scheme-5-3">
      .ColorScheme-Text {
        color:#122036;
      }
      </style><style
       type="text/css"
       id="current-color-scheme-79">
      .ColorScheme-Text {
        color:#122036;
      }
      </style><style
       type="text/css"
       id="current-color-scheme-7-2">
      .ColorScheme-Text {
        color:#122036;
      }
      </style><style
       type="text/css"
       id="current-color-scheme-5-0">
      .ColorScheme-Text {
        color:#122036;
      }
      </style><style
       type="text/css"
       id="current-color-scheme-062">
      .ColorScheme-Text {
        color:#122036;
      }
      </style><style
       id="current-color-scheme-1-6"
       type="text/css">
      .ColorScheme-Text {
        color:#122036;
      }
      </style><style
       type="text/css"
       id="current-color-scheme-37">
      .ColorScheme-Text {
        color:#122036;
      }
      </style><style
       id="current-color-scheme-1-5"
       type="text/css">
      .ColorScheme-Text {
        color:#122036;
      }
      </style><style
       type="text/css"
       id="current-color-scheme-19">
      .ColorScheme-Text {
        color:#122036;
      }
      </style><style
       id="current-color-scheme-5-4"
       type="text/css">
      .ColorScheme-Text {
        color:#122036;
      }
      </style><style
       id="current-color-scheme-2"
       type="text/css">
      .ColorScheme-Text {
        color:#122036;
      }
      </style><style
       id="current-color-scheme-1-78"
       type="text/css">
      .ColorScheme-Text {
        color:#122036;
      }
      </style><style
       type="text/css"
       id="current-color-scheme-10-92">
      .ColorScheme-Text {
        color:#122036;
      }
      </style><style
       id="current-color-scheme-0-4"
       type="text/css">
      .ColorScheme-Text {
        color:#122036;
      }
      </style><style
       id="current-color-scheme-35"
       type="text/css">
      .ColorScheme-Text {
        color:#36404d;
      }
      </style><style
       type="text/css"
       id="current-color-scheme-4-6">
      .ColorScheme-Text {
        color:#122036;
      }
      </style><style
       type="text/css"
       id="current-color-scheme-6-2">
      .ColorScheme-Text {
        color:#122036;
      }
      </style><linearGradient
       inkscape:collect="always"
       xlink:href="#linearGradient5245"
       id="linearGradient5247"
       x1="3.4395833"
       y1="5.2916665"
       x2="3.175"
       y2="1.0583333"
       gradientUnits="userSpaceOnUse" /><linearGradient
       inkscape:collect="always"
       id="linearGradient5245"><stop
         style="stop-color:#1683f3;stop-opacity:1;"
         offset="0"
         id="stop5241" /><stop
         style="stop-color:#03b1fe;stop-opacity:1;"
         offset="1"
         id="stop5243" /></linearGradient><linearGradient
       inkscape:collect="always"
       xlink:href="#linearGradient6685"
       id="linearGradient6687"
       x1="4.4979167"
       y1="5.8208332"
       x2="4.4979167"
       y2="3.175"
       gradientUnits="userSpaceOnUse" /><linearGradient
       inkscape:collect="always"
       id="linearGradient6685"><stop
         style="stop-color:#5c647c;stop-opacity:1;"
         offset="0"
         id="stop6681" /><stop
         style="stop-color:#717a96;stop-opacity:1;"
         offset="1"
         id="stop6683" /></linearGradient></defs><g
     inkscape:label="Capa 1"
     inkscape:groupmode="layer"
     id="layer1"><g
       inkscape:label="Capa 1"
       id="layer1-3"><g
         id="g58460-3-0-7"
         transform="matrix(0.26458333,0,0,0.26458333,-60.589583,-13.758333)"><g
           id="g2"
           transform="matrix(3.7795276,0,0,3.7795276,-640.29135,-148.31496)"><path
             id="rect15701"
             style="opacity:1;fill:#1466b2;fill-opacity:1;stroke-width:0.529167;stroke-linecap:round;stroke-linejoin:round;stroke-miterlimit:1.8;paint-order:fill markers stroke;stop-color:#000000"
             d="m 3.1749999,0.52916664 c 1.4657916,0 2.6458332,1.18004166 2.6458332,2.64583326 0,1.4657916 -1.1800416,2.6458332 -2.6458332,2.6458332 -1.4657916,0 -2.64583326,-1.1800416 -2.64583326,-2.6458332 0,-1.4657916 1.18004166,-2.64583326 2.64583326,-2.64583326 z"
             transform="matrix(3.7795276,0,0,3.7795276,229,51.999999)" /><path
             id="rect15701-2"
             style="fill:url(#linearGradient5247);fill-opacity:1;stroke-width:0.47625;stroke-linecap:round;stroke-linejoin:round;stroke-miterlimit:1.8;paint-order:fill markers stroke;stop-color:#000000"
             d="m 3.175,0.79374999 c 1.3192124,0 2.3812499,1.06203741 2.3812499,2.38124991 0,1.3192124 -1.0620375,2.3812499 -2.3812499,2.3812499 -1.3192125,0 -2.38124995,-1.0620375 -2.38124995,-2.3812499 0,-1.3192125 1.06203745,-2.38124991 2.38124995,-2.38124991 z"
             transform="matrix(3.7795276,0,0,3.7795276,229,51.999999)" /><path
             id="path1450"
             style="opacity:1;fill:#d7f0fe;fill-opacity:1;stroke-width:0.793748;stroke-linecap:round;stroke-linejoin:round;stroke-miterlimit:1.8;paint-order:fill markers stroke;stop-color:#000000"
             d="m 2.9042155,0.66197509 a 0.1322915,0.1322915 0 0 0 -0.091467,0.0428914 C 2.6163435,0.91887698 2.4498892,1.1262125 2.3104533,1.3275675 a 0.39687499,0.39687499 0 0 1 -5.168e-4,0 0.39687499,0.39687499 0 0 0 -0.060978,-0.00465 0.39687499,0.39687499 0 0 0 -0.396875,0.396875 0.39687499,0.39687499 0 0 0 0.091984,0.2537312 C 1.841741,2.2062192 1.7758748,2.4302743 1.7420125,2.6463501 A 0.39687499,0.39687499 0 0 0 1.7197917,2.6458333 0.39687499,0.39687499 0 0 0 1.3999145,2.8080973 C 1.2193742,2.7263599 1.0390688,2.6341873 0.85937906,2.5311116 a 0.1322915,0.1322915 0 0 0 -0.0997355,-0.013436 0.1322915,0.1322915 0 0 0 -0.0800985,0.062528 0.1322915,0.1322915 0 0 0 0.0490926,0.1793173 C 0.92611162,2.8727987 1.1244552,2.9743447 1.3234334,3.0633789 a 0.39687499,0.39687499 0 0 0 0.3963583,0.3762044 0.39687499,0.39687499 0 0 0 0.036173,-0.00207 c 0.00527,0.026909 0.011376,0.053448 0.01757,0.080099 0.076043,0.327192 0.215925,0.6321076 0.3917074,0.9224243 A 0.39687499,0.39687499 0 0 0 2.1171834,4.619873 C 1.9110235,4.6985659 1.7107506,4.7952248 1.5177368,4.9139119 A 0.1322915,0.1322915 0 0 0 1.4748458,5.0958129 0.1322915,0.1322915 0 0 0 1.65623,5.1407709 C 1.8303533,5.0337003 2.0119309,4.9450259 2.1998657,4.8725708 a 0.39687499,0.39687499 0 0 0 0.3136759,0.1545125 0.39687499,0.39687499 0 0 0 0.057361,-0.00465 C 2.7329012,5.2324722 2.9040967,5.4373725 3.072164,5.6404834 a 0.1322915,0.1322915 0 0 0 0.1875854,0.01757 0.1322915,0.1322915 0 0 0 0.01757,-0.1855184 C 3.1179047,5.2798799 2.9588194,5.087985 2.8091308,4.8947916 A 0.39687499,0.39687499 0 0 0 2.9073161,4.6751668 C 3.3692301,4.5882911 3.8583602,4.567573 4.3630411,4.5795654 4.4460649,4.754524 4.5417173,4.9276192 4.6503621,5.09788 A 0.1322915,0.1322915 0 0 0 4.8338134,5.138704 0.1322915,0.1322915 0 0 0 4.8730874,4.9552527 C 4.7959901,4.8344311 4.7262198,4.71242 4.6627644,4.5899007 c 0.20434,0.00949 0.4107686,0.022898 0.6185669,0.038757 A 0.1322915,0.1322915 0 0 0 5.4239583,4.5077352 0.1322915,0.1322915 0 0 0 5.3009684,4.3651082 C 5.044675,4.3455479 4.7884022,4.3291259 4.5340901,4.3196329 4.4379523,4.0969464 4.3639345,3.8712915 4.3123982,3.6431884 A 0.39687499,0.39687499 0 0 0 4.4503743,3.4943603 C 4.8898228,3.4056792 5.289516,3.2461969 5.6291137,3.021521 A 0.1322915,0.1322915 0 0 0 5.665804,2.8380696 0.1322915,0.1322915 0 0 0 5.4823527,2.8008626 C 5.1975756,2.9892695 4.8605398,3.1285902 4.4865478,3.2132405 A 0.39687499,0.39687499 0 0 0 4.2245483,2.9300537 C 4.2113354,2.3404809 4.3420415,1.7344423 4.6193562,1.11156 A 0.1322915,0.1322915 0 0 0 4.5506266,0.93741047 0.1322915,0.1322915 0 0 0 4.3769938,1.0040731 C 4.0863265,1.6569465 3.9500096,2.3037919 3.9646159,2.9347046 A 0.39687499,0.39687499 0 0 0 3.7041666,3.3072916 C 3.2042166,3.3191925 2.6655547,3.2462889 2.1151164,3.078365 A 0.39687499,0.39687499 0 0 0 2.1166666,3.0427083 0.39687499,0.39687499 0 0 0 1.9905762,2.7522868 C 2.0147971,2.5478276 2.0716681,2.3340859 2.1683431,2.1083984 a 0.39687499,0.39687499 0 0 0 0.080615,0.00827 A 0.39687499,0.39687499 0 0 0 2.6458333,1.7197917 0.39687499,0.39687499 0 0 0 2.5424804,1.4526245 C 2.6714392,1.2705318 2.8256288,1.0808822 3.0075683,0.88263346 A 0.1322915,0.1322915 0 0 0 2.9998169,0.69556477 0.1322915,0.1322915 0 0 0 2.9042155,0.66197509 Z M 2.004012,3.3212443 C 2.6262633,3.5164396 3.2379428,3.5970141 3.8054524,3.571875 a 0.39687499,0.39687499 0 0 0 5.168e-4,5.167e-4 0.39687499,0.39687499 0 0 0 0.2526978,0.1291911 c 0.046084,0.2059601 0.1086839,0.4098227 0.1881022,0.6108154 -0.3125371,-0.00427 -0.6217157,0.00443 -0.9244914,0.03514 -0.1600572,0.016233 -0.3188777,0.038615 -0.4749064,0.068213 A 0.39687499,0.39687499 0 0 0 2.5135416,4.2333333 0.39687499,0.39687499 0 0 0 2.3688476,4.260205 C 2.2151703,4.0008571 2.0956206,3.735543 2.0314005,3.4592204 2.020791,3.4135703 2.0117052,3.3676846 2.004012,3.3212443 Z"
             transform="matrix(3.7795276,0,0,3.7795276,229,51.999999)" /><path
             id="rect15701-28"
             style="fill:#1570d9;fill-opacity:0.980392;stroke-width:0.529167;stroke-linecap:round;stroke-linejoin:round;stroke-miterlimit:1.8;paint-order:fill markers stroke;stop-color:#000000"
             d="m 3.175,0.52916667 c -1.4657902,0 -2.64583341,1.18004323 -2.64583341,2.64583333 0,1.4657901 1.18004321,2.6458333 2.64583341,2.6458333 1.4657901,0 2.6458333,-1.1800432 2.6458333,-2.6458333 0,-1.4657901 -1.1800432,-2.64583333 -2.6458333,-2.64583333 z m 0,0.2645833 c 1.319211,0 2.3812499,1.06203883 2.3812499,2.38125003 0,1.3192111 -1.0620389,2.38125 -2.3812499,2.38125 -1.3192112,0 -2.38125001,-1.0620389 -2.38125001,-2.38125 0,-1.3192112 1.06203881,-2.38125003 2.38125001,-2.38125003 z"
             transform="matrix(3.7795276,0,0,3.7795276,229,51.999999)" /><path
             id="rect6267"
             style="opacity:1;fill:#363c4d;stroke-width:0.262396;stroke-linecap:round;stroke-linejoin:round;stroke-miterlimit:1.8;paint-order:fill markers stroke;stop-color:#000000"
             d="m 4.4979166,2.9104166 c 0.879475,0 1.5875,0.708025 1.5875,1.5875 0,0.879475 -0.708025,1.5875 -1.5875,1.5875 -0.879475,0 -1.5875,-0.708025 -1.5875,-1.5875 0,-0.879475 0.708025,-1.5875 1.5875,-1.5875 z"
             transform="matrix(3.7795276,0,0,3.7795276,229,51.999999)" /><path
             id="rect6267-7"
             style="fill:url(#linearGradient6687);stroke-width:0.218663;stroke-linecap:round;stroke-linejoin:round;stroke-miterlimit:1.8;paint-order:fill markers stroke;stop-color:#000000"
             d="m 4.4979168,3.1750002 c 0.7328958,0 1.3229166,0.5900208 1.3229166,1.3229166 0,0.7328958 -0.5900208,1.3229166 -1.3229166,1.3229166 -0.7328958,0 -1.3229166,-0.5900208 -1.3229166,-1.3229166 0,-0.7328958 0.5900208,-1.3229166 1.3229166,-1.3229166 z"
             transform="matrix(3.7795276,0,0,3.7795276,229,51.999999)" /><g
             id="g1449-3"
             transform="matrix(3.7795276,0,0,3.7795276,292.51159,41.482213)"
             style="fill:#363c4d;fill-opacity:1"><g
               id="g1479-6"
               transform="translate(-8.4697325,-286.40417)"
               style="fill:#363c4d;fill-opacity:1"><path
                 id="path4-7"
                 style="fill:#363c4d;fill-opacity:1;stroke:none;stroke-width:0.264583"
                 d="m -4.8947916,293.15963 v 0.26459 0.79375 0.52916 h 0.5291666 v 0.26459 h 1.0583334 v -0.26459 h 0.5291666 v -0.52916 -0.79375 -0.26459 z m 0.2645833,0.26459 h 1.5875 v 1.05833 H -3.571875 v 0.26458 h -0.5291666 v -0.26458 h -0.5291667 z m 0.2645833,0.26458 v 0.52917 h 1.0583334 v -0.52917 z"
                 sodipodi:nodetypes="ccccccccccccccccccccccccccc" /></g></g><g
             id="g1449"
             transform="matrix(3.7795276,0,0,3.7795276,292.51159,40.482207)"
             style="fill:#ffffff;fill-opacity:1"><g
               id="g1479"
               transform="translate(-8.4697325,-286.40417)"
               style="fill:#ffffff;fill-opacity:1"><path
                 id="path4"
                 style="fill:#ffffff;fill-opacity:1;stroke:none;stroke-width:0.264583"
                 d="m -4.8947916,293.15963 v 0.26459 0.79375 0.52916 h 0.5291666 v 0.26459 h 1.0583334 v -0.26459 h 0.5291666 v -0.52916 -0.79375 -0.26459 z m 0.2645833,0.26459 h 1.5875 v 1.05833 H -3.571875 v 0.26458 h -0.5291666 v -0.26458 h -0.5291667 z m 0.2645833,0.26458 v 0.52917 h 1.0583334 v -0.52917 z"
                 sodipodi:nodetypes="ccccccccccccccccccccccccccc" /></g></g></g></g></g></g></svg>
