<?xml version="1.0" encoding="UTF-8" standalone="no"?>
<!-- Created with Inkscape (http://www.inkscape.org/) -->

<svg
   width="22"
   height="22"
   viewBox="0 0 22 22"
   version="1.1"
   id="svg5"
   inkscape:version="1.3.2 (091e20ef0f, 2023-11-25, custom)"
   sodipodi:docname="kwalletmanager.svg"
   xml:space="preserve"
   xmlns:inkscape="http://www.inkscape.org/namespaces/inkscape"
   xmlns:sodipodi="http://sodipodi.sourceforge.net/DTD/sodipodi-0.dtd"
   xmlns:xlink="http://www.w3.org/1999/xlink"
   xmlns="http://www.w3.org/2000/svg"
   xmlns:svg="http://www.w3.org/2000/svg"><sodipodi:namedview
     id="namedview7"
     pagecolor="#ffffff"
     bordercolor="#000000"
     borderopacity="0.25"
     inkscape:showpageshadow="false"
     inkscape:pageopacity="0.0"
     inkscape:pagecheckerboard="0"
     inkscape:deskcolor="#d1d1d1"
     inkscape:document-units="px"
     showgrid="true"
     inkscape:zoom="16"
     inkscape:cx="32.28125"
     inkscape:cy="6.0625"
     inkscape:window-width="2560"
     inkscape:window-height="1356"
     inkscape:window-x="0"
     inkscape:window-y="0"
     inkscape:window-maximized="1"
     inkscape:current-layer="layer1"><inkscape:grid
       type="xygrid"
       id="grid271"
       originx="0"
       originy="0"
       spacingy="1"
       spacingx="1"
       units="px"
       visible="true" /></sodipodi:namedview><defs
     id="defs2"><linearGradient
       id="linearGradient5"
       inkscape:collect="always"><stop
         style="stop-color:#cee3e3;stop-opacity:1;"
         offset="0"
         id="stop5" /><stop
         style="stop-color:#fbfbfb;stop-opacity:1;"
         offset="1"
         id="stop6" /></linearGradient><linearGradient
       id="linearGradient3"
       inkscape:collect="always"><stop
         style="stop-color:#3b78f1;stop-opacity:1;"
         offset="0"
         id="stop3" /><stop
         style="stop-color:#5593fa;stop-opacity:1;"
         offset="1"
         id="stop4" /></linearGradient><linearGradient
       id="linearGradient1"
       inkscape:collect="always"><stop
         style="stop-color:#326fef;stop-opacity:1;"
         offset="0"
         id="stop1" /><stop
         style="stop-color:#5694fb;stop-opacity:1;"
         offset="1"
         id="stop2" /></linearGradient><style
       id="current-color-scheme"
       type="text/css">
      .ColorScheme-Text {
        color:#122036;
      }
      </style><style
       id="current-color-scheme-6"
       type="text/css">
      .ColorScheme-Text {
        color:#122036;
      }
      </style><style
       id="current-color-scheme-3"
       type="text/css">
      .ColorScheme-Text {
        color:#122036;
      }
      </style><style
       id="current-color-scheme-6-5"
       type="text/css">
      .ColorScheme-Text {
        color:#122036;
      }
      </style><style
       type="text/css"
       id="current-color-scheme-67">
      .ColorScheme-Text {
        color:#36404d;
      }
      </style><linearGradient
       inkscape:collect="always"
       xlink:href="#linearGradient1"
       id="linearGradient2"
       x1="0.52916664"
       y1="3.7041662"
       x2="0.52916676"
       y2="0.55397099"
       gradientUnits="userSpaceOnUse" /><linearGradient
       inkscape:collect="always"
       xlink:href="#linearGradient3"
       id="linearGradient4"
       x1="2.6458333"
       y1="4.7624993"
       x2="2.6458333"
       y2="3.1749995"
       gradientUnits="userSpaceOnUse" /><linearGradient
       inkscape:collect="always"
       xlink:href="#linearGradient5"
       id="linearGradient6"
       x1="3.96875"
       y1="5.8208327"
       x2="3.96875"
       y2="2.6458328"
       gradientUnits="userSpaceOnUse" /></defs><g
     inkscape:label="Capa 1"
     inkscape:groupmode="layer"
     id="layer1"><g
       id="g2"
       transform="matrix(3.7795276,0,0,3.7795276,-0.9999999,-0.9999983)"><path
         id="rect1"
         style="fill:#33518f;stroke-width:0.529167;stroke-linecap:round;stroke-linejoin:round;paint-order:stroke fill markers;fill-opacity:1"
         d="M 0.52916101,0.26458287 H 5.027089 c 0.146576,0 0.2645777,0.11800166 0.2645777,0.26457772 V 3.7041718 c 0,0.1465761 -0.1180017,0.2645777 -0.2645777,0.2645777 H 0.52916101 c -0.14657606,0 -0.26457772,-0.1180016 -0.26457772,-0.2645777 V 0.52916059 c 0,-0.14657606 0.11800166,-0.26457772 0.26457772,-0.26457772 z" /><path
         id="rect2"
         style="fill:url(#linearGradient2);stroke-width:0.529167;stroke-linecap:round;stroke-linejoin:round;paint-order:stroke fill markers"
         d="M 0.52916664,0.52916622 H 5.0270833 V 3.7041662 H 0.52916664 Z" /><path
         id="rect3"
         style="fill:#1a1a1a;stroke-width:0.528116;stroke-linecap:round;stroke-linejoin:round;paint-order:stroke fill markers;fill-opacity:1"
         d="M 0.26458329,0.79374957 H 5.2916667 V 1.5874996 H 0.26458329 Z" /><path
         id="rect4"
         style="fill:#333333;stroke-width:0.529167;stroke-linecap:round;stroke-linejoin:round;paint-order:stroke fill markers;fill-opacity:1"
         d="M 0.52916664,1.0583329 H 5.0270833 V 1.3229162 H 0.52916664 Z" /><path
         id="rect5"
         style="fill:#1a1a1a;stroke-width:0.531872;stroke-linecap:round;stroke-linejoin:round;paint-order:stroke fill markers;fill-opacity:1"
         d="M 0.79374999,1.8520828 H 2.6458333 v 0.79375 H 0.79374999 Z" /><path
         id="rect6"
         style="fill:#fafbfb;stroke-width:0.529167;stroke-linecap:round;stroke-linejoin:round;paint-order:stroke fill markers"
         d="M 1.0583333,2.1166661 H 2.3812499 V 2.3812495 H 1.0583333 Z" /><path
         id="rect1-6"
         style="fill:#90a4ae;stroke-width:0.529167;stroke-linecap:round;stroke-linejoin:round;paint-order:stroke fill markers;fill-opacity:1"
         d="m 1.3229106,2.3812494 h 4.497928 c 0.1465761,0 0.2645777,0.1180017 0.2645777,0.2645777 v 3.1750113 c 0,0.146576 -0.1180016,0.2645777 -0.2645777,0.2645777 h -4.497928 c -0.146576,0 -0.2645777,-0.1180017 -0.2645777,-0.2645777 V 2.6458271 c 0,-0.146576 0.1180017,-0.2645777 0.2645777,-0.2645777 z" /><path
         id="rect2-7"
         style="fill:url(#linearGradient6);stroke-width:0.529167;stroke-linecap:round;stroke-linejoin:round;paint-order:stroke fill markers"
         d="M 1.3229163,2.6458328 H 5.820833 V 5.8208327 H 1.3229163 Z" /><path
         id="rect7"
         style="fill:#33518f;fill-opacity:1;stroke-width:0.529167;stroke-linecap:round;stroke-linejoin:round;paint-order:stroke fill markers"
         d="m 1.5875,2.9104162 2.1166666,0 v 2.6458333 l -2.1166662,0 z"
         sodipodi:nodetypes="ccccc" /><path
         id="rect8"
         style="fill:url(#linearGradient4);stroke-width:0.529167;stroke-linecap:round;stroke-linejoin:round;paint-order:stroke fill markers"
         d="m 1.8520833,3.1749995 h 1.5875 V 5.291666 h -1.5875 z" /><path
         id="rect6259"
         style="fill:#ffffff;fill-opacity:1;stroke-width:0.529167;stroke-linecap:round;stroke-linejoin:round;stroke-miterlimit:1.8;paint-order:fill markers stroke;stop-color:#000000"
         d="m 2.6318807,3.4395829 c -0.2867765,0.00722 -0.5152141,0.2405892 -0.5152141,0.5291667 0,0.2862906 0.2249163,0.5184641 0.5084961,0.5291666 -0.4301642,0.010826 -0.7730794,0.3608842 -0.7730794,0.79375 h 1.5875 c 0,-0.4328658 -0.3429152,-0.7829244 -0.7730794,-0.79375 C 2.9500837,4.4872142 3.175,4.2550402 3.175,3.9687496 3.175,3.6755915 2.9389913,3.4395829 2.6458333,3.4395829 c -0.00458,0 -0.0094,-1.145e-4 -0.013953,0 z" /></g><path
       id="rect1173-6"
       d="m 14,10 v 1 h 3 v -1 z m 4,0 v 1 h 2 v -1 z"
       style="fill:#1a1a1a;fill-opacity:1;stroke:none;stroke-width:2;stroke-linecap:round;stroke-linejoin:round;stroke-miterlimit:4;stroke-dasharray:none;stroke-opacity:1"
       inkscape:connector-curvature="0"
       sodipodi:nodetypes="cccccccccc" /><path
       id="rect1177-2"
       d="m 14,12 v 1 h 6 v -1 z"
       style="fill:#90a4ae;fill-opacity:1;stroke:none;stroke-width:2;stroke-linecap:round;stroke-linejoin:round;stroke-miterlimit:4;stroke-dasharray:none;stroke-opacity:1"
       inkscape:connector-curvature="0"
       sodipodi:nodetypes="ccccc" /><path
       id="rect1177-2-1"
       d="m 14,14 v 1 h 6 v -1 z"
       style="fill:#90a4ae;fill-opacity:1;stroke:none;stroke-width:2;stroke-linecap:round;stroke-linejoin:round;stroke-miterlimit:4;stroke-dasharray:none;stroke-opacity:1"
       inkscape:connector-curvature="0"
       sodipodi:nodetypes="ccccc" /><path
       id="rect1177-2-2"
       d="m 14,16 v 1 h 6 v -1 z"
       style="fill:#90a4ae;fill-opacity:1;stroke:none;stroke-width:2;stroke-linecap:round;stroke-linejoin:round;stroke-miterlimit:4;stroke-dasharray:none;stroke-opacity:1"
       inkscape:connector-curvature="0"
       sodipodi:nodetypes="ccccc" /><path
       id="rect1177-2-1-7"
       d="m 14,18 v 1 h 6 v -1 z"
       style="fill:#90a4ae;fill-opacity:1;stroke:none;stroke-width:2;stroke-linecap:round;stroke-linejoin:round;stroke-miterlimit:4;stroke-dasharray:none;stroke-opacity:1"
       inkscape:connector-curvature="0"
       sodipodi:nodetypes="ccccc" /></g></svg>
