<?xml version="1.0" encoding="UTF-8" standalone="no"?>
<!-- Created with Inkscape (http://www.inkscape.org/) -->

<svg
   width="22"
   height="22"
   viewBox="0 0 5.8208332 5.8208335"
   version="1.1"
   id="svg8"
   inkscape:version="1.3.2 (091e20ef0f, 2023-11-25, custom)"
   sodipodi:docname="folder-temp.svg"
   xml:space="preserve"
   xmlns:inkscape="http://www.inkscape.org/namespaces/inkscape"
   xmlns:sodipodi="http://sodipodi.sourceforge.net/DTD/sodipodi-0.dtd"
   xmlns:xlink="http://www.w3.org/1999/xlink"
   xmlns="http://www.w3.org/2000/svg"
   xmlns:svg="http://www.w3.org/2000/svg"
   xmlns:rdf="http://www.w3.org/1999/02/22-rdf-syntax-ns#"
   xmlns:cc="http://creativecommons.org/ns#"
   xmlns:dc="http://purl.org/dc/elements/1.1/"><defs
     id="defs2"><style
       type="text/css"
       id="current-color-scheme">
      .ColorScheme-Text {
        color:#36404d;
      }
      </style><style
       type="text/css"
       id="current-color-scheme-67">
      .ColorScheme-Text {
        color:#122036;
      }
      </style><style
       type="text/css"
       id="current-color-scheme-7">
      .ColorScheme-Text {
        color:#122036;
      }
      </style><style
       type="text/css"
       id="current-color-scheme-5">
      .ColorScheme-Text {
        color:#122036;
      }
      </style><style
       type="text/css"
       id="current-color-scheme-6">
      .ColorScheme-Text {
        color:#122036;
      }
      </style><style
       type="text/css"
       id="current-color-scheme-1">
      .ColorScheme-Text {
        color:#122036;
      }
      </style><style
       id="current-color-scheme-10"
       type="text/css">
      .ColorScheme-Text {
        color:#122036;
      }
      </style><style
       id="current-color-scheme-5-7"
       type="text/css">
      .ColorScheme-Text {
        color:#122036;
      }
      </style><style
       id="current-color-scheme-1-2"
       type="text/css">
      .ColorScheme-Text {
        color:#122036;
      }
      </style><style
       type="text/css"
       id="current-color-scheme-10-9">
      .ColorScheme-Text {
        color:#122036;
      }
      </style><style
       type="text/css"
       id="current-color-scheme-675">
      .ColorScheme-Text {
        color:#36404d;
      }
      </style><style
       id="current-color-scheme-3"
       type="text/css">
      .ColorScheme-Text {
        color:#36404d;
      }
      </style><style
       id="current-color-scheme-35"
       type="text/css">
      .ColorScheme-Text {
        color:#36404d;
      }
      </style><linearGradient
       inkscape:collect="always"
       xlink:href="#linearGradient16188"
       id="linearGradient16190"
       x1="-0.79374999"
       y1="5.8208332"
       x2="-0.79374999"
       y2="1.5875"
       gradientUnits="userSpaceOnUse"
       gradientTransform="translate(3.7041668,290.38541)" /><linearGradient
       inkscape:collect="always"
       id="linearGradient16188"><stop
         style="stop-color:#1f1f26;stop-opacity:1;"
         offset="0"
         id="stop16184" /><stop
         style="stop-color:#353d4b;stop-opacity:1;"
         offset="1"
         id="stop16186" /></linearGradient><linearGradient
       inkscape:collect="always"
       xlink:href="#linearGradient4659"
       id="linearGradient4661"
       x1="3.175"
       y1="4.7624998"
       x2="3.175"
       y2="1.5875"
       gradientUnits="userSpaceOnUse"
       gradientTransform="matrix(1.1428572,0,0,1.1428572,-0.71815471,290.46101)" /><linearGradient
       inkscape:collect="always"
       id="linearGradient4659"><stop
         style="stop-color:#e1ebf2;stop-opacity:1;"
         offset="0"
         id="stop4655" /><stop
         style="stop-color:#e1ebf2;stop-opacity:1;"
         offset="1"
         id="stop4657" /></linearGradient></defs><sodipodi:namedview
     id="base"
     pagecolor="#ffffff"
     bordercolor="#666666"
     borderopacity="1.0"
     inkscape:pageopacity="0.0"
     inkscape:pageshadow="2"
     inkscape:zoom="31.678384"
     inkscape:cx="0.20518724"
     inkscape:cy="17.077891"
     inkscape:document-units="px"
     inkscape:current-layer="g1470"
     showgrid="true"
     units="px"
     inkscape:showpageshadow="false"
     inkscape:snap-bbox="true"
     inkscape:bbox-paths="true"
     inkscape:bbox-nodes="true"
     inkscape:snap-bbox-edge-midpoints="true"
     inkscape:snap-bbox-midpoints="true"
     inkscape:object-paths="true"
     inkscape:snap-intersection-paths="true"
     inkscape:window-width="2560"
     inkscape:window-height="1364"
     inkscape:window-x="0"
     inkscape:window-y="0"
     inkscape:window-maximized="1"
     inkscape:pagecheckerboard="0"
     inkscape:deskcolor="#d1d1d1"><inkscape:grid
       type="xygrid"
       id="grid815"
       originx="0"
       originy="0"
       spacingy="1"
       spacingx="1"
       units="px"
       visible="true" /></sodipodi:namedview><metadata
     id="metadata5"><rdf:RDF><cc:Work
         rdf:about=""><dc:format>image/svg+xml</dc:format><dc:type
           rdf:resource="http://purl.org/dc/dcmitype/StillImage" /><dc:title /></cc:Work></rdf:RDF></metadata><g
     inkscape:label="Capa 1"
     inkscape:groupmode="layer"
     id="layer1"
     transform="translate(0,-291.17916)"><path
       id="rect15701"
       style="fill:#1f1f26;fill-opacity:1;stroke-width:0.529167;stroke-linecap:round;stroke-linejoin:round;stroke-miterlimit:1.8;paint-order:fill markers stroke;stop-color:#000000"
       d="m 2.9104167,291.44375 c 1.4657916,0 2.6458332,1.18004 2.6458332,2.64583 0,1.46579 -1.1800416,2.64583 -2.6458332,2.64583 -1.4657916,0 -2.64583326,-1.18004 -2.64583326,-2.64583 0,-1.46579 1.18004166,-2.64583 2.64583326,-2.64583 z" /><path
       id="rect15701-2"
       style="fill:url(#linearGradient16190);stroke-width:0.47625;stroke-linecap:round;stroke-linejoin:round;stroke-miterlimit:1.8;paint-order:fill markers stroke;stop-color:#000000"
       d="m 2.9104168,291.70833 c 1.3192124,0 2.3812499,1.06204 2.3812499,2.38125 0,1.31921 -1.0620375,2.38125 -2.3812499,2.38125 -1.3192125,0 -2.38124995,-1.06204 -2.38124995,-2.38125 0,-1.31921 1.06203745,-2.38125 2.38124995,-2.38125 z" /><path
       id="rect15701-2-6-2"
       style="fill:url(#linearGradient4661);fill-opacity:1;stroke-width:0.423334;stroke-linecap:round;stroke-linejoin:round;stroke-miterlimit:1.8;paint-order:fill markers stroke;stop-color:#000000"
       d="m 2.9104168,291.97291 c 1.1726333,0 2.1166665,0.94403 2.1166665,2.11666 0,1.17263 -0.9440332,2.11667 -2.1166665,2.11667 -1.1726334,0 -2.11666678,-0.94404 -2.11666678,-2.11667 0,-1.17263 0.94403338,-2.11666 2.11666678,-2.11666 z" /><g
       id="g1470-5"
       transform="translate(0.18849211,4.10103)"><path
         id="rect857-6"
         style="opacity:1;fill:#c3cccc;fill-opacity:1;stroke:none;stroke-width:0.529167;stroke-linecap:round;stroke-linejoin:round;stroke-miterlimit:4;stroke-dasharray:none;stroke-opacity:1"
         d="m 2.7219246,288.66568 c -0.146579,0 -0.2645833,0.118 -0.2645833,0.26458 v 0.86661 c -0.1576384,0.0914 -0.2645834,0.26024 -0.2645834,0.45631 0,0.19996 0.1100051,0.37299 0.2728516,0.46302 7.74e-5,4e-5 -7.75e-5,4.7e-4 0,5.1e-4 -0.00534,0.021 -0.00827,0.0429 -0.00827,0.0656 v 0.52917 c 0,0.14658 0.1180043,0.26458 0.2645833,0.26458 0.1465791,0 0.2645833,-0.118 0.2645833,-0.26458 v -0.52917 c 0,-0.0233 -0.00319,-0.0457 -0.00878,-0.0672 0.083113,-0.0467 0.1526279,-0.11485 0.2005045,-0.1974 H 3.780261 c 0.1465791,0 0.2645834,-0.11801 0.2645834,-0.26458 0,-0.14658 -0.1180043,-0.26459 -0.2645834,-0.26459 H 3.1782275 c -0.046159,-0.0796 -0.1121334,-0.14556 -0.1917196,-0.19172 v -0.86661 c 0,-0.14658 -0.1180042,-0.26458 -0.2645833,-0.26458 z" /></g><g
       id="g1470"
       transform="translate(3.7041667,2.1166667)"><path
         id="rect857"
         d="m -0.79375001,292.23749 c 0.1465792,0 0.2645833,0.11801 0.2645833,0.26459 v 0.52916 c 0,0.14658 -0.1180041,0.26459 -0.2645833,0.26459 -0.1465792,0 -0.26458329,-0.11801 -0.26458329,-0.26459 v -0.52916 c 0,-0.14658 0.11800409,-0.26459 0.26458329,-0.26459 z"
         style="opacity:1;fill:#f4203e;fill-opacity:1;stroke:none;stroke-width:0.529167;stroke-linecap:round;stroke-linejoin:round;stroke-miterlimit:4;stroke-dasharray:none;stroke-opacity:1"
         inkscape:connector-curvature="0" /><path
         id="rect847"
         d="m -0.79375001,290.38541 c -0.1465792,0 -0.26458329,0.118 -0.26458329,0.26458 v 0.86662 c -0.1576385,0.0914 -0.2645834,0.26023 -0.2645834,0.4563 0,0.29316 0.2360084,0.52917 0.52916669,0.52917 0.1960748,0 0.3648731,-0.10695 0.4563028,-0.26459 h 0.6020305 c 0.1465792,0 0.2645834,-0.118 0.2645834,-0.26458 0,-0.14658 -0.1180042,-0.26458 -0.2645834,-0.26458 h -0.6020305 c -0.046159,-0.0796 -0.1121333,-0.14556 -0.1917195,-0.19172 v -0.86662 c 0,-0.14658 -0.1180041,-0.26458 -0.2645833,-0.26458 z"
         style="opacity:1;fill:#1f1f26;fill-opacity:1;stroke:none;stroke-width:0.529167;stroke-linecap:round;stroke-linejoin:round;stroke-miterlimit:4;stroke-dasharray:none;stroke-opacity:1"
         inkscape:connector-curvature="0" /></g></g></svg>
