<?xml version="1.0" encoding="UTF-8" standalone="no"?>
<!-- Created with Inkscape (http://www.inkscape.org/) -->

<svg
   width="22"
   height="22"
   viewBox="0 0 5.8208332 5.8208335"
   version="1.1"
   id="svg8"
   inkscape:version="1.3.2 (091e20ef0f, 2023-11-25, custom)"
   sodipodi:docname="start-here-kde.svg"
   xmlns:inkscape="http://www.inkscape.org/namespaces/inkscape"
   xmlns:sodipodi="http://sodipodi.sourceforge.net/DTD/sodipodi-0.dtd"
   xmlns:xlink="http://www.w3.org/1999/xlink"
   xmlns="http://www.w3.org/2000/svg"
   xmlns:svg="http://www.w3.org/2000/svg"
   xmlns:rdf="http://www.w3.org/1999/02/22-rdf-syntax-ns#"
   xmlns:cc="http://creativecommons.org/ns#"
   xmlns:dc="http://purl.org/dc/elements/1.1/">
  <defs
     id="defs2">
    <linearGradient
       inkscape:collect="always"
       xlink:href="#linearGradient8"
       id="linearGradient9"
       x1="3.4395862"
       y1="293.82501"
       x2="3.4395833"
       y2="292.76666"
       gradientUnits="userSpaceOnUse"
       gradientTransform="translate(4.7624728,4.2333414)" />
    <linearGradient
       id="linearGradient8"
       inkscape:collect="always">
      <stop
         style="stop-color:#21a572;stop-opacity:1;"
         offset="0"
         id="stop8" />
      <stop
         style="stop-color:#27bf84;stop-opacity:1;"
         offset="1"
         id="stop9" />
    </linearGradient>
    <linearGradient
       inkscape:collect="always"
       xlink:href="#linearGradient1"
       id="linearGradient5"
       x1="3.9687276"
       y1="291.9729"
       x2="3.9687276"
       y2="291.44373"
       gradientUnits="userSpaceOnUse"
       gradientTransform="translate(4.7624728,4.2333414)" />
    <linearGradient
       id="linearGradient1"
       inkscape:collect="always">
      <stop
         style="stop-color:#f74661;stop-opacity:1;"
         offset="0"
         id="stop1" />
      <stop
         style="stop-color:#f98a9a;stop-opacity:1;"
         offset="1"
         id="stop5" />
    </linearGradient>
    <linearGradient
       inkscape:collect="always"
       xlink:href="#linearGradient10"
       id="linearGradient11"
       x1="4.4978943"
       y1="295.94165"
       x2="4.4978943"
       y2="294.35416"
       gradientUnits="userSpaceOnUse"
       gradientTransform="translate(4.7624728,4.2333414)" />
    <linearGradient
       id="linearGradient10"
       inkscape:collect="always">
      <stop
         style="stop-color:#1090f6;stop-opacity:1;"
         offset="0"
         id="stop10" />
      <stop
         style="stop-color:#03b1fe;stop-opacity:1;"
         offset="1"
         id="stop11" />
    </linearGradient>
    <linearGradient
       inkscape:collect="always"
       xlink:href="#linearGradient12"
       id="linearGradient13"
       x1="6.3499775"
       y1="294.88333"
       x2="6.3499775"
       y2="291.17917"
       gradientUnits="userSpaceOnUse"
       gradientTransform="translate(4.7624728,4.2333414)" />
    <linearGradient
       id="linearGradient12"
       inkscape:collect="always">
      <stop
         style="stop-color:#0d203a;stop-opacity:1;"
         offset="0"
         id="stop12" />
      <stop
         style="stop-color:#284858;stop-opacity:1;"
         offset="1"
         id="stop13" />
    </linearGradient>
  </defs>
  <sodipodi:namedview
     id="base"
     pagecolor="#ffffff"
     bordercolor="#666666"
     borderopacity="1.0"
     inkscape:pageopacity="0.0"
     inkscape:pageshadow="2"
     inkscape:zoom="31.678384"
     inkscape:cx="9.9910399"
     inkscape:cy="13.068848"
     inkscape:document-units="px"
     inkscape:current-layer="g3883"
     showgrid="true"
     units="px"
     inkscape:showpageshadow="false"
     inkscape:snap-bbox="true"
     inkscape:bbox-paths="true"
     inkscape:bbox-nodes="true"
     inkscape:snap-bbox-edge-midpoints="true"
     inkscape:snap-bbox-midpoints="true"
     inkscape:object-paths="true"
     inkscape:snap-intersection-paths="true"
     inkscape:window-width="2560"
     inkscape:window-height="1364"
     inkscape:window-x="0"
     inkscape:window-y="0"
     inkscape:window-maximized="1"
     inkscape:pagecheckerboard="0"
     inkscape:deskcolor="#d1d1d1">
    <inkscape:grid
       type="xygrid"
       id="grid815"
       originx="0"
       originy="0"
       spacingy="1"
       spacingx="1"
       units="px"
       visible="true" />
  </sodipodi:namedview>
  <metadata
     id="metadata5">
    <rdf:RDF>
      <cc:Work
         rdf:about="">
        <dc:format>image/svg+xml</dc:format>
        <dc:type
           rdf:resource="http://purl.org/dc/dcmitype/StillImage" />
        <dc:title />
      </cc:Work>
    </rdf:RDF>
  </metadata>
  <g
     inkscape:label="Capa 1"
     inkscape:groupmode="layer"
     id="layer1"
     transform="translate(0,-291.17916)">
    <g
       id="g1482"
       transform="translate(1.5875225,-1.8520664)">
      <g
         inkscape:label="Capa 1"
         id="layer1-6"
         transform="translate(1.9616264,3.7041779)">
        <g
           id="g3883"
           transform="translate(-6.1949598,-1.3229379)">
          <g
             id="g1"
             transform="translate(-4.7625,-4.2333364)">
            <path
               inkscape:connector-curvature="0"
               id="rect4119"
               d="m 8.7312003,295.41249 c 0.2931584,0 0.5291668,0.23601 0.5291668,0.52917 0,0.29316 -0.2360084,0.52917 -0.5291668,0.52917 -0.2931582,0 -0.5291666,-0.23601 -0.5291666,-0.52917 0,-0.29316 0.2360084,-0.52917 0.5291666,-0.52917 z"
               style="fill:#cc0120;fill-opacity:1;stroke-width:0.169333" />
            <path
               inkscape:connector-curvature="0"
               id="rect4308"
               d="m 8.2020576,296.73542 h 6.5e-6 c 0.4397359,0 0.7937467,0.35401 0.7937467,0.79375 v 0 c 0,0.43974 -0.3540108,0.79375 -0.7937467,0.79375 h -6.5e-6 c -0.4397358,0 -0.7937467,-0.35401 -0.7937467,-0.79375 v 0 c 0,-0.43974 0.3540109,-0.79375 0.7937467,-0.79375 z"
               style="fill:#00804b;fill-opacity:1;stroke-width:0.176389" />
            <path
               inkscape:connector-curvature="0"
               id="rect4312"
               d="m 9.260367,298.32291 c 0.5863169,0 1.058333,0.47201 1.058333,1.05833 0,0.58632 -0.4720161,1.05833 -1.058333,1.05833 -0.5863168,0 -1.0583334,-0.47201 -1.0583334,-1.05833 0,-0.58632 0.4720166,-1.05833 1.0583334,-1.05833 z"
               style="fill:#1586f3;fill-opacity:1;stroke-width:0.162821" />
            <path
               inkscape:connector-curvature="0"
               id="rect4308-6"
               d="m 8.2020562,297.00001 h 2.7e-6 c 0.2931582,0 0.5291653,0.23601 0.5291653,0.52917 v 0 c 0,0.29315 -0.2360071,0.52916 -0.5291653,0.52916 h -2.7e-6 c -0.293157,0 -0.5291653,-0.23601 -0.5291653,-0.52916 v 0 c 0,-0.29316 0.2360083,-0.52917 0.5291653,-0.52917 z"
               style="fill:url(#linearGradient9);fill-opacity:1;stroke-width:0.117592" />
            <path
               inkscape:connector-curvature="0"
               id="rect4119-7"
               d="m 8.7312005,295.67708 c 0.1465789,0 0.2645832,0.118 0.2645832,0.26458 0,0.14658 -0.1180043,0.26458 -0.2645832,0.26458 -0.1465793,0 -0.2645834,-0.118 -0.2645834,-0.26458 0,-0.14658 0.1180041,-0.26458 0.2645834,-0.26458 z"
               style="fill:url(#linearGradient5);fill-opacity:1;stroke-width:0.0846664" />
            <path
               inkscape:connector-curvature="0"
               id="rect4312-5"
               d="m 9.260367,298.58749 c 0.4397375,0 0.79375,0.35402 0.79375,0.79375 0,0.43974 -0.3540125,0.79375 -0.79375,0.79375 -0.4397375,0 -0.79375,-0.35401 -0.79375,-0.79375 0,-0.43973 0.3540125,-0.79375 0.79375,-0.79375 z"
               style="fill:url(#linearGradient11);fill-opacity:1;stroke-width:0.122115" />
            <path
               id="path3263"
               d="m 11.108893,295.14793 a 0.26460979,0.26460979 0 0 0 -0.183451,0.0775 l -0.529167,0.52916 a 0.26460979,0.26460979 0 0 0 0,0.37414 l 1.135848,1.13585 -1.135848,1.13585 a 0.26460979,0.26460979 0 0 0 0,0.37413 l 0.529167,0.52917 a 0.26460979,0.26460979 0 0 0 0.374137,0 l 1.852084,-1.85208 a 0.26460979,0.26460979 0 0 0 0,-0.37414 l -1.852084,-1.85208 a 0.26460979,0.26460979 0 0 0 -0.190686,-0.0775 z"
               style="color:#000000;font-style:normal;font-variant:normal;font-weight:normal;font-stretch:normal;font-size:medium;line-height:normal;font-family:sans-serif;font-variant-ligatures:normal;font-variant-position:normal;font-variant-caps:normal;font-variant-numeric:normal;font-variant-alternates:normal;font-feature-settings:normal;text-indent:0;text-align:start;text-decoration:none;text-decoration-line:none;text-decoration-style:solid;text-decoration-color:#000000;letter-spacing:normal;word-spacing:normal;text-transform:none;writing-mode:lr-tb;direction:ltr;text-orientation:mixed;dominant-baseline:auto;baseline-shift:baseline;text-anchor:start;white-space:normal;shape-padding:0;clip-rule:nonzero;display:inline;overflow:visible;visibility:visible;isolation:auto;mix-blend-mode:normal;color-interpolation:sRGB;color-interpolation-filters:linearRGB;solid-color:#000000;solid-opacity:1;vector-effect:none;fill:#000000;fill-opacity:0.992157;fill-rule:nonzero;stroke:none;stroke-width:0.529167;stroke-linecap:round;stroke-linejoin:round;stroke-miterlimit:4;stroke-dasharray:none;stroke-dashoffset:0;stroke-opacity:1;color-rendering:auto;image-rendering:auto;shape-rendering:auto;text-rendering:auto;enable-background:accumulate"
               inkscape:connector-curvature="0" />
            <path
               inkscape:connector-curvature="0"
               id="path916-7"
               d="m 10.583284,298.5875 0.529166,0.52917 1.852084,-1.85209 -1.852084,-1.85208 -0.529166,0.52917 1.322916,1.32291 z"
               style="fill:url(#linearGradient13);fill-opacity:1;stroke:none;stroke-width:0.529167;stroke-linecap:round;stroke-linejoin:round;stroke-miterlimit:4;stroke-dasharray:none;stroke-opacity:1" />
          </g>
        </g>
      </g>
    </g>
  </g>
</svg>
