<?xml version="1.0" encoding="UTF-8" standalone="no"?>
<svg
   height="22"
   viewBox="0 0 22 22"
   width="22"
   id="svg2"
   version="1.1"
   inkscape:version="1.3.2 (091e20ef0f, 2023-11-25, custom)"
   sodipodi:docname="emblem-select-add.svg"
   xml:space="preserve"
   xmlns:inkscape="http://www.inkscape.org/namespaces/inkscape"
   xmlns:sodipodi="http://sodipodi.sourceforge.net/DTD/sodipodi-0.dtd"
   xmlns:xlink="http://www.w3.org/1999/xlink"
   xmlns="http://www.w3.org/2000/svg"
   xmlns:svg="http://www.w3.org/2000/svg"
   xmlns:rdf="http://www.w3.org/1999/02/22-rdf-syntax-ns#"
   xmlns:cc="http://creativecommons.org/ns#"
   xmlns:dc="http://purl.org/dc/elements/1.1/"><metadata
     id="metadata10"><rdf:RDF><cc:Work
         rdf:about=""><dc:format>image/svg+xml</dc:format><dc:type
           rdf:resource="http://purl.org/dc/dcmitype/StillImage" /><dc:title /></cc:Work></rdf:RDF></metadata><sodipodi:namedview
     pagecolor="#ffffff"
     bordercolor="#666666"
     borderopacity="1"
     objecttolerance="10"
     gridtolerance="10"
     guidetolerance="10"
     inkscape:pageopacity="0"
     inkscape:pageshadow="2"
     inkscape:window-width="2560"
     inkscape:window-height="1356"
     id="namedview8"
     showgrid="true"
     inkscape:showpageshadow="false"
     inkscape:snap-bbox="true"
     inkscape:bbox-paths="true"
     inkscape:bbox-nodes="true"
     inkscape:snap-bbox-edge-midpoints="true"
     inkscape:snap-bbox-midpoints="true"
     inkscape:object-paths="true"
     inkscape:snap-intersection-paths="true"
     inkscape:object-nodes="true"
     inkscape:snap-smooth-nodes="false"
     inkscape:snap-midpoints="false"
     inkscape:zoom="22.627417"
     inkscape:cx="26.185048"
     inkscape:cy="14.053747"
     inkscape:window-x="0"
     inkscape:window-y="0"
     inkscape:window-maximized="1"
     inkscape:current-layer="g1"
     inkscape:pagecheckerboard="0"
     inkscape:deskcolor="#d1d1d1"><inkscape:grid
       type="xygrid"
       id="grid5653"
       originx="0"
       originy="0"
       spacingy="1"
       spacingx="1"
       units="px"
       visible="true" /></sodipodi:namedview><defs
     id="defs2"><linearGradient
       id="linearGradient1"
       inkscape:collect="always"><stop
         style="stop-color:#1f996a;stop-opacity:1;"
         offset="0"
         id="stop1" /><stop
         style="stop-color:#24b27b;stop-opacity:1;"
         offset="1"
         id="stop2" /></linearGradient><style
       type="text/css"
       id="current-color-scheme">
      .ColorScheme-Text {
        color:#122036;
      }
      </style><style
       type="text/css"
       id="current-color-scheme-1">
      .ColorScheme-Text {
        color:#122036;
      }
      </style><style
       id="current-color-scheme-10"
       type="text/css">
      .ColorScheme-Text {
        color:#122036;
      }
      </style><linearGradient
       inkscape:collect="always"
       xlink:href="#linearGradient1"
       id="linearGradient2"
       x1="-3.9999952"
       y1="19.999971"
       x2="-3.9999952"
       y2="3.9999719"
       gradientUnits="userSpaceOnUse" /></defs><g
     transform="translate(-18,-287.64999)"
     id="layer1-60"
     inkscape:label="Capa 1"><g
       transform="matrix(0.6,0,0,0.6,9.4,122.46)"
       id="g2289"><g
         id="g1"
         transform="matrix(1.6666667,0,0,1.6666667,80.999992,273.65003)"><g
           id="g2"
           transform="translate(-24.999996,-6.9639999e-5)"><path
             id="rect242"
             style="fill:#00804b;fill-opacity:1;stroke-width:3.99999;stroke-linecap:round;stroke-linejoin:round"
             d="m -3.9999988,2.0000348 c 5.5400005,0 10.0000007,4.4599938 10.0000007,9.9999872 0,5.539994 -4.4600002,10.000026 -10.0000007,10.000026 C -9.5399994,22.000048 -14,17.540016 -14,12.000022 -14,6.4600286 -9.5399994,2.0000348 -3.9999988,2.0000348 Z" /><path
             id="rect366"
             style="fill:url(#linearGradient2);fill-opacity:1;stroke-width:4;stroke-linecap:round;stroke-linejoin:round"
             d="m -3.999999,2.9999652 c 4.986,0 9,4.014 9,8.9999998 0,4.986 -4.014,9 -9,9 -4.986,0 -9,-4.014 -9,-9 0,-4.9859998 4.014,-8.9999998 9,-8.9999998 z" /><path
             id="rect1-67"
             style="fill:#00804b;fill-opacity:1;stroke-width:2;stroke-linecap:round;stroke-linejoin:round;paint-order:stroke fill markers"
             d="m -9.9999937,11.999964 h 12 v 2.000004 h -12 z" /><path
             id="rect1-6-5"
             style="fill:#00804b;fill-opacity:1;stroke-width:2;stroke-linecap:round;stroke-linejoin:round;paint-order:stroke fill markers"
             d="M -2.9999893,6.9999719 V 18.999972 H -4.9999951 V 6.9999719 Z" /><path
             id="rect1"
             style="fill:#fbfbfb;fill-opacity:1;stroke-width:2;stroke-linecap:round;stroke-linejoin:round;paint-order:stroke fill markers"
             d="m -9.9999994,10.999966 h 12 v 2.000004 h -12 z" /><path
             id="rect1-6"
             style="fill:#fbfbfb;fill-opacity:1;stroke-width:2;stroke-linecap:round;stroke-linejoin:round;paint-order:stroke fill markers"
             d="m -2.999995,5.999974 v 12 h -2.0000058 v -12 z" /></g></g></g></g></svg>
