<?xml version="1.0" encoding="UTF-8" standalone="no"?>
<!-- Created with Inkscape (http://www.inkscape.org/) -->

<svg
   width="64"
   height="64"
   viewBox="0 0 16.933333 16.933333"
   version="1.1"
   id="svg1399"
   inkscape:version="1.3.2 (091e20ef0f, 2023-11-25, custom)"
   sodipodi:docname="libreoffice-oasis-drawing-template.svg"
   xml:space="preserve"
   xmlns:inkscape="http://www.inkscape.org/namespaces/inkscape"
   xmlns:sodipodi="http://sodipodi.sourceforge.net/DTD/sodipodi-0.dtd"
   xmlns:xlink="http://www.w3.org/1999/xlink"
   xmlns="http://www.w3.org/2000/svg"
   xmlns:svg="http://www.w3.org/2000/svg"
   xmlns:rdf="http://www.w3.org/1999/02/22-rdf-syntax-ns#"
   xmlns:cc="http://creativecommons.org/ns#"
   xmlns:dc="http://purl.org/dc/elements/1.1/"><defs
     id="defs1393"><linearGradient
       id="linearGradient1"
       inkscape:collect="always"><stop
         style="stop-color:#ffcb00;stop-opacity:1;"
         offset="0"
         id="stop1" /><stop
         style="stop-color:#ffd602;stop-opacity:1;"
         offset="1"
         id="stop2" /></linearGradient><style
       id="current-color-scheme"
       type="text/css">
      .ColorScheme-Text {
        color:#122036;
      }
      </style><style
       id="current-color-scheme-2"
       type="text/css">
      .ColorScheme-Text {
        color:#122036;
      }
      </style><style
       id="current-color-scheme-0"
       type="text/css">
      .ColorScheme-Text {
        color:#122036;
      }
      </style><style
       type="text/css"
       id="current-color-scheme-36">
      .ColorScheme-Text {
        color:#122036;
      }
      </style><style
       id="current-color-scheme-5"
       type="text/css">
      .ColorScheme-Text {
        color:#122036;
      }
      </style><style
       id="current-color-scheme-2-7"
       type="text/css">
      .ColorScheme-Text {
        color:#122036;
      }
      </style><style
       id="current-color-scheme-1"
       type="text/css">
      .ColorScheme-Text {
        color:#122036;
      }
      </style><style
       type="text/css"
       id="current-color-scheme-10">
      .ColorScheme-Text {
        color:#122036;
      }
      </style><style
       id="current-color-scheme-0-5"
       type="text/css">
      .ColorScheme-Text {
        color:#122036;
      }
      </style><style
       id="current-color-scheme-26"
       type="text/css">
      .ColorScheme-Text {
        color:#122036;
      }
      </style><style
       type="text/css"
       id="current-color-scheme-27">
      .ColorScheme-Text {
        color:#122036;
      }
      </style><style
       type="text/css"
       id="current-color-scheme-7">
      .ColorScheme-Text {
        color:#122036;
      }
      </style><style
       type="text/css"
       id="current-color-scheme-5-09">
      .ColorScheme-Text {
        color:#122036;
      }
      </style><style
       type="text/css"
       id="current-color-scheme-0-3">
      .ColorScheme-Text {
        color:#122036;
      }
      </style><style
       type="text/css"
       id="current-color-scheme-7-9">
      .ColorScheme-Text {
        color:#122036;
      }
      </style><style
       type="text/css"
       id="current-color-scheme-5-3">
      .ColorScheme-Text {
        color:#122036;
      }
      </style><style
       type="text/css"
       id="current-color-scheme-79">
      .ColorScheme-Text {
        color:#122036;
      }
      </style><style
       type="text/css"
       id="current-color-scheme-7-2">
      .ColorScheme-Text {
        color:#122036;
      }
      </style><style
       type="text/css"
       id="current-color-scheme-5-0">
      .ColorScheme-Text {
        color:#122036;
      }
      </style><style
       id="current-color-scheme-53"
       type="text/css">
      .ColorScheme-Text {
        color:#122036;
      }
      </style><style
       id="current-color-scheme-2-5"
       type="text/css">
      .ColorScheme-Text {
        color:#122036;
      }
      </style><style
       id="current-color-scheme-0-6"
       type="text/css">
      .ColorScheme-Text {
        color:#122036;
      }
      </style><style
       type="text/css"
       id="current-color-scheme-56">
      .ColorScheme-Text {
        color:#122036;
      }
      </style><style
       type="text/css"
       id="current-color-scheme-7-29">
      .ColorScheme-Text {
        color:#122036;
      }
      </style><style
       type="text/css"
       id="current-color-scheme-5-1">
      .ColorScheme-Text {
        color:#122036;
      }
      </style><style
       type="text/css"
       id="current-color-scheme-2-2">
      .ColorScheme-Text {
        color:#122036;
      }
      </style><style
       type="text/css"
       id="current-color-scheme-7-7">
      .ColorScheme-Text {
        color:#122036;
      }
      </style><style
       type="text/css"
       id="current-color-scheme-5-0-7">
      .ColorScheme-Text {
        color:#122036;
      }
      </style><style
       id="current-color-scheme-9"
       type="text/css">
      .ColorScheme-Text {
        color:#122036;
      }
      </style><style
       id="current-color-scheme-1-0"
       type="text/css">
      .ColorScheme-Text {
        color:#122036;
      }
      </style><style
       type="text/css"
       id="current-color-scheme-10-93">
      .ColorScheme-Text {
        color:#122036;
      }
      </style><style
       id="current-color-scheme-6"
       type="text/css">
      .ColorScheme-Text {
        color:#122036;
      }
      </style><style
       id="current-color-scheme-7-1"
       type="text/css">
      .ColorScheme-Text {
        color:#122036;
      }
      </style><style
       id="current-color-scheme-5-2"
       type="text/css">
      .ColorScheme-Text {
        color:#122036;
      }
      </style><style
       type="text/css"
       id="current-color-scheme-3">
      .ColorScheme-Text {
        color:#122036;
      }
      </style><style
       type="text/css"
       id="current-color-scheme-7-75">
      .ColorScheme-Text {
        color:#122036;
      }
      </style><style
       type="text/css"
       id="current-color-scheme-5-9">
      .ColorScheme-Text {
        color:#122036;
      }
      </style><style
       id="current-color-scheme-9-2"
       type="text/css">
      .ColorScheme-Text {
        color:#122036;
      }
      </style><style
       id="current-color-scheme-1-2"
       type="text/css">
      .ColorScheme-Text {
        color:#122036;
      }
      </style><style
       type="text/css"
       id="current-color-scheme-10-8">
      .ColorScheme-Text {
        color:#122036;
      }
      </style><style
       id="current-color-scheme-6-9"
       type="text/css">
      .ColorScheme-Text {
        color:#122036;
      }
      </style><style
       id="current-color-scheme-7-1-7"
       type="text/css">
      .ColorScheme-Text {
        color:#122036;
      }
      </style><style
       id="current-color-scheme-5-2-3"
       type="text/css">
      .ColorScheme-Text {
        color:#122036;
      }
      </style><style
       id="current-color-scheme-106"
       type="text/css">
      .ColorScheme-Text {
        color:#122036;
      }
      </style><style
       id="current-color-scheme-7-3"
       type="text/css">
      .ColorScheme-Text {
        color:#122036;
      }
      </style><style
       id="current-color-scheme-5-20"
       type="text/css">
      .ColorScheme-Text {
        color:#122036;
      }
      </style><style
       type="text/css"
       id="current-color-scheme-9-6">
      .ColorScheme-Text {
        color:#122036;
      }
      </style><style
       type="text/css"
       id="current-color-scheme-1-1">
      .ColorScheme-Text {
        color:#122036;
      }
      </style><style
       id="current-color-scheme-10-5"
       type="text/css">
      .ColorScheme-Text {
        color:#122036;
      }
      </style><style
       type="text/css"
       id="current-color-scheme-6-5">
      .ColorScheme-Text {
        color:#122036;
      }
      </style><style
       type="text/css"
       id="current-color-scheme-7-1-4">
      .ColorScheme-Text {
        color:#122036;
      }
      </style><style
       type="text/css"
       id="current-color-scheme-5-2-7">
      .ColorScheme-Text {
        color:#122036;
      }
      </style><style
       id="current-color-scheme-53-6"
       type="text/css">
      .ColorScheme-Text {
        color:#122036;
      }
      </style><style
       id="current-color-scheme-1-56"
       type="text/css">
      .ColorScheme-Text {
        color:#122036;
      }
      </style><style
       type="text/css"
       id="current-color-scheme-10-2">
      .ColorScheme-Text {
        color:#122036;
      }
      </style><style
       type="text/css"
       id="current-color-scheme-5-91">
      .ColorScheme-Text {
        color:#122036;
      }
      </style><style
       type="text/css"
       id="current-color-scheme-1-2-2">
      .ColorScheme-Text {
        color:#122036;
      }
      </style><style
       id="current-color-scheme-10-9"
       type="text/css">
      .ColorScheme-Text {
        color:#122036;
      }
      </style><style
       id="current-color-scheme-6-7"
       type="text/css">
      .ColorScheme-Text {
        color:#122036;
      }
      </style><style
       id="current-color-scheme-1-9"
       type="text/css">
      .ColorScheme-Text {
        color:#122036;
      }
      </style><style
       type="text/css"
       id="current-color-scheme-10-1">
      .ColorScheme-Text {
        color:#122036;
      }
      </style><style
       id="current-color-scheme-7-0"
       type="text/css">
      .ColorScheme-Text {
        color:#122036;
      }
      </style><style
       id="current-color-scheme-1-5"
       type="text/css">
      .ColorScheme-Text {
        color:#122036;
      }
      </style><style
       type="text/css"
       id="current-color-scheme-10-3">
      .ColorScheme-Text {
        color:#122036;
      }
      </style><style
       type="text/css"
       id="current-color-scheme-5-5">
      .ColorScheme-Text {
        color:#122036;
      }
      </style><style
       type="text/css"
       id="current-color-scheme-1-2-6">
      .ColorScheme-Text {
        color:#122036;
      }
      </style><style
       id="current-color-scheme-10-9-2"
       type="text/css">
      .ColorScheme-Text {
        color:#122036;
      }
      </style><style
       id="current-color-scheme-6-9-9"
       type="text/css">
      .ColorScheme-Text {
        color:#122036;
      }
      </style><style
       id="current-color-scheme-1-9-1"
       type="text/css">
      .ColorScheme-Text {
        color:#122036;
      }
      </style><style
       type="text/css"
       id="current-color-scheme-10-1-2">
      .ColorScheme-Text {
        color:#122036;
      }
      </style><linearGradient
       inkscape:collect="always"
       xlink:href="#linearGradient1"
       id="linearGradient2"
       x1="-3.6749563"
       y1="299.62558"
       x2="-3.7411022"
       y2="284.10492"
       gradientUnits="userSpaceOnUse" /></defs><sodipodi:namedview
     id="base"
     pagecolor="#ffffff"
     bordercolor="#666666"
     borderopacity="1.0"
     inkscape:pageopacity="0.0"
     inkscape:pageshadow="2"
     inkscape:zoom="15.839192"
     inkscape:cx="42.457974"
     inkscape:cy="32.072343"
     inkscape:document-units="px"
     inkscape:current-layer="g1779"
     showgrid="true"
     inkscape:showpageshadow="false"
     units="px"
     inkscape:window-width="2560"
     inkscape:window-height="1356"
     inkscape:window-x="0"
     inkscape:window-y="0"
     inkscape:window-maximized="1"
     inkscape:pagecheckerboard="0"
     inkscape:deskcolor="#d1d1d1"><inkscape:grid
       type="xygrid"
       id="grid31362"
       originx="0"
       originy="0"
       spacingy="1"
       spacingx="1"
       units="px"
       visible="true" /></sodipodi:namedview><metadata
     id="metadata1396"><rdf:RDF><cc:Work
         rdf:about=""><dc:format>image/svg+xml</dc:format><dc:type
           rdf:resource="http://purl.org/dc/dcmitype/StillImage" /></cc:Work></rdf:RDF></metadata><g
     inkscape:label="Capa 1"
     inkscape:groupmode="layer"
     id="layer1"
     transform="translate(0,-280.06672)"><g
       id="g1779"
       transform="translate(12.141622,-3.1546885)"><path
         id="rect971"
         d="m -9.7603727,283.48599 c -0.5863163,0 -1.0583333,0.47202 -1.0583333,1.05833 v 3.70417 1.05833 9.525 c 0,0.58632 0.472017,1.05834 1.0583333,1.05834 H 2.41046 c 0.586317,0 1.058334,-0.47202 1.058334,-1.05834 v -9.525 -1.05833 -0.26458 -3.43959 c 0,-0.58631 -0.472017,-1.05833 -1.058334,-1.05833 z"
         style="opacity:1;vector-effect:none;fill:#e68900;fill-opacity:1;stroke:none;stroke-width:0.52916664;stroke-linecap:round;stroke-linejoin:round;stroke-miterlimit:4;stroke-dasharray:none;stroke-dashoffset:0;stroke-opacity:1"
         inkscape:connector-curvature="0" /><path
         id="rect971-2"
         d="m -9.7603727,283.75057 c -0.4397373,0 -0.7937503,0.35402 -0.7937503,0.79375 v 3.175 0.52917 0.79375 9.78958 c 0,0.43974 0.354013,0.79375 0.7937503,0.79375 H 2.41046 c 0.439738,0 0.79375,-0.35401 0.79375,-0.79375 v -9.78958 -0.79375 -0.52917 -3.175 c 0,-0.43973 -0.354012,-0.79375 -0.79375,-0.79375 z"
         style="opacity:1;vector-effect:none;fill:url(#linearGradient2);fill-opacity:1;stroke:none;stroke-width:0.52916664;stroke-linecap:round;stroke-linejoin:round;stroke-miterlimit:4;stroke-dasharray:none;stroke-dashoffset:0;stroke-opacity:1"
         inkscape:connector-curvature="0" /><g
         inkscape:label="Capa 1"
         id="layer1-5"
         transform="translate(-8.8275796,1.6146182)"><g
           id="g4524-2"
           transform="matrix(0.26458333,0,0,0.26458333,-17.641669,211.16141)"
           style="fill:#ffffff;fill-opacity:0.2"><g
             transform="translate(-56,1.999997)"
             id="g2304-7"
             style="fill:#ffffff;fill-opacity:0.2"><g
               inkscape:label="Capa 1"
               id="layer1-8-0"
               transform="translate(158.99918,-10.000126)"
               style="fill:#ffffff;fill-opacity:0.2"><g
                 id="g3770-9"
                 transform="matrix(1.4090909,0,0,1.4090909,71.227272,-105.2659)"
                 style="fill:#ffffff;fill-opacity:0.2"><g
                   transform="translate(-52,-5)"
                   inkscape:label="Capa 1"
                   id="layer1-6-3-3"
                   style="fill:#ffffff;fill-opacity:0.2" /><g
                   style="fill:#ffffff;fill-opacity:0.2"
                   inkscape:label="Capa 1"
                   id="layer1-6-4-6"
                   transform="translate(-52,-6)"><g
                     style="fill:#ffffff;fill-opacity:0.2"
                     id="g6249-7-0"
                     transform="translate(4,-10)" /></g><g
                   transform="translate(-40.451708,0.70976455)"
                   id="g3784-6"
                   style="fill:#ffffff;fill-opacity:0.2"><path
                     id="rect5971-3"
                     style="fill:#ffffff;fill-opacity:0.48445171;stroke-width:1.13548;stroke-linecap:round;stroke-linejoin:round;stroke-miterlimit:1.8;paint-order:stroke fill markers;stop-color:#000000"
                     d="m -38.375565,270.04373 c -1.17948,0 -2.129033,0.94955 -2.129033,2.12904 v 0.70967 h 0.120594 2.718118 v -2.71812 -0.12059 z m 0.709676,2.83871 v 2.83871 h 2.838712 v -2.83871 z m 2.838712,0 h 2.838708 v -2.83871 h -2.838708 z m 2.838708,0 v 2.83871 h 2.838709 v -2.83871 z m 2.838709,0 h 2.838712 v -2.83871 h -2.838712 z m 2.838712,0 v 2.83871 h 2.838709 v -2.83871 z m 2.838709,0 h 2.838708 v -2.83871 h -2.838708 z m 2.838708,0 v 2.83871 h 2.838712 v -2.83871 z m 2.838712,0 h 2.838709 v -2.83871 h -2.838709 z m 2.838709,0 v 2.83871 h 2.838709 v -2.83871 z m 2.838709,0 h 2.8387113 v -2.83871 h -2.8387113 z m 2.8387113,0 v 2.83871 h 2.838709 v -2.83871 z m 2.838709,0 h 2.71812 0.120594 v -0.70967 c 0,-1.17949 -0.949552,-2.12904 -2.129032,-2.12904 h -0.709677 v 0.12059 z m 0,2.83871 v 2.83871 h 2.838709 v -2.83871 z m 0,2.83871 h -2.838709 v 2.83871 h 2.838709 z m 0,2.83871 v 2.83871 h 2.838709 v -2.83871 z m 0,2.83871 h -2.838709 v 2.83871 h 2.838709 z m 0,2.83871 v 2.83871 h 2.838709 v -2.83871 z m 0,2.83871 h -2.838709 v 2.83871 h 2.838709 z m 0,2.83871 v 2.83871 h 2.838709 v -2.83871 z m 0,2.83871 h -2.838709 v 2.83871 h 2.838709 z m 0,2.83871 v 2.83871 h 2.838709 v -2.83871 z m 0,2.83871 h -2.838709 v 2.83871 h 2.838709 z m 0,2.83871 v 2.83871 h 2.838709 v -2.83871 z m 0,2.83871 h -2.838709 v 2.83871 h 2.838709 z m 0,2.83871 v 2.71812 0.12059 h 0.709676 c 1.17948,0 2.129033,-0.94954 2.129033,-2.12903 v -0.70967 h -0.120594 z m -2.838709,0 h -2.8387113 v 2.83871 h 2.8387113 z m -2.8387113,0 v -2.83871 h -2.838709 v 2.83871 z m -2.838709,0 h -2.838709 v 2.83871 h 2.838709 z m -2.838709,0 v -2.83871 h -2.838712 v 2.83871 z m -2.838712,0 h -2.838708 v 2.83871 h 2.838708 z m -2.838708,0 v -2.83871 h -2.838709 v 2.83871 z m -2.838709,0 h -2.838712 v 2.83871 h 2.838712 z m -2.838712,0 v -2.83871 h -2.838709 v 2.83871 z m -2.838709,0 h -2.838708 v 2.83871 h 2.838708 z m -2.838708,0 v -2.83871 h -2.838712 v 2.83871 z m -2.838712,0 h -2.718118 -0.120593 v 0.70968 c 0,1.17948 0.949552,2.12903 2.129032,2.12903 h 0.709676 v -0.12059 z m 0,-2.83871 v -2.83871 h -2.838709 v 2.83871 z m 0,-2.83871 h 2.838712 v -2.83871 h -2.838712 z m 0,-2.83871 v -2.83871 h -2.838709 v 2.83871 z m 0,-2.83871 h 2.838712 v -2.83871 h -2.838712 z m 0,-2.83871 v -2.83871 h -2.838709 v 2.83871 z m 0,-2.83871 h 2.838712 v -2.83871 h -2.838712 z m 0,-2.83871 v -2.83871 h -2.838709 v 2.83871 z m 0,-2.83871 h 2.838712 v -2.83871 h -2.838712 z m 0,-2.83871 v -2.83871 h -2.838709 v 2.83871 z m 0,-2.83871 h 2.838712 v -2.83871 h -2.838712 z m 0,-2.83871 v -2.83871 h -2.838709 v 2.83871 z m 2.838712,0 h 2.838708 v -2.83871 h -2.838708 z m 2.838708,0 v 2.83871 h 2.838709 v -2.83871 z m 2.838709,0 h 2.838712 v -2.83871 h -2.838712 z m 2.838712,0 v 2.83871 h 2.838709 v -2.83871 z m 2.838709,0 h 2.838708 v -2.83871 h -2.838708 z m 2.838708,0 v 2.83871 h 2.838712 v -2.83871 z m 2.838712,0 h 2.838709 v -2.83871 h -2.838709 z m 2.838709,0 v 2.83871 h 2.838709 v -2.83871 z m 2.838709,0 h 2.8387113 v -2.83871 h -2.8387113 z m 0,2.83871 v 2.83871 h 2.8387113 v -2.83871 z m 0,2.83871 h -2.838709 v 2.83871 h 2.838709 z m 0,2.83871 v 2.83871 h 2.8387113 v -2.83871 z m 0,2.83871 h -2.838709 v 2.83871 h 2.838709 z m 0,2.83871 v 2.83871 h 2.8387113 v -2.83871 z m 0,2.83871 h -2.838709 v 2.83871 h 2.838709 z m 0,2.83871 v 2.83871 h 2.8387113 v -2.83871 z m 0,2.83871 h -2.838709 v 2.83871 h 2.838709 z m 0,2.83871 v 2.83871 h 2.8387113 v -2.83871 z m -2.838709,0 h -2.838709 v 2.83871 h 2.838709 z m -2.838709,0 v -2.83871 h -2.838712 v 2.83871 z m -2.838712,0 h -2.838708 v 2.83871 h 2.838708 z m -2.838708,0 v -2.83871 h -2.838709 v 2.83871 z m -2.838709,0 h -2.838712 v 2.83871 h 2.838712 z m -2.838712,0 v -2.83871 h -2.838709 v 2.83871 z m -2.838709,0 h -2.838708 v 2.83871 h 2.838708 z m 0,-2.83871 v -2.83871 h -2.838708 v 2.83871 z m 0,-2.83871 h 2.838709 v -2.83871 h -2.838709 z m 0,-2.83871 v -2.83871 h -2.838708 v 2.83871 z m 0,-2.83871 h 2.838709 v -2.83871 h -2.838709 z m 0,-2.83871 v -2.83871 h -2.838708 v 2.83871 z m 0,-2.83871 h 2.838709 v -2.83871 h -2.838709 z m 0,-2.83871 v -2.83871 h -2.838708 v 2.83871 z m 2.838709,0 h 2.838712 v -2.83871 h -2.838712 z m 2.838712,0 v 2.83871 h 2.838709 v -2.83871 z m 2.838709,0 h 2.838708 v -2.83871 h -2.838708 z m 2.838708,0 v 2.83871 h 2.838712 v -2.83871 z m 2.838712,0 h 2.838709 v -2.83871 h -2.838709 z m 0,2.83871 v 2.83871 h 2.838709 v -2.83871 z m 0,2.83871 h -2.838712 v 2.83871 h 2.838712 z m 0,2.83871 v 2.83871 h 2.838709 v -2.83871 z m 0,2.83871 h -2.838712 v 2.83871 h 2.838712 z m 0,2.83871 v 2.83871 h 2.838709 v -2.83871 z m -2.838712,0 h -2.838708 v 2.83871 h 2.838708 z m -2.838708,0 v -2.83871 h -2.838709 v 2.83871 z m -2.838709,0 h -2.838712 v 2.83871 h 2.838712 z m 0,-2.83871 v -2.83871 h -2.838712 v 2.83871 z m 0,-2.83871 h 2.838709 v -2.83871 h -2.838709 z m 0,-2.83871 v -2.83871 h -2.838712 v 2.83871 z m 2.838709,0 h 2.838708 v -2.83871 h -2.838708 z m 0,2.83871 v 2.83871 h 2.838708 v -2.83871 z" /></g></g></g></g><g
             transform="translate(-56.000003,-13.000006)"
             id="g2304-4-6"
             style="fill:#ffffff;fill-opacity:0.2"><g
               inkscape:label="Capa 1"
               id="layer1-8-8-1"
               transform="translate(158.99918,-10.000126)"
               style="fill:#ffffff;fill-opacity:0.2"><g
                 id="g3770-7-8"
                 transform="matrix(1.4090909,0,0,1.4090909,71.227272,-105.2659)"
                 style="fill:#ffffff;fill-opacity:0.2"><g
                   transform="translate(-52,-5)"
                   inkscape:label="Capa 1"
                   id="layer1-6-3-1-7"
                   style="fill:#ffffff;fill-opacity:0.2" /><g
                   style="fill:#ffffff;fill-opacity:0.2"
                   inkscape:label="Capa 1"
                   id="layer1-6-4-7-9"
                   transform="translate(-52,-6)"><g
                     style="fill:#ffffff;fill-opacity:0.2"
                     id="g6249-7-2-2"
                     transform="translate(4,-10)" /></g><g
                   transform="translate(-40.451708,0.70976455)"
                   id="g3784-7-0"
                   style="fill:#ffffff;fill-opacity:0.2" /></g></g></g></g></g><path
         id="rect31416-6"
         style="fill:#fe9807;fill-opacity:1;stroke-width:0.529167;stroke-linecap:square;stroke-miterlimit:1.8;paint-order:stroke fill markers;stop-color:#000000"
         d="m -8.4374564,287.19016 v 1.5875 h 0.5291667 v 2.64583 h -0.2645834 v 1.05833 h 0.2645834 v 2.64583 h -0.5291667 v 1.5875 h 1.5875 v -0.52916 h 2.6458332 v 0.26458 h 1.0583334 v -0.26458 h 2.64583324 v 0.52916 H 1.0875434 v -1.5875 H 0.5583767 v -2.64583 h 0.2645834 v -1.05833 H 0.5583767 v -2.64583 h 0.5291667 v -1.5875 h -1.58749996 v 0.52916 H -3.1457898 v -0.26458 h -1.0583334 v 0.26458 h -2.6458332 v -0.52916 z m 0.2645833,0.26458 h 1.0583333 v 1.05834 h -1.0583333 z m 7.9374999,0 h 1.0583333 v 1.05834 h -1.0583333 z m -3.7041666,0.26459 h 0.5291666 v 0.52917 h -0.5291666 z m -2.9104166,0.52917 h 2.6458332 v 0.26458 h 0.5291667 0.5291667 v -0.26458 h 2.64583324 v 0.52917 H 0.0292101 v 2.64583 h -0.2645833 v 0.52916 0.52917 h 0.2645833 v 2.64583 h -0.52916666 v 0.52917 H -3.1457898 v -0.26458 h -0.5291667 -0.5291667 v 0.26458 h -2.6458332 v -0.52917 h -0.5291667 v -2.64583 h 0.2645833 v -0.52917 -0.52916 h -0.2645833 v -2.64583 h 0.5291667 z m -0.2645834,3.70416 c 0,1.90553 1.5340561,3.43959 3.4395833,3.43959 1.9055272,0 3.4395833,-1.53406 3.4395833,-3.43959 0,-1.90552 -1.5340561,-3.43958 -3.4395833,-3.43958 -1.9055272,0 -3.4395833,1.53406 -3.4395833,3.43958 z m -0.7937499,-0.26458 h 0.5291666 v 0.52917 h -0.5291666 z m 7.9374998,0 h 0.5291667 v 0.52917 H 0.0292101 Z m -8.2020832,3.70416 h 1.0583333 v 1.05834 h -1.0583333 z m 7.9374999,0 h 1.0583333 v 1.05834 h -1.0583333 z m -3.7041666,0.26459 h 0.5291666 v 0.52917 h -0.5291666 z" /><path
         id="rect31416"
         style="fill:#714500;fill-opacity:1;stroke-width:0.529167;stroke-linecap:square;stroke-miterlimit:1.8;paint-order:stroke fill markers;stop-color:#000000"
         d="M -8.4374554 286.92558 L -8.4374554 288.51308 L -7.9082887 288.51308 L -7.9082887 291.15891 L -8.1728721 291.15891 L -8.1728721 292.21724 L -7.9082887 292.21724 L -7.9082887 294.86307 L -8.4374554 294.86307 L -8.4374554 296.45057 L -6.8499554 296.45057 L -6.8499554 295.92141 L -4.2041222 295.92141 L -4.2041222 296.18599 L -3.1457888 296.18599 L -3.1457888 295.92141 L -0.49995556 295.92141 L -0.49995556 296.45057 L 1.0875444 296.45057 L 1.0875444 294.86307 L 0.55837775 294.86307 L 0.55837775 292.21724 L 0.82296108 292.21724 L 0.82296108 291.15891 L 0.55837775 291.15891 L 0.55837775 288.51308 L 1.0875444 288.51308 L 1.0875444 286.92558 L -0.49995556 286.92558 L -0.49995556 287.45474 L -3.1457888 287.45474 L -3.1457888 287.19016 L -4.2041222 287.19016 L -4.2041222 287.45474 L -6.8499554 287.45474 L -6.8499554 286.92558 L -8.4374554 286.92558 z M -8.1728721 287.19016 L -7.1145388 287.19016 L -7.1145388 288.24849 L -8.1728721 288.24849 L -8.1728721 287.19016 z M -0.23537223 287.19016 L 0.82296108 287.19016 L 0.82296108 288.24849 L -0.23537223 288.24849 L -0.23537223 287.19016 z M -3.9395388 287.45474 L -3.4103722 287.45474 L -3.4103722 287.98391 L -3.9395388 287.98391 L -3.9395388 287.45474 z M -6.8499554 287.98391 L -4.2041222 287.98391 L -4.2041222 288.24849 L -3.6749555 288.24849 L -3.1457888 288.24849 L -3.1457888 287.98391 L -0.49995556 287.98391 L -0.49995556 288.51308 L 0.029211094 288.51308 L 0.029211094 291.15891 L -0.23537223 291.15891 L -0.23537223 291.68807 L -0.23537223 292.21724 L 0.029211094 292.21724 L 0.029211094 294.86307 L -0.49995556 294.86307 L -0.49995556 295.39224 L -3.1457888 295.39224 L -3.1457888 295.12766 L -3.6749555 295.12766 L -4.2041222 295.12766 L -4.2041222 295.39224 L -6.8499554 295.39224 L -6.8499554 294.86307 L -7.3791221 294.86307 L -7.3791221 292.21724 L -7.1145388 292.21724 L -7.1145388 291.68807 L -7.1145388 291.15891 L -7.3791221 291.15891 L -7.3791221 288.51308 L -6.8499554 288.51308 L -6.8499554 287.98391 z M -7.1145388 291.68807 C -7.1145388 293.5936 -5.5804827 295.12766 -3.6749555 295.12766 C -1.7694283 295.12766 -0.23537223 293.5936 -0.23537223 291.68807 C -0.23537223 289.78255 -1.7694283 288.24849 -3.6749555 288.24849 C -5.5804827 288.24849 -7.1145388 289.78255 -7.1145388 291.68807 z M -7.9082887 291.42349 L -7.3791221 291.42349 L -7.3791221 291.95266 L -7.9082887 291.95266 L -7.9082887 291.42349 z M 0.029211094 291.42349 L 0.55837775 291.42349 L 0.55837775 291.95266 L 0.029211094 291.95266 L 0.029211094 291.42349 z M -8.1728721 295.12766 L -7.1145388 295.12766 L -7.1145388 296.18599 L -8.1728721 296.18599 L -8.1728721 295.12766 z M -0.23537223 295.12766 L 0.82296108 295.12766 L 0.82296108 296.18599 L -0.23537223 296.18599 L -0.23537223 295.12766 z M -3.9395388 295.39224 L -3.4103722 295.39224 L -3.4103722 295.92141 L -3.9395388 295.92141 L -3.9395388 295.39224 z " /></g></g></svg>
