<?xml version="1.0" encoding="UTF-8" standalone="no"?>
<!-- Created with Inkscape (http://www.inkscape.org/) -->

<svg
   width="64"
   height="64"
   viewBox="0 0 16.933333 16.933333"
   version="1.1"
   id="svg1399"
   inkscape:version="1.3.2 (091e20ef0f, 2023-11-25, custom)"
   sodipodi:docname="application-wps-office.xltx.svg"
   xml:space="preserve"
   xmlns:inkscape="http://www.inkscape.org/namespaces/inkscape"
   xmlns:sodipodi="http://sodipodi.sourceforge.net/DTD/sodipodi-0.dtd"
   xmlns:xlink="http://www.w3.org/1999/xlink"
   xmlns="http://www.w3.org/2000/svg"
   xmlns:svg="http://www.w3.org/2000/svg"
   xmlns:rdf="http://www.w3.org/1999/02/22-rdf-syntax-ns#"
   xmlns:cc="http://creativecommons.org/ns#"
   xmlns:dc="http://purl.org/dc/elements/1.1/"><defs
     id="defs1393"><linearGradient
       gradientUnits="userSpaceOnUse"
       y2="252.64999"
       x2="88"
       y1="306.64999"
       x1="88"
       id="linearGradient1149"
       xlink:href="#linearGradient7100"
       inkscape:collect="always"
       gradientTransform="translate(-8,-256.64999)" /><linearGradient
       id="linearGradient7100"
       inkscape:collect="always"><stop
         id="stop7096"
         offset="0"
         style="stop-color:#2cb874;stop-opacity:1;" /><stop
         id="stop7098"
         offset="1"
         style="stop-color:#56d38c;stop-opacity:1;" /></linearGradient></defs><sodipodi:namedview
     id="base"
     pagecolor="#ffffff"
     bordercolor="#666666"
     borderopacity="1.0"
     inkscape:pageopacity="0.0"
     inkscape:pageshadow="2"
     inkscape:zoom="11.2"
     inkscape:cx="53.303571"
     inkscape:cy="28.705357"
     inkscape:document-units="px"
     inkscape:current-layer="layer1"
     showgrid="false"
     inkscape:showpageshadow="false"
     units="px"
     inkscape:window-width="1469"
     inkscape:window-height="1243"
     inkscape:window-x="0"
     inkscape:window-y="0"
     inkscape:window-maximized="0"
     inkscape:pagecheckerboard="0"
     inkscape:deskcolor="#d1d1d1" /><metadata
     id="metadata1396"><rdf:RDF><cc:Work
         rdf:about=""><dc:format>image/svg+xml</dc:format><dc:type
           rdf:resource="http://purl.org/dc/dcmitype/StillImage" /></cc:Work></rdf:RDF></metadata><g
     inkscape:label="Capa 1"
     inkscape:groupmode="layer"
     id="layer1"
     transform="translate(0,-280.06672)"><g
       id="g2934"
       transform="translate(10.93891,-3.1880891)"><g
         inkscape:label="Capa 1"
         id="layer1-6"
         transform="matrix(0.26458333,0,0,0.26458333,-10.93891,216.937)"><g
           id="g1769"
           transform="translate(38,-6)"><path
             id="rect971"
             transform="translate(-84,264.64999)"
             d="m 55,-7 c -2.216,0 -4,1.784 -4,4 v 14 4 36 c 0,2.216 1.784,4 4,4 h 46 c 2.216,0 4,-1.784 4,-4 V 15 11 10 -3 c 0,-2.216 -1.784,-4 -4,-4 z"
             style="opacity:1;vector-effect:none;fill:#269334;fill-opacity:1;stroke:none;stroke-width:2;stroke-linecap:round;stroke-linejoin:round;stroke-miterlimit:4;stroke-dasharray:none;stroke-dashoffset:0;stroke-opacity:1"
             inkscape:connector-curvature="0" /><path
             id="rect971-2"
             transform="translate(-84,264.64999)"
             d="m 55,-6 c -1.662,0 -3,1.338 -3,3 v 12 2 3 37 c 0,1.662 1.338,3 3,3 h 46 c 1.662,0 3,-1.338 3,-3 V 14 11 9 -3 c 0,-1.662 -1.338,-3 -3,-3 z"
             style="opacity:1;vector-effect:none;fill:url(#linearGradient1149);fill-opacity:1.0;stroke:none;stroke-width:2;stroke-linecap:round;stroke-linejoin:round;stroke-miterlimit:4;stroke-dasharray:none;stroke-dashoffset:0;stroke-opacity:1"
             inkscape:connector-curvature="0" /></g></g></g><g
       id="g4524-2"
       transform="matrix(0.26458333,0,0,0.26458333,-14.327627,209.62134)"
       style="fill:#ffffff;fill-opacity:0.2"><g
         transform="translate(-56,1.999997)"
         id="g2304-7"
         style="fill:#ffffff;fill-opacity:0.2"><g
           inkscape:label="Capa 1"
           id="layer1-8-0"
           transform="translate(158.99918,-10.000126)"
           style="fill:#ffffff;fill-opacity:0.2"><g
             id="g3770-9"
             transform="matrix(1.4090909,0,0,1.4090909,71.227272,-105.2659)"
             style="fill:#ffffff;fill-opacity:0.2"><g
               transform="translate(-52,-5)"
               inkscape:label="Capa 1"
               id="layer1-6-3-3"
               style="fill:#ffffff;fill-opacity:0.2" /><g
               style="fill:#ffffff;fill-opacity:0.2"
               inkscape:label="Capa 1"
               id="layer1-6-4-6"
               transform="translate(-52,-6)"><g
                 style="fill:#ffffff;fill-opacity:0.2"
                 id="g6249-7-0"
                 transform="translate(4,-10)" /></g><g
               transform="translate(-40.451708,0.70976455)"
               id="g3784-6"
               style="fill:#ffffff;fill-opacity:0.2"><path
                 id="rect5971-3"
                 style="fill:#ffffff;fill-opacity:0.2;stroke-width:1.13548;stroke-linecap:round;stroke-linejoin:round;stroke-miterlimit:1.8;paint-order:stroke fill markers;stop-color:#000000"
                 d="m -38.375565,270.04373 c -1.17948,0 -2.129033,0.94955 -2.129033,2.12904 v 0.70967 h 0.120594 2.718118 v -2.71812 -0.12059 z m 0.709676,2.83871 v 2.83871 h 2.838712 v -2.83871 z m 2.838712,0 h 2.838708 v -2.83871 h -2.838708 z m 2.838708,0 v 2.83871 h 2.838709 v -2.83871 z m 2.838709,0 h 2.838712 v -2.83871 h -2.838712 z m 2.838712,0 v 2.83871 h 2.838709 v -2.83871 z m 2.838709,0 h 2.838708 v -2.83871 h -2.838708 z m 2.838708,0 v 2.83871 h 2.838712 v -2.83871 z m 2.838712,0 h 2.838709 v -2.83871 h -2.838709 z m 2.838709,0 v 2.83871 h 2.838709 v -2.83871 z m 2.838709,0 h 2.8387113 v -2.83871 h -2.8387113 z m 2.8387113,0 v 2.83871 h 2.838709 v -2.83871 z m 2.838709,0 h 2.71812 0.120594 v -0.70967 c 0,-1.17949 -0.949552,-2.12904 -2.129032,-2.12904 h -0.709677 v 0.12059 z m 0,2.83871 v 2.83871 h 2.838709 v -2.83871 z m 0,2.83871 h -2.838709 v 2.83871 h 2.838709 z m 0,2.83871 v 2.83871 h 2.838709 v -2.83871 z m 0,2.83871 h -2.838709 v 2.83871 h 2.838709 z m 0,2.83871 v 2.83871 h 2.838709 v -2.83871 z m 0,2.83871 h -2.838709 v 2.83871 h 2.838709 z m 0,2.83871 v 2.83871 h 2.838709 v -2.83871 z m 0,2.83871 h -2.838709 v 2.83871 h 2.838709 z m 0,2.83871 v 2.83871 h 2.838709 v -2.83871 z m 0,2.83871 h -2.838709 v 2.83871 h 2.838709 z m 0,2.83871 v 2.83871 h 2.838709 v -2.83871 z m 0,2.83871 h -2.838709 v 2.83871 h 2.838709 z m 0,2.83871 v 2.71812 0.12059 h 0.709676 c 1.17948,0 2.129033,-0.94954 2.129033,-2.12903 v -0.70967 h -0.120594 z m -2.838709,0 h -2.8387113 v 2.83871 h 2.8387113 z m -2.8387113,0 v -2.83871 h -2.838709 v 2.83871 z m -2.838709,0 h -2.838709 v 2.83871 h 2.838709 z m -2.838709,0 v -2.83871 h -2.838712 v 2.83871 z m -2.838712,0 h -2.838708 v 2.83871 h 2.838708 z m -2.838708,0 v -2.83871 h -2.838709 v 2.83871 z m -2.838709,0 h -2.838712 v 2.83871 h 2.838712 z m -2.838712,0 v -2.83871 h -2.838709 v 2.83871 z m -2.838709,0 h -2.838708 v 2.83871 h 2.838708 z m -2.838708,0 v -2.83871 h -2.838712 v 2.83871 z m -2.838712,0 h -2.718118 -0.120593 v 0.70968 c 0,1.17948 0.949552,2.12903 2.129032,2.12903 h 0.709676 v -0.12059 z m 0,-2.83871 v -2.83871 h -2.838709 v 2.83871 z m 0,-2.83871 h 2.838712 v -2.83871 h -2.838712 z m 0,-2.83871 v -2.83871 h -2.838709 v 2.83871 z m 0,-2.83871 h 2.838712 v -2.83871 h -2.838712 z m 0,-2.83871 v -2.83871 h -2.838709 v 2.83871 z m 0,-2.83871 h 2.838712 v -2.83871 h -2.838712 z m 0,-2.83871 v -2.83871 h -2.838709 v 2.83871 z m 0,-2.83871 h 2.838712 v -2.83871 h -2.838712 z m 0,-2.83871 v -2.83871 h -2.838709 v 2.83871 z m 0,-2.83871 h 2.838712 v -2.83871 h -2.838712 z m 0,-2.83871 v -2.83871 h -2.838709 v 2.83871 z m 2.838712,0 h 2.838708 v -2.83871 h -2.838708 z m 2.838708,0 v 2.83871 h 2.838709 v -2.83871 z m 2.838709,0 h 2.838712 v -2.83871 h -2.838712 z m 2.838712,0 v 2.83871 h 2.838709 v -2.83871 z m 2.838709,0 h 2.838708 v -2.83871 h -2.838708 z m 2.838708,0 v 2.83871 h 2.838712 v -2.83871 z m 2.838712,0 h 2.838709 v -2.83871 h -2.838709 z m 2.838709,0 v 2.83871 h 2.838709 v -2.83871 z m 2.838709,0 h 2.8387113 v -2.83871 h -2.8387113 z m 0,2.83871 v 2.83871 h 2.8387113 v -2.83871 z m 0,2.83871 h -2.838709 v 2.83871 h 2.838709 z m 0,2.83871 v 2.83871 h 2.8387113 v -2.83871 z m 0,2.83871 h -2.838709 v 2.83871 h 2.838709 z m 0,2.83871 v 2.83871 h 2.8387113 v -2.83871 z m 0,2.83871 h -2.838709 v 2.83871 h 2.838709 z m 0,2.83871 v 2.83871 h 2.8387113 v -2.83871 z m 0,2.83871 h -2.838709 v 2.83871 h 2.838709 z m 0,2.83871 v 2.83871 h 2.8387113 v -2.83871 z m -2.838709,0 h -2.838709 v 2.83871 h 2.838709 z m -2.838709,0 v -2.83871 h -2.838712 v 2.83871 z m -2.838712,0 h -2.838708 v 2.83871 h 2.838708 z m -2.838708,0 v -2.83871 h -2.838709 v 2.83871 z m -2.838709,0 h -2.838712 v 2.83871 h 2.838712 z m -2.838712,0 v -2.83871 h -2.838709 v 2.83871 z m -2.838709,0 h -2.838708 v 2.83871 h 2.838708 z m 0,-2.83871 v -2.83871 h -2.838708 v 2.83871 z m 0,-2.83871 h 2.838709 v -2.83871 h -2.838709 z m 0,-2.83871 v -2.83871 h -2.838708 v 2.83871 z m 0,-2.83871 h 2.838709 v -2.83871 h -2.838709 z m 0,-2.83871 v -2.83871 h -2.838708 v 2.83871 z m 0,-2.83871 h 2.838709 v -2.83871 h -2.838709 z m 0,-2.83871 v -2.83871 h -2.838708 v 2.83871 z m 2.838709,0 h 2.838712 v -2.83871 h -2.838712 z m 2.838712,0 v 2.83871 h 2.838709 v -2.83871 z m 2.838709,0 h 2.838708 v -2.83871 h -2.838708 z m 2.838708,0 v 2.83871 h 2.838712 v -2.83871 z m 2.838712,0 h 2.838709 v -2.83871 h -2.838709 z m 0,2.83871 v 2.83871 h 2.838709 v -2.83871 z m 0,2.83871 h -2.838712 v 2.83871 h 2.838712 z m 0,2.83871 v 2.83871 h 2.838709 v -2.83871 z m 0,2.83871 h -2.838712 v 2.83871 h 2.838712 z m 0,2.83871 v 2.83871 h 2.838709 v -2.83871 z m -2.838712,0 h -2.838708 v 2.83871 h 2.838708 z m -2.838708,0 v -2.83871 h -2.838709 v 2.83871 z m -2.838709,0 h -2.838712 v 2.83871 h 2.838712 z m 0,-2.83871 v -2.83871 h -2.838712 v 2.83871 z m 0,-2.83871 h 2.838709 v -2.83871 h -2.838709 z m 0,-2.83871 v -2.83871 h -2.838712 v 2.83871 z m 2.838709,0 h 2.838708 v -2.83871 h -2.838708 z m 0,2.83871 v 2.83871 h 2.838708 v -2.83871 z" /></g></g></g></g><g
         transform="translate(-56.000003,-13.000006)"
         id="g2304-4-6"
         style="fill:#ffffff;fill-opacity:0.2"><g
           inkscape:label="Capa 1"
           id="layer1-8-8-1"
           transform="translate(158.99918,-10.000126)"
           style="fill:#ffffff;fill-opacity:0.2"><g
             id="g3770-7-8"
             transform="matrix(1.4090909,0,0,1.4090909,71.227272,-105.2659)"
             style="fill:#ffffff;fill-opacity:0.2"><g
               transform="translate(-52,-5)"
               inkscape:label="Capa 1"
               id="layer1-6-3-1-7"
               style="fill:#ffffff;fill-opacity:0.2" /><g
               style="fill:#ffffff;fill-opacity:0.2"
               inkscape:label="Capa 1"
               id="layer1-6-4-7-9"
               transform="translate(-52,-6)"><g
                 style="fill:#ffffff;fill-opacity:0.2"
                 id="g6249-7-2-2"
                 transform="translate(4,-10)" /></g><g
               transform="translate(-40.451708,0.70976455)"
               id="g3784-7-0"
               style="fill:#ffffff;fill-opacity:0.2" /></g></g></g></g><path
       id="rect1657-6"
       style="fill:#278c5a;fill-opacity:1;stroke:none;stroke-width:1.05833;stroke-linecap:round;stroke-linejoin:round;stop-color:#000000"
       d="m 7.1437498,285.35839 c -1.17263,0 -2.116666,0.94403 -2.116666,2.11666 0,1.17263 0.944036,2.11667 2.116666,2.11667 h 0.264584 2.116666 0.264584 c 0.02748,0 0.05438,10e-4 0.08113,0.004 0.02675,0.003 0.05318,0.007 0.07906,0.0119 0.02588,0.005 0.0516,0.0119 0.07648,0.0196 0.02488,0.008 0.04911,0.0163 0.07286,0.0263 0.02376,0.01 0.04675,0.0214 0.06925,0.0336 0.0225,0.0122 0.04452,0.0256 0.06563,0.0398 0.02111,0.0142 0.04139,0.0293 0.06098,0.0455 0.01959,0.0162 0.03839,0.0332 0.05633,0.0512 0.01793,0.0179 0.03501,0.0368 0.05116,0.0563 0.01615,0.0196 0.03124,0.0399 0.04548,0.061 0.01424,0.0211 0.0276,0.0431 0.03979,0.0656 0.01219,0.0225 0.02358,0.0455 0.03359,0.0693 0.01001,0.0238 0.01865,0.048 0.02636,0.0729 0.0077,0.0249 0.01437,0.0506 0.01964,0.0765 0.0053,0.0259 0.0092,0.0523 0.01188,0.0791 0.0027,0.0268 0.0041,0.0537 0.0041,0.0811 0,0.0275 -0.0014,0.0544 -0.0041,0.0811 -0.0027,0.0267 -0.0066,0.0532 -0.01188,0.0791 -0.0053,0.0259 -0.01193,0.0516 -0.01964,0.0765 -0.0077,0.0249 -0.01634,0.0491 -0.02636,0.0729 -0.01001,0.0238 -0.0214,0.0467 -0.03359,0.0693 -0.01219,0.0225 -0.02555,0.0445 -0.03979,0.0656 -0.01424,0.0211 -0.02932,0.0414 -0.04548,0.061 -0.01615,0.0196 -0.03323,0.0384 -0.05116,0.0563 -0.01793,0.0179 -0.03674,0.035 -0.05633,0.0512 -0.01959,0.0161 -0.03987,0.0312 -0.06098,0.0455 -0.02111,0.0142 -0.04313,0.0276 -0.06563,0.0398 -0.0225,0.0122 -0.04549,0.0236 -0.06925,0.0336 -0.02376,0.01 -0.04798,0.0187 -0.07286,0.0264 -0.02489,0.008 -0.0506,0.0144 -0.07648,0.0196 -0.02588,0.005 -0.05232,0.009 -0.07906,0.0119 -0.02675,0.003 -0.05365,0.004 -0.08113,0.004 h -0.661459 -0.661458 -0.5302 -0.110071 -2.137854 c -0.366448,0 -0.661458,0.29501 -0.661458,0.66146 0,0.36645 0.29501,0.66146 0.661458,0.66146 h 2.247925 1.853117 c 1.1726292,0 2.1166662,-0.94404 2.1166662,-2.11667 0,-1.17263 -0.944037,-2.11667 -2.1166662,-2.11667 h -0.264584 -0.418062 -1.698604 -0.264584 c -0.02748,0 -0.05438,-10e-4 -0.08113,-0.004 -0.02675,-0.003 -0.05318,-0.007 -0.07906,-0.0119 -0.02588,-0.005 -0.0516,-0.0119 -0.07648,-0.0196 -0.02488,-0.008 -0.04911,-0.0163 -0.07286,-0.0263 -0.02376,-0.01 -0.04675,-0.0214 -0.06925,-0.0336 -0.0225,-0.0122 -0.04452,-0.0256 -0.06563,-0.0398 -0.02111,-0.0142 -0.04139,-0.0293 -0.06098,-0.0455 -0.01959,-0.0162 -0.03839,-0.0332 -0.05633,-0.0512 -0.01793,-0.0179 -0.03501,-0.0367 -0.05116,-0.0563 -0.01615,-0.0196 -0.03124,-0.0399 -0.04547,-0.061 -0.01424,-0.0211 -0.0276,-0.0431 -0.03979,-0.0656 -0.01219,-0.0225 -0.02357,-0.0455 -0.03359,-0.0692 -0.01001,-0.0238 -0.01865,-0.048 -0.02635,-0.0729 -0.0077,-0.0249 -0.01437,-0.0506 -0.01964,-0.0765 -0.0053,-0.0259 -0.0092,-0.0523 -0.01188,-0.0791 -0.0027,-0.0267 -0.0041,-0.0536 -0.0041,-0.0811 0,-0.0275 0.0014,-0.0544 0.0041,-0.0811 0.0027,-0.0267 0.0066,-0.0532 0.01189,-0.0791 0.0053,-0.0259 0.01193,-0.0516 0.01964,-0.0765 0.0077,-0.0249 0.01634,-0.0491 0.02635,-0.0729 0.01001,-0.0238 0.0214,-0.0467 0.03359,-0.0692 0.01219,-0.0225 0.02555,-0.0445 0.03979,-0.0656 0.01424,-0.0211 0.02932,-0.0414 0.04547,-0.061 0.01615,-0.0196 0.03323,-0.0384 0.05116,-0.0563 0.01793,-0.0179 0.03674,-0.035 0.05633,-0.0512 0.01959,-0.0161 0.03987,-0.0312 0.06098,-0.0455 0.02111,-0.0142 0.04313,-0.0276 0.06563,-0.0398 0.0225,-0.0122 0.04549,-0.0236 0.06925,-0.0336 0.02376,-0.01 0.04798,-0.0187 0.07286,-0.0264 0.02488,-0.008 0.0506,-0.0144 0.07648,-0.0196 0.02588,-0.005 0.05232,-0.009 0.07906,-0.0119 0.02675,-0.003 0.05365,-0.004 0.08113,-0.004 h 0.661457 0.661458 0.5302 0.110071 1.8732712 c 0.366447,0 0.661458,-0.29501 0.661458,-0.66145 0,-0.36645 -0.295011,-0.66146 -0.661458,-0.66146 H 8.9968668 Z"
       sodipodi:nodetypes="sssccscssccccccccscssscccsccccccccsscsccccssscssscccscccccscscssssssssssssccscscccccsccccssscs" /><g
       id="g2934-7"
       transform="translate(10.93891,-3.1880891)"><g
         inkscape:label="Capa 1"
         id="layer1-6-0"
         transform="matrix(0.26458333,0,0,0.26458333,-10.93891,216.937)" /><g
         inkscape:label="Capa 1"
         id="layer1-6-9"
         transform="matrix(0.26458333,0,0,0.26458333,-8.8222434,215.08492)"><g
           id="g5422-2"
           transform="translate(-24,-4.000005)"><g
             transform="matrix(5.5433071,0,0,5.5433071,24.533333,-1328.2455)"
             id="layer1-3-2-9"
             inkscape:label="Capa 1" /></g><path
           id="rect1657"
           style="fill:#e3f7ec;fill-opacity:1;stroke:none;stroke-width:4;stroke-linecap:round;stroke-linejoin:round;stop-color:#000000"
           d="m 19,276.64999 c -4.431987,0 -8,3.56801 -8,8 0,4.43199 3.568013,8 8,8 h 1 8 1 c 0.103875,0 0.205545,0.005 0.306641,0.0156 0.101096,0.0102 0.201006,0.025 0.298828,0.0449 0.09782,0.0199 0.195009,0.0451 0.289062,0.0742 0.09405,0.0291 0.185602,0.0618 0.275391,0.0996 0.08979,0.0379 0.176689,0.0809 0.261719,0.12695 0.08503,0.0461 0.168271,0.0966 0.248047,0.15039 0.07977,0.0538 0.156442,0.11083 0.230468,0.17187 0.07403,0.0611 0.14511,0.12558 0.212891,0.19336 0.06778,0.0678 0.132318,0.13887 0.193359,0.21289 0.06104,0.074 0.118069,0.1507 0.171875,0.23047 0.05381,0.0798 0.104314,0.16302 0.150391,0.24805 0.04608,0.085 0.0891,0.17193 0.126953,0.26172 0.03785,0.0898 0.07048,0.18134 0.09961,0.27539 0.02913,0.094 0.0543,0.19124 0.07422,0.28906 0.01992,0.0978 0.03472,0.19773 0.04492,0.29883 0.01021,0.10117 0.01563,0.20277 0.01563,0.30664 0,0.10387 -0.0054,0.20554 -0.01563,0.30664 -0.01021,0.1011 -0.02501,0.20101 -0.04492,0.29883 -0.01992,0.0978 -0.04509,0.19501 -0.07422,0.28906 -0.02913,0.0941 -0.06176,0.1856 -0.09961,0.27539 -0.03785,0.0898 -0.08088,0.17669 -0.126953,0.26172 -0.04608,0.085 -0.09658,0.16827 -0.150391,0.24805 -0.05381,0.0798 -0.110833,0.15644 -0.171875,0.23047 -0.06104,0.074 -0.125578,0.14511 -0.193359,0.21289 -0.06778,0.0678 -0.138865,0.13231 -0.212891,0.19336 -0.07403,0.061 -0.150695,0.11806 -0.230468,0.17187 -0.07978,0.0538 -0.163018,0.10432 -0.248047,0.15039 -0.08503,0.0461 -0.17193,0.0891 -0.261719,0.12696 -0.08979,0.0379 -0.181338,0.0705 -0.275391,0.0996 -0.09405,0.0291 -0.19124,0.0543 -0.289062,0.0742 -0.09782,0.0199 -0.197732,0.0347 -0.298828,0.0449 -0.101096,0.0102 -0.202766,0.0156 -0.306641,0.0156 H 26.5 24 21.996094 21.580078 13.5 c -1.384999,0 -2.5,1.115 -2.5,2.5 0,1.385 1.115001,2.5 2.5,2.5 H 21.996094 29 c 4.431987,0 8,-3.56801 8,-8 0,-4.43199 -3.568013,-8 -8,-8 H 28 26.419922 20 19 c -0.103875,0 -0.205545,-0.005 -0.306641,-0.0156 -0.101096,-0.0102 -0.201006,-0.025 -0.298828,-0.0449 -0.09782,-0.0199 -0.195009,-0.0451 -0.289062,-0.0742 -0.09405,-0.0291 -0.185602,-0.0618 -0.275391,-0.0996 -0.08979,-0.0379 -0.176689,-0.0809 -0.261719,-0.12696 -0.08503,-0.0461 -0.168271,-0.0966 -0.248047,-0.15039 -0.07977,-0.0538 -0.156442,-0.11083 -0.230468,-0.17187 -0.07403,-0.0611 -0.14511,-0.12558 -0.212891,-0.19336 -0.06778,-0.0678 -0.132318,-0.13887 -0.193359,-0.21289 -0.06104,-0.074 -0.118069,-0.1507 -0.171875,-0.23047 -0.05381,-0.0798 -0.104314,-0.16302 -0.150391,-0.24805 -0.04608,-0.085 -0.0891,-0.17193 -0.126953,-0.26172 -0.03785,-0.0898 -0.07048,-0.18134 -0.09961,-0.27539 -0.02913,-0.094 -0.0543,-0.19124 -0.07422,-0.28906 -0.01992,-0.0978 -0.03472,-0.19773 -0.04492,-0.29883 C 16.005419,284.85553 16,284.75386 16,284.64999 c 0,-0.10387 0.0054,-0.20554 0.01563,-0.30664 0.01021,-0.1011 0.02501,-0.20101 0.04492,-0.29883 0.01992,-0.0978 0.04509,-0.19501 0.07422,-0.28906 0.02913,-0.0941 0.06176,-0.1856 0.09961,-0.27539 0.03785,-0.0898 0.08088,-0.17669 0.126953,-0.26172 0.04608,-0.085 0.09658,-0.16827 0.150391,-0.24805 0.05381,-0.0798 0.110833,-0.15644 0.171875,-0.23047 0.06104,-0.074 0.125578,-0.14511 0.193359,-0.21289 0.06778,-0.0678 0.138865,-0.13231 0.212891,-0.19336 0.07403,-0.061 0.150695,-0.11806 0.230468,-0.17187 0.07978,-0.0538 0.163018,-0.10432 0.248047,-0.15039 0.08503,-0.0461 0.17193,-0.0891 0.261719,-0.12695 0.08979,-0.0379 0.181338,-0.0705 0.275391,-0.0996 0.09405,-0.0291 0.19124,-0.0543 0.289062,-0.0742 0.09782,-0.0199 0.197732,-0.0347 0.298828,-0.0449 0.101096,-0.0102 0.202766,-0.0156 0.306641,-0.0156 H 21.5 24 26.003906 26.419922 33.5 c 1.384999,0 2.5,-1.115 2.5,-2.5 0,-1.385 -1.115001,-2.5 -2.5,-2.5 h -7.496094 z"
           sodipodi:nodetypes="sssccscssccccccccscssscccsccccccccsscsccccssscssscccscccccscscssssssssssssccscscccccsccccssscs" /></g></g></g></svg>
