<?xml version="1.0" encoding="UTF-8" standalone="no"?>
<!-- Created with Inkscape (http://www.inkscape.org/) -->

<svg
   width="64"
   height="64"
   viewBox="0 0 64 64"
   version="1.1"
   id="svg8"
   inkscape:version="1.3.2 (091e20ef0f, 2023-11-25, custom)"
   sodipodi:docname="application-x-smb-workgroup.svg"
   xml:space="preserve"
   xmlns:inkscape="http://www.inkscape.org/namespaces/inkscape"
   xmlns:sodipodi="http://sodipodi.sourceforge.net/DTD/sodipodi-0.dtd"
   xmlns:xlink="http://www.w3.org/1999/xlink"
   xmlns="http://www.w3.org/2000/svg"
   xmlns:svg="http://www.w3.org/2000/svg"
   xmlns:rdf="http://www.w3.org/1999/02/22-rdf-syntax-ns#"
   xmlns:cc="http://creativecommons.org/ns#"
   xmlns:dc="http://purl.org/dc/elements/1.1/"><title
     id="title7895">Antu icon Theme</title><defs
     id="defs2"><linearGradient
       id="linearGradient7"
       inkscape:collect="always"><stop
         style="stop-color:#77de22;stop-opacity:1;"
         offset="0"
         id="stop7" /><stop
         style="stop-color:#96e71f;stop-opacity:1;"
         offset="1"
         id="stop8" /></linearGradient><linearGradient
       id="linearGradient5"
       inkscape:collect="always"><stop
         style="stop-color:#ffcd00;stop-opacity:1;"
         offset="0"
         id="stop5" /><stop
         style="stop-color:#fdcc00;stop-opacity:1;"
         offset="1"
         id="stop6" /></linearGradient><linearGradient
       id="linearGradient3"
       inkscape:collect="always"><stop
         style="stop-color:#0f95f6;stop-opacity:1;"
         offset="0"
         id="stop3" /><stop
         style="stop-color:#05acfc;stop-opacity:1;"
         offset="1"
         id="stop4" /></linearGradient><linearGradient
       id="linearGradient1"
       inkscape:collect="always"><stop
         style="stop-color:#f9403a;stop-opacity:1;"
         offset="0"
         id="stop1" /><stop
         style="stop-color:#e94335;stop-opacity:1;"
         offset="1"
         id="stop2" /></linearGradient><linearGradient
       gradientTransform="translate(-54,2)"
       inkscape:collect="always"
       xlink:href="#linearGradient4656"
       id="linearGradient1149"
       x1="86"
       y1="308.64999"
       x2="86"
       y2="252.64999"
       gradientUnits="userSpaceOnUse" /><linearGradient
       inkscape:collect="always"
       id="linearGradient4656"><stop
         style="stop-color:#e4efef;stop-opacity:1;"
         offset="0"
         id="stop4652" /><stop
         style="stop-color:#fcfcfc;stop-opacity:1;"
         offset="1"
         id="stop4654" /></linearGradient><style
       id="current-color-scheme"
       type="text/css">
      .ColorScheme-Text {
        color:#122036;
      }
      </style><style
       type="text/css"
       id="current-color-scheme-5">
      .ColorScheme-Text {
        color:#122036;
      }
      </style><style
       type="text/css"
       id="current-color-scheme-2">
      .ColorScheme-Text {
        color:#122036;
      }
      </style><style
       type="text/css"
       id="current-color-scheme-1">
      .ColorScheme-Text {
        color:#122036;
      }
      </style><style
       id="current-color-scheme-10"
       type="text/css">
      .ColorScheme-Text {
        color:#122036;
      }
      </style><style
       type="text/css"
       id="current-color-scheme-0">
      .ColorScheme-Text {
        color:#122036;
      }
      </style><style
       type="text/css"
       id="current-color-scheme-26">
      .ColorScheme-Text {
        color:#122036;
      }
      </style><style
       id="current-color-scheme-27"
       type="text/css">
      .ColorScheme-Text {
        color:#122036;
      }
      </style><style
       id="current-color-scheme-7"
       type="text/css">
      .ColorScheme-Text {
        color:#122036;
      }
      </style><style
       id="current-color-scheme-5-09"
       type="text/css">
      .ColorScheme-Text {
        color:#122036;
      }
      </style><style
       id="current-color-scheme-0-3"
       type="text/css">
      .ColorScheme-Text {
        color:#122036;
      }
      </style><style
       id="current-color-scheme-7-9"
       type="text/css">
      .ColorScheme-Text {
        color:#122036;
      }
      </style><style
       id="current-color-scheme-5-3"
       type="text/css">
      .ColorScheme-Text {
        color:#122036;
      }
      </style><style
       id="current-color-scheme-79"
       type="text/css">
      .ColorScheme-Text {
        color:#122036;
      }
      </style><style
       id="current-color-scheme-7-2"
       type="text/css">
      .ColorScheme-Text {
        color:#122036;
      }
      </style><style
       id="current-color-scheme-5-0"
       type="text/css">
      .ColorScheme-Text {
        color:#122036;
      }
      </style><style
       type="text/css"
       id="current-color-scheme-6">
      .ColorScheme-Text {
        color:#122036;
      }
      </style><style
       id="current-color-scheme-5-2"
       type="text/css">
      .ColorScheme-Text {
        color:#122036;
      }
      </style><style
       id="current-color-scheme-2-1"
       type="text/css">
      .ColorScheme-Text {
        color:#122036;
      }
      </style><style
       id="current-color-scheme-1-7"
       type="text/css">
      .ColorScheme-Text {
        color:#122036;
      }
      </style><style
       type="text/css"
       id="current-color-scheme-10-8">
      .ColorScheme-Text {
        color:#122036;
      }
      </style><style
       id="current-color-scheme-0-5"
       type="text/css">
      .ColorScheme-Text {
        color:#122036;
      }
      </style><style
       id="current-color-scheme-26-7"
       type="text/css">
      .ColorScheme-Text {
        color:#122036;
      }
      </style><style
       type="text/css"
       id="current-color-scheme-27-4">
      .ColorScheme-Text {
        color:#122036;
      }
      </style><style
       type="text/css"
       id="current-color-scheme-7-1">
      .ColorScheme-Text {
        color:#122036;
      }
      </style><style
       type="text/css"
       id="current-color-scheme-5-09-8">
      .ColorScheme-Text {
        color:#122036;
      }
      </style><style
       type="text/css"
       id="current-color-scheme-0-3-5">
      .ColorScheme-Text {
        color:#122036;
      }
      </style><style
       type="text/css"
       id="current-color-scheme-7-9-9">
      .ColorScheme-Text {
        color:#122036;
      }
      </style><style
       type="text/css"
       id="current-color-scheme-5-3-7">
      .ColorScheme-Text {
        color:#122036;
      }
      </style><style
       type="text/css"
       id="current-color-scheme-79-5">
      .ColorScheme-Text {
        color:#122036;
      }
      </style><style
       type="text/css"
       id="current-color-scheme-7-2-3">
      .ColorScheme-Text {
        color:#122036;
      }
      </style><style
       type="text/css"
       id="current-color-scheme-5-0-8">
      .ColorScheme-Text {
        color:#122036;
      }
      </style><style
       id="current-color-scheme-3"
       type="text/css">
      .ColorScheme-Text {
        color:#122036;
      }
      </style><style
       id="current-color-scheme-2-8"
       type="text/css">
      .ColorScheme-Text {
        color:#122036;
      }
      </style><style
       id="current-color-scheme-0-60"
       type="text/css">
      .ColorScheme-Text {
        color:#122036;
      }
      </style><style
       id="current-color-scheme-6-4"
       type="text/css">
      .ColorScheme-Text {
        color:#122036;
      }
      </style><style
       id="current-color-scheme-2-29"
       type="text/css">
      .ColorScheme-Text {
        color:#122036;
      }
      </style><style
       id="current-color-scheme-0-1"
       type="text/css">
      .ColorScheme-Text {
        color:#122036;
      }
      </style><style
       type="text/css"
       id="current-color-scheme-53">
      .ColorScheme-Text {
        color:#122036;
      }
      </style><style
       id="current-color-scheme-5-88"
       type="text/css">
      .ColorScheme-Text {
        color:#122036;
      }
      </style><style
       id="current-color-scheme-2-5"
       type="text/css">
      .ColorScheme-Text {
        color:#122036;
      }
      </style><style
       id="current-color-scheme-1-8"
       type="text/css">
      .ColorScheme-Text {
        color:#122036;
      }
      </style><style
       type="text/css"
       id="current-color-scheme-10-9">
      .ColorScheme-Text {
        color:#122036;
      }
      </style><style
       id="current-color-scheme-0-6"
       type="text/css">
      .ColorScheme-Text {
        color:#122036;
      }
      </style><style
       id="current-color-scheme-26-77"
       type="text/css">
      .ColorScheme-Text {
        color:#122036;
      }
      </style><style
       type="text/css"
       id="current-color-scheme-27-6">
      .ColorScheme-Text {
        color:#122036;
      }
      </style><style
       type="text/css"
       id="current-color-scheme-7-4">
      .ColorScheme-Text {
        color:#122036;
      }
      </style><style
       type="text/css"
       id="current-color-scheme-5-09-3">
      .ColorScheme-Text {
        color:#122036;
      }
      </style><style
       type="text/css"
       id="current-color-scheme-0-3-0">
      .ColorScheme-Text {
        color:#122036;
      }
      </style><style
       type="text/css"
       id="current-color-scheme-7-9-3">
      .ColorScheme-Text {
        color:#122036;
      }
      </style><style
       type="text/css"
       id="current-color-scheme-5-3-0">
      .ColorScheme-Text {
        color:#122036;
      }
      </style><style
       type="text/css"
       id="current-color-scheme-79-9">
      .ColorScheme-Text {
        color:#122036;
      }
      </style><style
       type="text/css"
       id="current-color-scheme-7-2-2">
      .ColorScheme-Text {
        color:#122036;
      }
      </style><style
       type="text/css"
       id="current-color-scheme-5-0-5">
      .ColorScheme-Text {
        color:#122036;
      }
      </style><style
       id="current-color-scheme-06"
       type="text/css">
      .ColorScheme-Text {
        color:#122036;
      }
      </style><style
       id="current-color-scheme-2-2"
       type="text/css">
      .ColorScheme-Text {
        color:#122036;
      }
      </style><style
       id="current-color-scheme-0-61"
       type="text/css">
      .ColorScheme-Text {
        color:#122036;
      }
      </style><style
       id="current-color-scheme-5-8"
       type="text/css">
      .ColorScheme-Text {
        color:#122036;
      }
      </style><style
       id="current-color-scheme-24"
       type="text/css">
      .ColorScheme-Text {
        color:#122036;
      }
      </style><style
       id="current-color-scheme-2-7"
       type="text/css">
      .ColorScheme-Text {
        color:#122036;
      }
      </style><style
       id="current-color-scheme-0-7"
       type="text/css">
      .ColorScheme-Text {
        color:#122036;
      }
      </style><style
       id="current-color-scheme-5-5"
       type="text/css">
      .ColorScheme-Text {
        color:#122036;
      }
      </style><linearGradient
       inkscape:collect="always"
       xlink:href="#linearGradient1"
       id="linearGradient2"
       x1="-1.8228722"
       y1="295.92142"
       x2="-1.8228722"
       y2="294.59848"
       gradientUnits="userSpaceOnUse"
       gradientTransform="translate(-1.4885892e-8,-0.52913776)" /><linearGradient
       inkscape:collect="always"
       xlink:href="#linearGradient3"
       id="linearGradient4"
       x1="-0.49995559"
       y1="297.7735"
       x2="-0.49995559"
       y2="296.45059"
       gradientUnits="userSpaceOnUse"
       gradientTransform="translate(-1.4885892e-8,-0.52913776)" /><linearGradient
       inkscape:collect="always"
       xlink:href="#linearGradient5"
       id="linearGradient6"
       x1="0.029211091"
       y1="297.7735"
       x2="0.054200031"
       y2="296.59753"
       gradientUnits="userSpaceOnUse"
       gradientTransform="translate(-1.4885892e-8,-0.52913776)" /><linearGradient
       inkscape:collect="always"
       xlink:href="#linearGradient7"
       id="linearGradient8"
       x1="0.029210528"
       y1="295.92142"
       x2="0.029211091"
       y2="294.59848"
       gradientUnits="userSpaceOnUse"
       gradientTransform="translate(-1.4885892e-8,-0.52913776)" /><style
       type="text/css"
       id="current-color-scheme-36">
      .ColorScheme-Text {
        color:#122036;
      }
      </style><style
       type="text/css"
       id="current-color-scheme-2-75">
      .ColorScheme-Text {
        color:#122036;
      }
      </style><style
       type="text/css"
       id="current-color-scheme-0-35">
      .ColorScheme-Text {
        color:#122036;
      }
      </style><style
       id="current-color-scheme-5-6"
       type="text/css">
      .ColorScheme-Text {
        color:#122036;
      }
      </style><style
       id="current-color-scheme-2-3"
       type="text/css">
      .ColorScheme-Text {
        color:#122036;
      }
      </style><style
       id="current-color-scheme-0-5-2"
       type="text/css">
      .ColorScheme-Text {
        color:#122036;
      }
      </style><style
       id="current-color-scheme-3-9"
       type="text/css">
      .ColorScheme-Text {
        color:#122036;
      }
      </style><style
       id="current-color-scheme-2-6"
       type="text/css">
      .ColorScheme-Text {
        color:#122036;
      }
      </style><style
       id="current-color-scheme-0-7-1"
       type="text/css">
      .ColorScheme-Text {
        color:#122036;
      }
      </style><style
       id="current-color-scheme-5-5-2"
       type="text/css">
      .ColorScheme-Text {
        color:#122036;
      }
      </style><style
       type="text/css"
       id="current-color-scheme-62">
      .ColorScheme-Text {
        color:#122036;
      }
      </style><style
       type="text/css"
       id="current-color-scheme-2-61">
      .ColorScheme-Text {
        color:#122036;
      }
      </style><style
       type="text/css"
       id="current-color-scheme-0-8">
      .ColorScheme-Text {
        color:#122036;
      }
      </style><style
       id="current-color-scheme-5-7"
       type="text/css">
      .ColorScheme-Text {
        color:#122036;
      }
      </style><style
       id="current-color-scheme-2-3-9"
       type="text/css">
      .ColorScheme-Text {
        color:#122036;
      }
      </style><style
       id="current-color-scheme-0-5-20"
       type="text/css">
      .ColorScheme-Text {
        color:#122036;
      }
      </style><style
       id="current-color-scheme-3-2"
       type="text/css">
      .ColorScheme-Text {
        color:#122036;
      }
      </style><style
       id="current-color-scheme-2-6-3"
       type="text/css">
      .ColorScheme-Text {
        color:#122036;
      }
      </style><style
       id="current-color-scheme-0-7-7"
       type="text/css">
      .ColorScheme-Text {
        color:#122036;
      }
      </style><style
       id="current-color-scheme-5-5-5"
       type="text/css">
      .ColorScheme-Text {
        color:#122036;
      }
      </style><style
       id="current-color-scheme-4"
       type="text/css">
      .ColorScheme-Text {
        color:#122036;
      }
      </style><style
       id="current-color-scheme-2-50"
       type="text/css">
      .ColorScheme-Text {
        color:#122036;
      }
      </style><style
       id="current-color-scheme-0-36"
       type="text/css">
      .ColorScheme-Text {
        color:#122036;
      }
      </style><style
       id="current-color-scheme-5-1"
       type="text/css">
      .ColorScheme-Text {
        color:#122036;
      }
      </style></defs><sodipodi:namedview
     id="base"
     pagecolor="#ffffff"
     bordercolor="#666666"
     borderopacity="1.0"
     inkscape:pageopacity="0.0"
     inkscape:pageshadow="2"
     inkscape:zoom="16"
     inkscape:cx="42.84375"
     inkscape:cy="35.6875"
     inkscape:document-units="px"
     inkscape:current-layer="g1779"
     showgrid="false"
     units="px"
     inkscape:window-width="2560"
     inkscape:window-height="1356"
     inkscape:window-x="0"
     inkscape:window-y="0"
     inkscape:window-maximized="1"
     objecttolerance="10"
     gridtolerance="10"
     guidetolerance="10"
     inkscape:snap-bbox="true"
     inkscape:bbox-paths="true"
     inkscape:bbox-nodes="true"
     inkscape:snap-bbox-edge-midpoints="true"
     inkscape:snap-bbox-midpoints="true"
     inkscape:object-paths="true"
     inkscape:snap-intersection-paths="true"
     inkscape:showpageshadow="false"
     inkscape:pagecheckerboard="0"
     inkscape:deskcolor="#d1d1d1"><inkscape:grid
       type="xygrid"
       id="grid7897"
       empspacing="4"
       originx="0"
       originy="0"
       spacingy="1"
       spacingx="1"
       units="px"
       visible="false" /></sodipodi:namedview><metadata
     id="metadata5"><rdf:RDF><cc:Work
         rdf:about=""><dc:format>image/svg+xml</dc:format><dc:type
           rdf:resource="http://purl.org/dc/dcmitype/StillImage" /><dc:title>Antu icon Theme</dc:title></cc:Work></rdf:RDF></metadata><g
     inkscape:label="Capa 1"
     inkscape:groupmode="layer"
     id="layer1"
     transform="translate(0,-250.64999)"><path
       id="rect971"
       d="m 9,251.64999 h 46 c 2.216,0 4,1.784 4,4 v 54 c 0,2.216 -1.784,4 -4,4 H 9 c -2.216,0 -4,-1.784 -4,-4 v -54 c 0,-2.216 1.784,-4 4,-4 z"
       style="vector-effect:none;fill:#90a4ae;fill-opacity:1;stroke:none;stroke-width:2;stroke-linecap:round;stroke-linejoin:round;stroke-miterlimit:4;stroke-dasharray:none;stroke-dashoffset:0;stroke-opacity:1"
       inkscape:connector-curvature="0"
       sodipodi:nodetypes="sssssssss" /><path
       id="rect971-2"
       d="m 9,252.64999 h 46 c 1.662,0 3,1.338 3,3 v 54 c 0,1.662 -1.338,3 -3,3 H 9 c -1.662,0 -3,-1.338 -3,-3 v -54 c 0,-1.662 1.338,-3 3,-3 z"
       style="vector-effect:none;fill:url(#linearGradient1149);fill-opacity:1;stroke:none;stroke-width:2;stroke-linecap:round;stroke-linejoin:round;stroke-miterlimit:4;stroke-dasharray:none;stroke-dashoffset:0;stroke-opacity:1"
       inkscape:connector-curvature="0"
       sodipodi:nodetypes="sssssssss" /><g
       inkscape:label="Capa 1"
       id="layer1-6"
       style="fill:#d8e0e8;fill-opacity:1"><path
         id="rect5971-3"
         style="fill:#d0dcdf;fill-opacity:1;stroke-width:1.6;stroke-linecap:round;stroke-linejoin:round;stroke-miterlimit:1.8;paint-order:stroke fill markers;stop-color:#000000"
         d="m 9,252.64999 c -1.6619943,0 -3,1.338 -3,3 v 1 H 6.1699219 10 v -3.83008 -0.16992 z m 1,4 v 4 h 4 v -4 z m 4,0 h 4 v -4 h -4 z m 4,0 v 4 h 4 v -4 z m 4,0 h 4 v -4 h -4 z m 4,0 v 4 h 4 v -4 z m 4,0 h 4 v -4 h -4 z m 4,0 v 4 h 4 v -4 z m 4,0 h 4 v -4 h -4 z m 4,0 v 4 h 4 v -4 z m 4,0 h 4 v -4 h -4 z m 4,0 v 4 h 4 v -4 z m 4,0 H 57.830078 58 v -1 c 0,-1.662 -1.338006,-3 -3,-3 h -1 v 0.16992 z m 0,4 v 4 h 4 v -4 z m 0,4 h -4 v 4 h 4 z m 0,4 v 4 h 4 v -4 z m 0,4 h -4 v 4 h 4 z m 0,4 v 4 h 4 v -4 z m 0,4 h -4 v 4 h 4 z m 0,4 v 4 h 4 v -4 z m 0,4 h -4 v 4 h 4 z m 0,4 v 4 h 4 v -4 z m 0,4 h -4 v 4 h 4 z m 0,4 v 4 h 4 v -4 z m 0,4 h -4 v 4 h 4 z m 0,4 v 3.83008 0.16992 h 1 c 1.661994,0 3,-1.338 3,-3 v -1 h -0.169922 z m -4,0 h -4 v 4 h 4 z m -4,0 v -4 h -4 v 4 z m -4,0 h -4 v 4 h 4 z m -4,0 v -4 h -4 v 4 z m -4,0 h -4 v 4 h 4 z m -4,0 v -4 h -4 v 4 z m -4,0 h -4 v 4 h 4 z m -4,0 v -4 h -4 v 4 z m -4,0 h -4 v 4 h 4 z m -4,0 v -4 h -4 v 4 z m -4,0 H 6.1699219 6 v 1 c 0,1.662 1.3380057,3 3,3 h 1 v -0.16992 z m 0,-4 v -4 H 6 v 4 z m 0,-4 h 4 v -4 h -4 z m 0,-4 v -4 H 6 v 4 z m 0,-4 h 4 v -4 h -4 z m 0,-4 v -4 H 6 v 4 z m 0,-4 h 4 v -4 h -4 z m 0,-4 v -4 H 6 v 4 z m 0,-4 h 4 v -4 h -4 z m 0,-4 v -4 H 6 v 4 z m 0,-4 h 4 v -4 h -4 z m 0,-4 v -4 H 6 v 4 z m 4,0 h 4 v -4 h -4 z m 4,0 v 4 h 4 v -4 z m 4,0 h 4 v -4 h -4 z m 4,0 v 4 h 4 v -4 z m 4,0 h 4 v -4 h -4 z m 4,0 v 4 h 4 v -4 z m 4,0 h 4 v -4 h -4 z m 4,0 v 4 h 4 v -4 z m 4,0 h 4 v -4 h -4 z m 0,4 v 4 h 4 v -4 z m 0,4 h -4 v 4 h 4 z m 0,4 v 4 h 4 v -4 z m 0,4 h -4 v 4 h 4 z m 0,4 v 4 h 4 v -4 z m 0,4 h -4 v 4 h 4 z m 0,4 v 4 h 4 v -4 z m 0,4 h -4 v 4 h 4 z m 0,4 v 4 h 4 v -4 z m -4,0 h -4 v 4 h 4 z m -4,0 v -4 h -4 v 4 z m -4,0 h -4 v 4 h 4 z m -4,0 v -4 h -4 v 4 z m -4,0 h -4 v 4 h 4 z m -4,0 v -4 h -4 v 4 z m -4,0 h -4 v 4 h 4 z m 0,-4 v -4 h -4 v 4 z m 0,-4 h 4 v -4 h -4 z m 0,-4 v -4 h -4 v 4 z m 0,-4 h 4 v -4 h -4 z m 0,-4 v -4 h -4 v 4 z m 0,-4 h 4 v -4 h -4 z m 0,-4 v -4 h -4 v 4 z m 4,0 h 4 v -4 h -4 z m 4,0 v 4 h 4 v -4 z m 4,0 h 4 v -4 h -4 z m 4,0 v 4 h 4 v -4 z m 4,0 h 4 v -4 h -4 z m 0,4 v 4 h 4 v -4 z m 0,4 h -4 v 4 h 4 z m 0,4 v 4 h 4 v -4 z m 0,4 h -4 v 4 h 4 z m 0,4 v 4 h 4 v -4 z m -4,0 h -4 v 4 h 4 z m -4,0 v -4 h -4 v 4 z m -4,0 h -4 v 4 h 4 z m 0,-4 v -4 h -4 v 4 z m 0,-4 h 4 v -4 h -4 z m 0,-4 v -4 h -4 v 4 z m 4,0 h 4 v -4 h -4 z m 0,4 v 4 h 4 v -4 z" /><g
         transform="translate(16,-16.000032)"
         id="layer1-9-2"
         inkscape:label="Capa 1"
         style="fill:#d8e0e8;fill-opacity:1"><g
           transform="translate(17,-4)"
           id="g1698-7"
           style="fill:#d8e0e8;fill-opacity:1" /></g></g><g
       id="g1779"
       transform="matrix(3.7795276,0,0,3.7795276,45.889598,-819.79314)"><g
         inkscape:label="Capa 1"
         id="layer1-0-2"
         transform="translate(-12.141623,3.4192728)"
         style="fill:#ffffff;fill-opacity:1"><g
           transform="matrix(0.26458333,0,0,0.26458333,-6.0000001e-8,213.74891)"
           id="layer1-6-9-9"
           inkscape:label="Capa 1"
           style="fill:#ffffff;fill-opacity:1"><g
             transform="translate(38,-6)"
             id="g1769-3"
             style="fill:#ffffff;fill-opacity:1" /></g><g
           id="g2206-1"
           transform="matrix(0.26458333,0,0,0.26458333,9.260416,206.60516)"
           style="fill:#ffffff;fill-opacity:1"><path
             id="rect843-9"
             style="opacity:1;fill:#a8bbbf;fill-opacity:1;stroke:none;stroke-width:2.39314;stroke-linecap:round;stroke-linejoin:round;stroke-miterlimit:4;stroke-dasharray:none;stroke-opacity:1"
             d="m -15.999998,294.64999 c -1.107997,0 -2,0.892 -2,2 v 26 c 0,1.108 0.892003,2 2,2 h 26 c 1.107998,0 2,-0.892 2,-2 v -26 c 0,-1.108 -0.892002,-2 -2,-2 z m 4,6 H 6.0000017 c 0.5539988,0 1,0.446 1,1 v 2 c 0.5539988,0 1,0.446 1,1 v 1 c 0,0.554 -0.4460012,1 -1,1 v 3 c 0.5539988,0 1,0.446 1,1 v 1 c 0,0.554 -0.4460012,1 -1,1 v 4 c 0,0.554 -0.4460012,1 -1,1 h -4 v 1 c 0,0.554 -0.446003,1 -1,1 h -1.99999998 c 0,0.554 -0.44600102,1 -1.00000002,1 h -2 c -0.5539988,0 -1,-0.446 -1,-1 h -1.9999999 c -0.553997,0 -1,-0.446 -1,-1 v -1 h -3.9999998 c -0.554,0 -1,-0.446 -1,-1 v -4 c -0.554,0 -1,-0.446 -1,-1 v -1 c 0,-0.554 0.446,-1 1,-1 v -3 c -0.554,0 -1,-0.446 -1,-1 v -1 c 0,-0.554 0.446,-1 1,-1 v -2 c 0,-0.554 0.446,-1 1,-1 z m 2.9999998,3 c -0.5539995,0 -1,0.446 -1,1 v 5 c 0,0.554 0.4460005,1 1,1 0.5539994,0 1,-0.446 1,-1 v -5 c 0,-0.554 -0.4460006,-1 -1,-1 z m 3.9999999,0 c -0.5539994,0 -0.9999999,0.446 -0.9999999,1 v 5 c 0,0.554 0.4460005,1 0.9999999,1 0.5539995,0 1,-0.446 1,-1 v -5 c 0,-0.554 -0.4460005,-1 -1,-1 z m 4.00000002,0 c -0.55399942,0 -1.00000002,0.446 -1.00000002,1 v 5 c 0,0.554 0.4460006,1 1.00000002,1 0.55399945,0 0.9999999925985,-0.446 0.9999999925985,-1 v -5 c 0,-0.554 -0.4460005425985,-1 -0.9999999925985,-1 z m 3.99999998,0 c -0.5539995,0 -1,0.446 -1,1 v 5 c 0,0.554 0.4460005,1 1,1 0.5539994,0 1,-0.446 1,-1 v -5 c 0,-0.554 -0.4460006,-1 -1,-1 z" /></g></g><g
         inkscape:label="Capa 1"
         id="layer1-0"
         transform="translate(-12.141623,3.1546894)"><g
           transform="matrix(0.26458333,0,0,0.26458333,-6.0000001e-8,213.74891)"
           id="layer1-6-9"
           inkscape:label="Capa 1"><g
             transform="translate(38,-6)"
             id="g1769" /></g><g
           id="g2206"
           transform="matrix(0.26458333,0,0,0.26458333,9.260416,206.60516)"
           style="fill:#e6f9ff;fill-opacity:1"><path
             id="rect843"
             style="opacity:1;fill:#798a8a;fill-opacity:1;stroke:none;stroke-width:2.39314;stroke-linecap:round;stroke-linejoin:round;stroke-miterlimit:4;stroke-dasharray:none;stroke-opacity:1"
             d="m -15.999998,294.64999 c -1.107997,0 -2,0.892 -2,2 v 26 c 0,1.108 0.892003,2 2,2 h 26 c 1.107998,0 2,-0.892 2,-2 v -26 c 0,-1.108 -0.892002,-2 -2,-2 z m 4,6 H 6.0000017 c 0.5539988,0 1,0.446 1,1 v 2 c 0.5539988,0 1,0.446 1,1 v 1 c 0,0.554 -0.4460012,1 -1,1 v 3 c 0.5539988,0 1,0.446 1,1 v 1 c 0,0.554 -0.4460012,1 -1,1 v 4 c 0,0.554 -0.4460012,1 -1,1 h -4 v 1 c 0,0.554 -0.446003,1 -1,1 h -1.99999998 c 0,0.554 -0.44600102,1 -1.00000002,1 h -2 c -0.5539988,0 -1,-0.446 -1,-1 h -1.9999999 c -0.553997,0 -1,-0.446 -1,-1 v -1 h -3.9999998 c -0.554,0 -1,-0.446 -1,-1 v -4 c -0.554,0 -1,-0.446 -1,-1 v -1 c 0,-0.554 0.446,-1 1,-1 v -3 c -0.554,0 -1,-0.446 -1,-1 v -1 c 0,-0.554 0.446,-1 1,-1 v -2 c 0,-0.554 0.446,-1 1,-1 z m 2.9999998,3 c -0.5539995,0 -1,0.446 -1,1 v 5 c 0,0.554 0.4460005,1 1,1 0.5539994,0 1,-0.446 1,-1 v -5 c 0,-0.554 -0.4460006,-1 -1,-1 z m 3.9999999,0 c -0.5539994,0 -0.9999999,0.446 -0.9999999,1 v 5 c 0,0.554 0.4460005,1 0.9999999,1 0.5539995,0 1,-0.446 1,-1 v -5 c 0,-0.554 -0.4460005,-1 -1,-1 z m 4.00000002,0 c -0.55399942,0 -1.00000002,0.446 -1.00000002,1 v 5 c 0,0.554 0.4460006,1 1.00000002,1 0.55399945,0 0.9999999925985,-0.446 0.9999999925985,-1 v -5 c 0,-0.554 -0.4460005425985,-1 -0.9999999925985,-1 z m 3.99999998,0 c -0.5539995,0 -1,0.446 -1,1 v 5 c 0,0.554 0.4460005,1 1,1 0.5539994,0 1,-0.446 1,-1 v -5 c 0,-0.554 -0.4460006,-1 -1,-1 z" /></g></g><path
         id="path28825-3"
         style="fill:#a8bbbf;fill-opacity:1;stroke-width:0.264583"
         d="m -2.0874561,294.06932 v 1.85208 1.85208 h 1.85208396 1.85208304 v -1.85208 -1.85208 h -1.85208304 z" /><path
         d="m -2.087456,293.80474 h 1.85208332 v 1.85208 H -2.087456 Z"
         fill="#c74343"
         id="path28825"
         style="fill:#b2262c;fill-opacity:1;stroke-width:0.264583" /><path
         d="M -0.23537268,293.80474 H 1.6167107 v 1.85208 h -1.85208338 z"
         fill="#5e9c76"
         id="path28827"
         style="fill:#56b11c;fill-opacity:1;stroke-width:0.264583" /><path
         d="m -2.087456,295.65682 h 1.85208332 v 1.85209 H -2.087456 Z"
         fill="#287bc2"
         id="path28829"
         style="fill:#0f49bf;fill-opacity:1;stroke-width:0.264583" /><path
         d="M -0.23537268,295.65682 H 1.6167107 v 1.85209 h -1.85208338 z"
         fill="#ffb851"
         fill-opacity="0.960784"
         id="path28831"
         style="fill:#f59101;fill-opacity:1;stroke-width:0.264583" /><path
         d="m -1.8228726,294.06932 h 1.32291655 v 1.32292 H -1.8228726 Z"
         fill="#f78f8f"
         id="path28833"
         style="fill:url(#linearGradient2);stroke-width:0.264583" /><path
         d="M 0.02921062,294.06932 H 1.3521273 v 1.32292 H 0.02921062 Z"
         fill="#bae0bd"
         id="path28835"
         style="fill:url(#linearGradient8);stroke-width:0.264583" /><path
         d="m -1.8228726,295.92141 h 1.32291655 v 1.32291 H -1.8228726 Z"
         fill="#78c1ff"
         id="path28837"
         style="fill:url(#linearGradient4);stroke-width:0.264583" /><path
         d="M 0.02921062,295.92141 H 1.3521273 v 1.32291 H 0.02921062 Z"
         fill="#ffeea3"
         id="path28839"
         style="fill:url(#linearGradient6);stroke-width:0.264583" /></g></g></svg>
