<?xml version="1.0" encoding="UTF-8" standalone="no"?>
<!-- Created with Inkscape (http://www.inkscape.org/) -->

<svg
   width="64"
   height="64"
   viewBox="0 0 16.933333 16.933333"
   version="1.1"
   id="svg1399"
   inkscape:version="1.3.2 (091e20ef0f, 2023-11-25, custom)"
   sodipodi:docname="viewhtml.svg"
   xml:space="preserve"
   xmlns:inkscape="http://www.inkscape.org/namespaces/inkscape"
   xmlns:sodipodi="http://sodipodi.sourceforge.net/DTD/sodipodi-0.dtd"
   xmlns:xlink="http://www.w3.org/1999/xlink"
   xmlns="http://www.w3.org/2000/svg"
   xmlns:svg="http://www.w3.org/2000/svg"
   xmlns:rdf="http://www.w3.org/1999/02/22-rdf-syntax-ns#"
   xmlns:cc="http://creativecommons.org/ns#"
   xmlns:dc="http://purl.org/dc/elements/1.1/"><defs
     id="defs1393"><linearGradient
       id="linearGradient1"
       inkscape:collect="always"><stop
         style="stop-color:#1585f3;stop-opacity:1;"
         offset="0"
         id="stop1" /><stop
         style="stop-color:#02b2fe;stop-opacity:1;"
         offset="1"
         id="stop2" /></linearGradient><style
       type="text/css"
       id="current-color-scheme">
      .ColorScheme-Text {
        color:#122036;
      }
      </style><style
       type="text/css"
       id="current-color-scheme-2">
      .ColorScheme-Text {
        color:#122036;
      }
      </style><style
       type="text/css"
       id="current-color-scheme-0">
      .ColorScheme-Text {
        color:#122036;
      }
      </style><style
       id="current-color-scheme-5"
       type="text/css">
      .ColorScheme-Text {
        color:#122036;
      }
      </style><style
       id="current-color-scheme-2-3"
       type="text/css">
      .ColorScheme-Text {
        color:#122036;
      }
      </style><style
       id="current-color-scheme-0-5"
       type="text/css">
      .ColorScheme-Text {
        color:#122036;
      }
      </style><style
       id="current-color-scheme-36"
       type="text/css">
      .ColorScheme-Text {
        color:#122036;
      }
      </style><style
       id="current-color-scheme-2-7"
       type="text/css">
      .ColorScheme-Text {
        color:#122036;
      }
      </style><style
       id="current-color-scheme-0-53"
       type="text/css">
      .ColorScheme-Text {
        color:#122036;
      }
      </style><style
       type="text/css"
       id="current-color-scheme-3">
      .ColorScheme-Text {
        color:#122036;
      }
      </style><linearGradient
       inkscape:collect="always"
       xlink:href="#linearGradient1"
       id="linearGradient2"
       x1="76.236221"
       y1="48.692917"
       x2="76.236221"
       y2="-2.9642854"
       gradientUnits="userSpaceOnUse" /></defs><sodipodi:namedview
     id="base"
     pagecolor="#ffffff"
     bordercolor="#666666"
     borderopacity="1.0"
     inkscape:pageopacity="0.0"
     inkscape:pageshadow="2"
     inkscape:zoom="11.2"
     inkscape:cx="45.491071"
     inkscape:cy="18.214286"
     inkscape:document-units="px"
     inkscape:current-layer="layer1"
     showgrid="true"
     inkscape:showpageshadow="false"
     units="px"
     inkscape:window-width="2560"
     inkscape:window-height="1356"
     inkscape:window-x="0"
     inkscape:window-y="0"
     inkscape:window-maximized="1"
     inkscape:pagecheckerboard="0"
     inkscape:deskcolor="#d1d1d1"><inkscape:grid
       type="xygrid"
       id="grid840"
       originx="0"
       originy="0"
       spacingy="1"
       spacingx="1"
       units="px"
       visible="true" /></sodipodi:namedview><metadata
     id="metadata1396"><rdf:RDF><cc:Work
         rdf:about=""><dc:format>image/svg+xml</dc:format><dc:type
           rdf:resource="http://purl.org/dc/dcmitype/StillImage" /></cc:Work></rdf:RDF></metadata><g
     inkscape:label="Capa 1"
     inkscape:groupmode="layer"
     id="layer1"
     transform="translate(0,-280.06672)"><g
       transform="matrix(0.26458333,0,0,0.26458333,-6.0000001e-8,213.74891)"
       id="layer1-6"
       inkscape:label="Capa 1"><g
         transform="translate(38,-6)"
         id="g1769"><path
           style="opacity:1;vector-effect:none;fill:#1470d9;fill-opacity:0.98039216;stroke:none;stroke-width:2;stroke-linecap:round;stroke-linejoin:round;stroke-miterlimit:4;stroke-dasharray:none;stroke-dashoffset:0;stroke-opacity:1"
           d="m 55,-7 c -2.216,0 -4,1.784 -4,4 v 14 4 36 c 0,2.216 1.784,4 4,4 h 46 c 2.216,0 4,-1.784 4,-4 V 15 11 10 -3 c 0,-2.216 -1.784,-4 -4,-4 z"
           transform="translate(-84,264.64999)"
           id="rect971"
           inkscape:connector-curvature="0" /><path
           style="opacity:1;vector-effect:none;fill:url(#linearGradient2);fill-opacity:1;stroke:none;stroke-width:2;stroke-linecap:round;stroke-linejoin:round;stroke-miterlimit:4;stroke-dasharray:none;stroke-dashoffset:0;stroke-opacity:1"
           d="m 55,-6 c -1.662,0 -3,1.338 -3,3 v 12 2 3 37 c 0,1.662 1.338,3 3,3 h 46 c 1.662,0 3,-1.338 3,-3 V 14 11 9 -3 c 0,-1.662 -1.338,-3 -3,-3 z"
           id="rect971-2"
           transform="translate(-84,264.64999)"
           inkscape:connector-curvature="0" /></g></g><g
       id="g2206-5-9"
       transform="matrix(0.26458333,0,0,0.26458333,9.260416,206.86974)"
       style="fill:#1470d9;fill-opacity:0.980392"><path
         id="rect843-6-1"
         style="opacity:1;fill:#1470d9;fill-opacity:0.980392;stroke:none;stroke-width:2.39314;stroke-linecap:round;stroke-linejoin:round;stroke-miterlimit:4;stroke-dasharray:none;stroke-opacity:1"
         d="m -15.999998,294.64999 c -1.107997,0 -2,0.892 -2,2 v 26 c 0,1.108 0.892003,2 2,2 h 26 c 1.107998,0 2,-0.892 2,-2 v -26 c 0,-1.108 -0.892002,-2 -2,-2 z m 4,6 H 6.0000017 c 0.5539988,0 1,0.446 1,1 v 2 c 0.5539988,0 1,0.446 1,1 v 1 c 0,0.554 -0.4460012,1 -1,1 v 3 c 0.5539988,0 1,0.446 1,1 v 1 c 0,0.554 -0.4460012,1 -1,1 v 4 c 0,0.554 -0.4460012,1 -1,1 h -4 v 1 c 0,0.554 -0.446003,1 -1,1 h -1.99999998 c 0,0.554 -0.44600102,1 -1.00000002,1 h -2 c -0.5539988,0 -1,-0.446 -1,-1 h -1.9999999 c -0.553997,0 -1,-0.446 -1,-1 v -1 h -3.9999998 c -0.554,0 -1,-0.446 -1,-1 v -4 c -0.554,0 -1,-0.446 -1,-1 v -1 c 0,-0.554 0.446,-1 1,-1 v -3 c -0.554,0 -1,-0.446 -1,-1 v -1 c 0,-0.554 0.446,-1 1,-1 v -2 c 0,-0.554 0.446,-1 1,-1 z m 2.9999998,3 c -0.5539995,0 -1,0.446 -1,1 v 5 c 0,0.554 0.4460005,1 1,1 0.5539994,0 1,-0.446 1,-1 v -5 c 0,-0.554 -0.4460006,-1 -1,-1 z m 3.9999999,0 c -0.5539994,0 -0.9999999,0.446 -0.9999999,1 v 5 c 0,0.554 0.4460005,1 0.9999999,1 0.5539995,0 1,-0.446 1,-1 v -5 c 0,-0.554 -0.4460005,-1 -1,-1 z m 4.00000002,0 c -0.55399942,0 -1.00000002,0.446 -1.00000002,1 v 5 c 0,0.554 0.4460006,1 1.00000002,1 0.55399945,0 0.9999999925985,-0.446 0.9999999925985,-1 v -5 c 0,-0.554 -0.4460005425985,-1 -0.9999999925985,-1 z m 3.99999998,0 c -0.5539995,0 -1,0.446 -1,1 v 5 c 0,0.554 0.4460005,1 1,1 0.5539994,0 1,-0.446 1,-1 v -5 c 0,-0.554 -0.4460006,-1 -1,-1 z" /></g><g
       id="g2206-5"
       transform="matrix(0.26458333,0,0,0.26458333,9.260416,206.60516)"
       style="fill:#d5effe;fill-opacity:1"><path
         id="rect843-6"
         style="opacity:1;fill:#d5effe;fill-opacity:1;stroke:none;stroke-width:2.39314;stroke-linecap:round;stroke-linejoin:round;stroke-miterlimit:4;stroke-dasharray:none;stroke-opacity:1"
         d="m -15.999998,294.64999 c -1.107997,0 -2,0.892 -2,2 v 26 c 0,1.108 0.892003,2 2,2 h 26 c 1.107998,0 2,-0.892 2,-2 v -26 c 0,-1.108 -0.892002,-2 -2,-2 z m 4,6 H 6.0000017 c 0.5539988,0 1,0.446 1,1 v 2 c 0.5539988,0 1,0.446 1,1 v 1 c 0,0.554 -0.4460012,1 -1,1 v 3 c 0.5539988,0 1,0.446 1,1 v 1 c 0,0.554 -0.4460012,1 -1,1 v 4 c 0,0.554 -0.4460012,1 -1,1 h -4 v 1 c 0,0.554 -0.446003,1 -1,1 h -1.99999998 c 0,0.554 -0.44600102,1 -1.00000002,1 h -2 c -0.5539988,0 -1,-0.446 -1,-1 h -1.9999999 c -0.553997,0 -1,-0.446 -1,-1 v -1 h -3.9999998 c -0.554,0 -1,-0.446 -1,-1 v -4 c -0.554,0 -1,-0.446 -1,-1 v -1 c 0,-0.554 0.446,-1 1,-1 v -3 c -0.554,0 -1,-0.446 -1,-1 v -1 c 0,-0.554 0.446,-1 1,-1 v -2 c 0,-0.554 0.446,-1 1,-1 z m 2.9999998,3 c -0.5539995,0 -1,0.446 -1,1 v 5 c 0,0.554 0.4460005,1 1,1 0.5539994,0 1,-0.446 1,-1 v -5 c 0,-0.554 -0.4460006,-1 -1,-1 z m 3.9999999,0 c -0.5539994,0 -0.9999999,0.446 -0.9999999,1 v 5 c 0,0.554 0.4460005,1 0.9999999,1 0.5539995,0 1,-0.446 1,-1 v -5 c 0,-0.554 -0.4460005,-1 -1,-1 z m 4.00000002,0 c -0.55399942,0 -1.00000002,0.446 -1.00000002,1 v 5 c 0,0.554 0.4460006,1 1.00000002,1 0.55399945,0 0.9999999925985,-0.446 0.9999999925985,-1 v -5 c 0,-0.554 -0.4460005425985,-1 -0.9999999925985,-1 z m 3.99999998,0 c -0.5539995,0 -1,0.446 -1,1 v 5 c 0,0.554 0.4460005,1 1,1 0.5539994,0 1,-0.446 1,-1 v -5 c 0,-0.554 -0.4460006,-1 -1,-1 z" /></g></g></svg>
