<?xml version="1.0" encoding="UTF-8" standalone="no"?>
<!-- Created with Inkscape (http://www.inkscape.org/) -->

<svg
   width="64"
   height="64"
   viewBox="0 0 16.933333 16.933333"
   version="1.1"
   id="svg5"
   inkscape:version="1.3.2 (091e20ef0f, 2023-11-25, custom)"
   sodipodi:docname="text-x-subviewer.svg"
   xml:space="preserve"
   xmlns:inkscape="http://www.inkscape.org/namespaces/inkscape"
   xmlns:sodipodi="http://sodipodi.sourceforge.net/DTD/sodipodi-0.dtd"
   xmlns:xlink="http://www.w3.org/1999/xlink"
   xmlns="http://www.w3.org/2000/svg"
   xmlns:svg="http://www.w3.org/2000/svg"><sodipodi:namedview
     id="namedview7"
     pagecolor="#ffffff"
     bordercolor="#000000"
     borderopacity="0.25"
     inkscape:showpageshadow="false"
     inkscape:pageopacity="0.0"
     inkscape:pagecheckerboard="0"
     inkscape:deskcolor="#d1d1d1"
     inkscape:document-units="px"
     showgrid="true"
     inkscape:zoom="14.481547"
     inkscape:cx="39.394962"
     inkscape:cy="24.444902"
     inkscape:window-width="2560"
     inkscape:window-height="1356"
     inkscape:window-x="0"
     inkscape:window-y="0"
     inkscape:window-maximized="1"
     inkscape:current-layer="layer1"><inkscape:grid
       type="xygrid"
       id="grid290"
       originx="0"
       originy="0"
       spacingy="1"
       spacingx="1"
       units="px"
       visible="true" /></sodipodi:namedview><defs
     id="defs2"><linearGradient
       id="linearGradient1"
       inkscape:collect="always"><stop
         style="stop-color:#3572f0;stop-opacity:1;"
         offset="0"
         id="stop1" /><stop
         style="stop-color:#5694fb;stop-opacity:1;"
         offset="1"
         id="stop2" /></linearGradient><style
       id="current-color-scheme"
       type="text/css">
      .ColorScheme-Text {
        color:#122036;
      }
      </style><style
       id="current-color-scheme-1"
       type="text/css">
      .ColorScheme-Text {
        color:#122036;
      }
      </style><style
       type="text/css"
       id="current-color-scheme-10">
      .ColorScheme-Text {
        color:#122036;
      }
      </style><style
       type="text/css"
       id="current-color-scheme-5">
      .ColorScheme-Text {
        color:#122036;
      }
      </style><style
       type="text/css"
       id="current-color-scheme-1-2">
      .ColorScheme-Text {
        color:#122036;
      }
      </style><style
       id="current-color-scheme-10-9"
       type="text/css">
      .ColorScheme-Text {
        color:#122036;
      }
      </style><style
       id="current-color-scheme-6"
       type="text/css">
      .ColorScheme-Text {
        color:#122036;
      }
      </style><style
       id="current-color-scheme-1-9"
       type="text/css">
      .ColorScheme-Text {
        color:#122036;
      }
      </style><style
       type="text/css"
       id="current-color-scheme-10-1">
      .ColorScheme-Text {
        color:#122036;
      }
      </style><style
       id="current-color-scheme-7"
       type="text/css">
      .ColorScheme-Text {
        color:#122036;
      }
      </style><style
       id="current-color-scheme-1-5"
       type="text/css">
      .ColorScheme-Text {
        color:#122036;
      }
      </style><style
       type="text/css"
       id="current-color-scheme-10-3">
      .ColorScheme-Text {
        color:#122036;
      }
      </style><style
       type="text/css"
       id="current-color-scheme-5-5">
      .ColorScheme-Text {
        color:#122036;
      }
      </style><style
       type="text/css"
       id="current-color-scheme-1-2-6">
      .ColorScheme-Text {
        color:#122036;
      }
      </style><style
       id="current-color-scheme-10-9-2"
       type="text/css">
      .ColorScheme-Text {
        color:#122036;
      }
      </style><style
       id="current-color-scheme-6-9"
       type="text/css">
      .ColorScheme-Text {
        color:#122036;
      }
      </style><style
       id="current-color-scheme-1-9-1"
       type="text/css">
      .ColorScheme-Text {
        color:#122036;
      }
      </style><style
       type="text/css"
       id="current-color-scheme-10-1-2">
      .ColorScheme-Text {
        color:#122036;
      }
      </style><style
       type="text/css"
       id="current-color-scheme-75">
      .ColorScheme-Text {
        color:#122036;
      }
      </style><style
       type="text/css"
       id="current-color-scheme-1-3">
      .ColorScheme-Text {
        color:#122036;
      }
      </style><style
       id="current-color-scheme-10-5"
       type="text/css">
      .ColorScheme-Text {
        color:#122036;
      }
      </style><style
       id="current-color-scheme-5-6"
       type="text/css">
      .ColorScheme-Text {
        color:#122036;
      }
      </style><style
       id="current-color-scheme-1-2-2"
       type="text/css">
      .ColorScheme-Text {
        color:#122036;
      }
      </style><style
       type="text/css"
       id="current-color-scheme-10-9-9">
      .ColorScheme-Text {
        color:#122036;
      }
      </style><style
       type="text/css"
       id="current-color-scheme-6-1">
      .ColorScheme-Text {
        color:#122036;
      }
      </style><style
       type="text/css"
       id="current-color-scheme-1-9-2">
      .ColorScheme-Text {
        color:#122036;
      }
      </style><style
       id="current-color-scheme-10-1-7"
       type="text/css">
      .ColorScheme-Text {
        color:#122036;
      }
      </style><style
       type="text/css"
       id="current-color-scheme-7-0">
      .ColorScheme-Text {
        color:#122036;
      }
      </style><style
       type="text/css"
       id="current-color-scheme-1-5-9">
      .ColorScheme-Text {
        color:#122036;
      }
      </style><style
       id="current-color-scheme-10-3-3"
       type="text/css">
      .ColorScheme-Text {
        color:#122036;
      }
      </style><style
       id="current-color-scheme-5-5-6"
       type="text/css">
      .ColorScheme-Text {
        color:#122036;
      }
      </style><style
       id="current-color-scheme-1-2-6-0"
       type="text/css">
      .ColorScheme-Text {
        color:#122036;
      }
      </style><style
       type="text/css"
       id="current-color-scheme-10-9-2-6">
      .ColorScheme-Text {
        color:#122036;
      }
      </style><style
       type="text/css"
       id="current-color-scheme-6-9-2">
      .ColorScheme-Text {
        color:#122036;
      }
      </style><style
       type="text/css"
       id="current-color-scheme-1-9-1-6">
      .ColorScheme-Text {
        color:#122036;
      }
      </style><style
       id="current-color-scheme-10-1-2-1"
       type="text/css">
      .ColorScheme-Text {
        color:#122036;
      }
      </style><style
       id="current-color-scheme-67"
       type="text/css">
      .ColorScheme-Text {
        color:#122036;
      }
      </style><style
       id="current-color-scheme-2"
       type="text/css">
      .ColorScheme-Text {
        color:#122036;
      }
      </style><style
       id="current-color-scheme-0"
       type="text/css">
      .ColorScheme-Text {
        color:#122036;
      }
      </style><style
       id="current-color-scheme-5-53"
       type="text/css">
      .ColorScheme-Text {
        color:#122036;
      }
      </style><style
       id="current-color-scheme-2-3"
       type="text/css">
      .ColorScheme-Text {
        color:#122036;
      }
      </style><style
       id="current-color-scheme-0-5"
       type="text/css">
      .ColorScheme-Text {
        color:#122036;
      }
      </style><style
       id="current-color-scheme-6-5"
       type="text/css">
      .ColorScheme-Text {
        color:#122036;
      }
      </style><style
       id="current-color-scheme-2-7"
       type="text/css">
      .ColorScheme-Text {
        color:#122036;
      }
      </style><style
       id="current-color-scheme-0-53"
       type="text/css">
      .ColorScheme-Text {
        color:#122036;
      }
      </style><style
       id="current-color-scheme-5-5-62"
       type="text/css">
      .ColorScheme-Text {
        color:#122036;
      }
      </style><style
       id="current-color-scheme-2-3-6"
       type="text/css">
      .ColorScheme-Text {
        color:#122036;
      }
      </style><style
       id="current-color-scheme-0-5-2"
       type="text/css">
      .ColorScheme-Text {
        color:#122036;
      }
      </style><style
       type="text/css"
       id="current-color-scheme-36">
      .ColorScheme-Text {
        color:#36404d;
      }
      </style><style
       id="current-color-scheme-3"
       type="text/css">
      .ColorScheme-Text {
        color:#122036;
      }
      </style><style
       type="text/css"
       id="current-color-scheme-5-7">
      .ColorScheme-Text {
        color:#122036;
      }
      </style><style
       type="text/css"
       id="current-color-scheme-2-5">
      .ColorScheme-Text {
        color:#122036;
      }
      </style><style
       type="text/css"
       id="current-color-scheme-1-91">
      .ColorScheme-Text {
        color:#122036;
      }
      </style><style
       id="current-color-scheme-10-2"
       type="text/css">
      .ColorScheme-Text {
        color:#122036;
      }
      </style><style
       type="text/css"
       id="current-color-scheme-0-3">
      .ColorScheme-Text {
        color:#122036;
      }
      </style><style
       type="text/css"
       id="current-color-scheme-26">
      .ColorScheme-Text {
        color:#122036;
      }
      </style><linearGradient
       inkscape:collect="always"
       xlink:href="#linearGradient1"
       id="linearGradient2"
       x1="-7.7637792"
       y1="317.12244"
       x2="-7.7637792"
       y2="260.4295"
       gradientUnits="userSpaceOnUse" /></defs><g
     inkscape:label="Capa 1"
     inkscape:groupmode="layer"
     id="layer1"><g
       id="g1919"
       transform="translate(-2.3812495)"><g
         id="g1769"
         transform="matrix(0.26458333,0,0,0.26458333,12.435416,-67.905309)"><path
           id="rect971"
           d="m -29,257.64999 h 46 c 2.216,0 4,1.784 4,4 v 54 c 0,2.216 -1.784,4 -4,4 h -46 c -2.216,0 -4,-1.784 -4,-4 v -54 c 0,-2.216 1.784,-4 4,-4 z"
           style="opacity:1;fill:#33518f;fill-opacity:1;stroke:none;stroke-width:2;stroke-linecap:round;stroke-linejoin:round;stroke-miterlimit:4;stroke-dasharray:none;stroke-dashoffset:0;stroke-opacity:1"
           inkscape:connector-curvature="0"
           sodipodi:nodetypes="sssssssss" /><path
           id="rect971-2"
           d="m -29,258.64999 h 46 c 1.662,0 3,1.338 3,3 v 54 c 0,1.662 -1.338,3 -3,3 h -46 c -1.662,0 -3,-1.338 -3,-3 v -54 c 0,-1.662 1.338,-3 3,-3 z"
           style="opacity:1;fill:url(#linearGradient2);fill-opacity:1;stroke:none;stroke-width:2;stroke-linecap:round;stroke-linejoin:round;stroke-miterlimit:4;stroke-dasharray:none;stroke-dashoffset:0;stroke-opacity:1"
           inkscape:connector-curvature="0"
           sodipodi:nodetypes="sssssssss" /></g></g><g
       transform="translate(8.5611153,-282.26818)"
       id="g8367-0-0"
       style="fill:#33518f;fill-opacity:1"><path
         id="rect4570-9-6-3-9"
         style="fill:#33518f;fill-opacity:1;stroke:none;stroke-width:0.371;stroke-linecap:round;stroke-linejoin:round;stroke-miterlimit:4;stroke-dasharray:none;stroke-opacity:1"
         d="m -0.0944488,287.29526 c -2.0521024,0 -3.7041666,1.65206 -3.7041666,3.70417 0,2.0521 1.6520642,3.70416 3.7041666,3.70416 0.03206409,0 0.06425418,-2.3e-4 0.09611816,-0.001 H 3.0815847 a 0.26460996,0.26460996 0 0 0 0.2067057,-0.42581 l -0.6232178,-0.80151 c 0.5878374,-0.65518 0.9446452,-1.52223 0.9446452,-2.47581 0,-2.05211 -1.6520647,-3.70417 -3.7041666,-3.70417 z m -1.5875,3.175 a 0.52916664,0.52916664 0 0 1 0.5291667,0.52917 0.52916664,0.52916664 0 0 1 -0.5291667,0.52916 0.52916664,0.52916664 0 0 1 -0.5291666,-0.52916 0.52916664,0.52916664 0 0 1 0.5291666,-0.52917 z m 1.5875,0 a 0.52916664,0.52916664 0 0 1 0.52916666,0.52917 0.52916664,0.52916664 0 0 1 -0.52916666,0.52916 0.52916664,0.52916664 0 0 1 -0.52916666,-0.52916 0.52916664,0.52916664 0 0 1 0.52916666,-0.52917 z m 1.5875,0 a 0.52916664,0.52916664 0 0 1 0.5291666,0.52917 0.52916664,0.52916664 0 0 1 -0.5291666,0.52916 0.52916664,0.52916664 0 0 1 -0.52916669,-0.52916 0.52916664,0.52916664 0 0 1 0.52916669,-0.52917 z" /><g
         transform="matrix(0.26458334,0,0,0.26458336,-0.0944909,213.39919)"
         id="layer1-60-7-3"
         inkscape:label="Capa 1"
         style="fill:#33518f;fill-opacity:1"><g
           transform="matrix(0.6,0,0,0.6,9.4,121.46001)"
           id="g2289-5-6"
           style="fill:#33518f;fill-opacity:1"><g
             inkscape:label="Capa 1"
             id="layer1-60-1-9-0"
             transform="matrix(1.6666667,0,0,1.6666667,-15.666667,-202.43335)"
             style="fill:#33518f;fill-opacity:1" /></g></g></g><g
       transform="translate(8.5611153,-282.53276)"
       id="g8367-0"
       style="fill:#fbfcfd;fill-opacity:1"><path
         id="rect4570-9-6-3"
         style="fill:#fbfcfd;fill-opacity:1;stroke:none;stroke-width:0.371;stroke-linecap:round;stroke-linejoin:round;stroke-miterlimit:4;stroke-dasharray:none;stroke-opacity:1"
         d="M -0.0944488 287.29526 C -2.1465512 287.29526 -3.7986154 288.94732 -3.7986154 290.99943 C -3.7986154 293.05153 -2.1465512 294.70359 -0.0944488 294.70359 C -0.062384707 294.70359 -0.030194622 294.70336 0.0016693622 294.70256 L 3.0815847 294.70256 A 0.26460996 0.26460996 0 0 0 3.2882904 294.27675 L 2.6650726 293.47524 C 3.25291 292.82006 3.6097178 291.95301 3.6097178 290.99943 C 3.6097178 288.94732 1.9576531 287.29526 -0.0944488 287.29526 z M -1.6819488 290.47026 A 0.52916664 0.52916664 0 0 1 -1.1527821 290.99943 A 0.52916664 0.52916664 0 0 1 -1.6819488 291.52859 A 0.52916664 0.52916664 0 0 1 -2.2111154 290.99943 A 0.52916664 0.52916664 0 0 1 -1.6819488 290.47026 z M -0.0944488 290.47026 A 0.52916664 0.52916664 0 0 1 0.43471786 290.99943 A 0.52916664 0.52916664 0 0 1 -0.0944488 291.52859 A 0.52916664 0.52916664 0 0 1 -0.62361546 290.99943 A 0.52916664 0.52916664 0 0 1 -0.0944488 290.47026 z M 1.4930512 290.47026 A 0.52916664 0.52916664 0 0 1 2.0222178 290.99943 A 0.52916664 0.52916664 0 0 1 1.4930512 291.52859 A 0.52916664 0.52916664 0 0 1 0.96388451 290.99943 A 0.52916664 0.52916664 0 0 1 1.4930512 290.47026 z " /><g
         transform="matrix(0.26458334,0,0,0.26458336,-0.0944909,213.39919)"
         id="layer1-60-7"
         inkscape:label="Capa 1"
         style="fill:#fbfcfd;fill-opacity:1"><g
           transform="matrix(0.6,0,0,0.6,9.4,121.46001)"
           id="g2289-5"
           style="fill:#fbfcfd;fill-opacity:1"><g
             inkscape:label="Capa 1"
             id="layer1-60-1-9"
             transform="matrix(1.6666667,0,0,1.6666667,-15.666667,-202.43335)"
             style="fill:#fbfcfd;fill-opacity:1" /></g></g></g><g
       id="path15195" /></g></svg>
