<?xml version="1.0" encoding="UTF-8" standalone="no"?>
<!-- Created with Inkscape (http://www.inkscape.org/) -->

<svg
   width="22"
   height="22"
   viewBox="0 0 22 22"
   version="1.1"
   id="svg5"
   inkscape:version="1.3.2 (091e20ef0f, 2023-11-25, custom)"
   sodipodi:docname="preferences-desktop-multimedia.svg"
   xml:space="preserve"
   xmlns:inkscape="http://www.inkscape.org/namespaces/inkscape"
   xmlns:sodipodi="http://sodipodi.sourceforge.net/DTD/sodipodi-0.dtd"
   xmlns:xlink="http://www.w3.org/1999/xlink"
   xmlns="http://www.w3.org/2000/svg"
   xmlns:svg="http://www.w3.org/2000/svg"><sodipodi:namedview
     id="namedview7"
     pagecolor="#ffffff"
     bordercolor="#000000"
     borderopacity="0.25"
     inkscape:showpageshadow="false"
     inkscape:pageopacity="0.0"
     inkscape:pagecheckerboard="0"
     inkscape:deskcolor="#d1d1d1"
     inkscape:document-units="px"
     showgrid="true"
     inkscape:zoom="38.057743"
     inkscape:cx="9.8140344"
     inkscape:cy="10.878207"
     inkscape:window-width="2560"
     inkscape:window-height="1356"
     inkscape:window-x="0"
     inkscape:window-y="0"
     inkscape:window-maximized="1"
     inkscape:current-layer="layer1"
     showguides="false"><inkscape:grid
       type="xygrid"
       id="grid3636"
       originx="0"
       originy="0"
       spacingy="1"
       spacingx="1"
       units="px"
       visible="true" /></sodipodi:namedview><defs
     id="defs2"><style
       type="text/css"
       id="current-color-scheme">
      .ColorScheme-Text {
        color:#36404d;
      }
      </style><style
       type="text/css"
       id="current-color-scheme-67">
      .ColorScheme-Text {
        color:#122036;
      }
      </style><style
       type="text/css"
       id="current-color-scheme-7">
      .ColorScheme-Text {
        color:#122036;
      }
      </style><style
       type="text/css"
       id="current-color-scheme-5">
      .ColorScheme-Text {
        color:#122036;
      }
      </style><style
       type="text/css"
       id="current-color-scheme-6">
      .ColorScheme-Text {
        color:#122036;
      }
      </style><style
       type="text/css"
       id="current-color-scheme-1">
      .ColorScheme-Text {
        color:#122036;
      }
      </style><style
       id="current-color-scheme-10"
       type="text/css">
      .ColorScheme-Text {
        color:#122036;
      }
      </style><style
       id="current-color-scheme-5-7"
       type="text/css">
      .ColorScheme-Text {
        color:#122036;
      }
      </style><style
       id="current-color-scheme-1-2"
       type="text/css">
      .ColorScheme-Text {
        color:#122036;
      }
      </style><style
       type="text/css"
       id="current-color-scheme-10-9">
      .ColorScheme-Text {
        color:#122036;
      }
      </style><style
       type="text/css"
       id="current-color-scheme-61">
      .ColorScheme-Text {
        color:#36404d;
      }
      </style><linearGradient
       inkscape:collect="always"
       xlink:href="#linearGradient4111"
       id="linearGradient4113"
       x1="3.175"
       y1="5.0270834"
       x2="3.175"
       y2="1.0583333"
       gradientUnits="userSpaceOnUse" /><linearGradient
       inkscape:collect="always"
       id="linearGradient4111"><stop
         style="stop-color:#06111c;stop-opacity:1;"
         offset="0"
         id="stop4107" /><stop
         style="stop-color:#15272f;stop-opacity:1;"
         offset="1"
         id="stop4109" /></linearGradient><linearGradient
       inkscape:collect="always"
       xlink:href="#linearGradient2758"
       id="linearGradient2760"
       x1="3.175"
       y1="5.0270834"
       x2="3.175"
       y2="1.3229166"
       gradientUnits="userSpaceOnUse" /><linearGradient
       inkscape:collect="always"
       id="linearGradient2758"><stop
         style="stop-color:#248cc2;stop-opacity:1;"
         offset="0"
         id="stop2754" /><stop
         style="stop-color:#30b8fa;stop-opacity:1;"
         offset="1"
         id="stop2756" /></linearGradient></defs><g
     inkscape:label="Capa 1"
     inkscape:groupmode="layer"
     id="layer1"><g
       id="g1"
       transform="translate(-4.9999997,6.0000003)"><g
         id="g2"
         transform="matrix(3.7795276,0,0,3.7795276,4.0000001,-6.9999999)"><path
           id="rect1728"
           style="opacity:1;fill:#02070c;fill-opacity:0.992157;stroke-width:0.529167;stroke-linecap:round;stroke-linejoin:round;stroke-miterlimit:1.8;paint-order:fill markers stroke;stop-color:#000000"
           d="m 1.0583333,0.52916664 h 4.2333332 c 0.2931583,0 0.5291666,0.23600832 0.5291666,0.52916666 v 4.2333332 c 0,0.2931583 -0.2360083,0.5291666 -0.5291666,0.5291666 H 1.0583333 c -0.29315834,0 -0.52916666,-0.2360083 -0.52916666,-0.5291666 V 1.0583333 c 0,-0.29315834 0.23600832,-0.52916666 0.52916666,-0.52916666 z" /><path
           id="rect1728-7"
           style="fill:url(#linearGradient4113);stroke-width:0.529167;stroke-linecap:round;stroke-linejoin:round;stroke-miterlimit:1.8;paint-order:fill markers stroke;stop-color:#000000"
           d="m 1.0583333,0.79374999 h 4.2333341 c 0.1465792,0 0.2645834,0.11800416 0.2645834,0.26458331 v 4.2333332 c 0,0.1465791 -0.1180042,0.2645833 -0.2645834,0.2645833 H 1.0583333 c -0.14657915,0 -0.26458331,-0.1180042 -0.26458331,-0.2645833 V 1.0583333 c 0,-0.14657915 0.11800416,-0.26458331 0.26458331,-0.26458331 z" /><path
           id="rect2499-6"
           style="fill:#02070c;fill-opacity:1;stroke:none;stroke-width:0.529167;stroke-linecap:round;stroke-linejoin:round;stroke-miterlimit:1.8;paint-order:fill markers stroke;stop-color:#000000"
           d="m 1.0583333,1.3229167 v 0.79375 H 1.5875 v -0.79375 z m 3.7041667,0 v 0.79375 h 0.5291666 v -0.79375 z M 1.0583333,2.38125 V 3.175 H 1.5875 V 2.38125 Z m 3.7041667,0 V 3.175 H 5.2916666 V 2.38125 Z M 1.0583333,3.4395834 v 0.79375 H 1.5875 v -0.79375 z m 3.7041667,0 v 0.79375 h 0.5291666 v -0.79375 z M 1.0583333,4.4979167 v 0.79375 H 1.5875 v -0.79375 z m 3.7041667,0 v 0.79375 h 0.5291666 v -0.79375 z" /><path
           id="rect2499"
           style="opacity:1;fill:#f1f2f3;fill-opacity:1;stroke:none;stroke-width:0.529167;stroke-linecap:round;stroke-linejoin:round;stroke-miterlimit:1.8;paint-order:fill markers stroke;stop-color:#000000"
           d="m 1.0583333,1.0583333 v 0.79375 H 1.5875 v -0.79375 z m 3.7041667,0 v 0.79375 h 0.5291666 v -0.79375 z M 1.0583333,2.1166666 v 0.79375 H 1.5875 v -0.79375 z m 3.7041667,0 v 0.79375 h 0.5291666 v -0.79375 z M 1.0583333,3.175 V 3.96875 H 1.5875 V 3.175 Z m 3.7041667,0 V 3.96875 H 5.2916666 V 3.175 Z M 1.0583333,4.2333333 v 0.79375 H 1.5875 v -0.79375 z m 3.7041667,0 v 0.79375 h 0.5291666 v -0.79375 z" /><path
           id="rect2719"
           style="opacity:1;fill:url(#linearGradient2760);fill-opacity:1;stroke:none;stroke-width:0.529167;stroke-linecap:round;stroke-linejoin:round;stroke-miterlimit:1.8;paint-order:fill markers stroke;stop-color:#000000"
           d="M 1.8520833,1.0583333 V 2.9104166 H 4.4979166 V 1.0583333 Z m 0,2.38125 V 5.2916666 H 4.4979166 V 3.4395833 Z" /><path
           style="color:#000000;fill:#115799;fill-opacity:1;stroke-linecap:round;stroke-linejoin:round;stroke-miterlimit:1.8;-inkscape-stroke:none;paint-order:fill markers stroke"
           d="M 2.5277344,2.4090979 C 2.438118,2.4538058 2.3814211,2.5452769 2.38125,2.6454261 v 1.5878905 c 3.384e-4,0.2181222 0.2496107,0.3421839 0.4238282,0.2109375 L 3.863672,3.6512855 c 0.1415278,-0.105831 0.1415278,-0.3179973 0,-0.4238282 L 2.8050781,2.4344885 C 2.7249225,2.3741233 2.6175186,2.3642905 2.5277344,2.4090979 Z"
           id="path1035-6"
           sodipodi:nodetypes="cccccccc" /><path
           style="color:#000000;fill:#f7faff;fill-opacity:1;stroke-linecap:round;stroke-linejoin:round;stroke-miterlimit:1.8;-inkscape-stroke:none;paint-order:fill markers stroke"
           d="M 2.5277344,2.1447266 C 2.438118,2.1894345 2.3814211,2.2809055 2.38125,2.3810547 v 1.5878906 c 3.383e-4,0.2181221 0.2496106,0.3421839 0.4238281,0.2109375 L 3.8636719,3.3869141 c 0.1415279,-0.105831 0.1415279,-0.3179972 0,-0.4238282 L 2.8050781,2.1701172 C 2.7249225,2.109752 2.6175185,2.0999192 2.5277344,2.1447266 Z"
           id="path1035"
           sodipodi:nodetypes="cccccccc" /></g></g></g></svg>
