<?xml version="1.0" encoding="UTF-8" standalone="no"?>
<svg
   height="22"
   width="22"
   version="1.1"
   id="svg1"
   sodipodi:docname="battery-080-charging.svg"
   inkscape:version="1.3.2 (091e20ef0f, 2023-11-25, custom)"
   xmlns:inkscape="http://www.inkscape.org/namespaces/inkscape"
   xmlns:sodipodi="http://sodipodi.sourceforge.net/DTD/sodipodi-0.dtd"
   xmlns:xlink="http://www.w3.org/1999/xlink"
   xmlns="http://www.w3.org/2000/svg"
   xmlns:svg="http://www.w3.org/2000/svg">
  <sodipodi:namedview
     id="namedview1"
     pagecolor="#ffffff"
     bordercolor="#000000"
     borderopacity="0.25"
     inkscape:showpageshadow="2"
     inkscape:pageopacity="0.0"
     inkscape:pagecheckerboard="0"
     inkscape:deskcolor="#d1d1d1"
     inkscape:zoom="37.862354"
     inkscape:cx="10.657024"
     inkscape:cy="11.383339"
     inkscape:window-width="2560"
     inkscape:window-height="1364"
     inkscape:window-x="0"
     inkscape:window-y="0"
     inkscape:window-maximized="1"
     inkscape:current-layer="svg1" />
  <defs
     id="defs1">
    <style
       type="text/css"
       id="current-color-scheme">
            .ColorScheme-Text {
                color:#232629;
            }
        </style>
    <linearGradient
       inkscape:collect="always"
       xlink:href="#linearGradient8"
       id="linearGradient24"
       gradientUnits="userSpaceOnUse"
       gradientTransform="translate(38,-3.990243)"
       x1="-14"
       y1="32"
       x2="-14"
       y2="20" />
    <linearGradient
       id="linearGradient8"
       inkscape:collect="always">
      <stop
         style="stop-color:#252a34;stop-opacity:1;"
         offset="0"
         id="stop8" />
      <stop
         style="stop-color:#353d4b;stop-opacity:1;"
         offset="1"
         id="stop9" />
    </linearGradient>
    <linearGradient
       inkscape:collect="always"
       xlink:href="#linearGradient10"
       id="linearGradient27"
       gradientUnits="userSpaceOnUse"
       gradientTransform="translate(38,-3.990243)"
       x1="-14"
       y1="31"
       x2="-14"
       y2="22" />
    <linearGradient
       id="linearGradient10"
       inkscape:collect="always">
      <stop
         style="stop-color:#454545;stop-opacity:1;"
         offset="0"
         id="stop10" />
      <stop
         style="stop-color:#212121;stop-opacity:1;"
         offset="1"
         id="stop11" />
    </linearGradient>
    <linearGradient
       inkscape:collect="always"
       xlink:href="#linearGradient32"
       id="linearGradient28"
       gradientUnits="userSpaceOnUse"
       gradientTransform="translate(38,-3.982927)"
       x1="-14"
       y1="31"
       x2="-14"
       y2="22" />
    <linearGradient
       id="linearGradient32"
       inkscape:collect="always">
      <stop
         style="stop-color:#2bd065;stop-opacity:1;"
         offset="0"
         id="stop31" />
      <stop
         style="stop-color:#69d779;stop-opacity:1;"
         offset="1"
         id="stop32" />
    </linearGradient>
  </defs>
  <g
     id="g1"
     transform="translate(-14,-11.000002)">
    <path
       id="rect7-9-4"
       style="fill:#15151a;fill-opacity:1;stroke-width:1.99878;stroke-linecap:round;stroke-linejoin:round;paint-order:stroke fill markers"
       d="m 16,14.000002 c -1.107997,-0.0014 -2,0.890914 -2,1.997561 V 27.98293 c 0,1.106648 0.892003,1.99612 2,1.997563 l 15,0.01951 c 1.107997,0.0014 2,-0.890915 2,-1.99756 v -1.010489 h 1.03125 c 1.090701,0 1.96875,-0.87698 1.96875,-1.966348 v -0.05852 -6.002438 c 0,-6.52e-4 10e-7,-0.0013 0,-0.002 0,-1.089371 -0.878049,-1.966349 -1.96875,-1.966349 H 33.216797 C 33.142077,16.989597 33.06925,16.986497 33,16.986497 v -0.96952 c 0,-1.106647 -0.892003,-1.99612 -2,-1.997561 z" />
    <path
       id="rect4-2-3"
       style="fill:url(#linearGradient24);stroke-width:1.99878;stroke-linecap:round;stroke-linejoin:round;paint-order:stroke fill markers"
       d="m 16,15.008538 c -0.553999,0 -1,0.445457 -1,0.99878 v 11.985367 c 0,0.553325 0.446001,0.998781 1,0.998781 h 15 c 0.553999,0 1,-0.445456 1,-0.998781 v -1.997559 h 2 c 0.553999,0 1,-0.445457 1,-0.99878 V 19.00366 c 0,-0.553323 -0.446001,-0.99878 -1,-0.99878 h -2 v -1.997562 c 0,-0.553323 -0.446001,-0.99878 -1,-0.99878 z"
       sodipodi:nodetypes="sssssscsssscsss" />
    <path
       id="rect1-2-1"
       style="fill:url(#linearGradient27);stroke-width:1.99878;stroke-linecap:round;stroke-linejoin:round;paint-order:stroke fill markers"
       d="m 16,16.007319 v 11.985366 h 15 v -2.996339 h 3 v -5.992685 h -3 v -2.996342 z"
       sodipodi:nodetypes="ccccccccc" />
    <path
       id="rect1-6-8-4"
       style="fill:url(#linearGradient28);stroke-width:1.99878;stroke-linecap:round;stroke-linejoin:round;paint-order:stroke fill markers"
       d="M 23.925781 26.998049 C 23.750536 26.984962 23.577071 26.925208 23.421875 26.814455 L 17 22.226565 L 17 27.000002 L 19 27.001955 L 21 27.001955 L 23 27.001955 L 23 26.998049 L 23.925781 26.998049 z " />
    <path
       id="path3"
       style="fill:url(#linearGradient28);stroke-width:1.99878;stroke-linecap:round;stroke-linejoin:round;paint-order:stroke fill markers"
       d="M 30 23.000002 L 26.671875 23.000002 L 24.892578 26.457033 C 24.720389 26.792538 24.388304 26.985434 24.042969 27.000002 L 25 27.000002 L 26 27.000002 L 29 27.000002 L 30 27.000002 L 30 24.000002 L 30 23.000002 z " />
    <path
       id="path1"
       style="fill:url(#linearGradient28);stroke-width:1.99878;stroke-linecap:round;stroke-linejoin:round;paint-order:stroke fill markers"
       d="M 23 16.998049 L 23 17.001955 L 21 17.001955 L 19 17.001955 L 17 17.000002 L 17 20.000002 C 17.001343 19.999999 17.002561 20 17.003906 20.000002 L 21.46875 20.000002 L 23.171875 17.445315 C 23.463156 17.007761 24.043446 16.870369 24.5 17.130861 L 30 20.27344 L 30 20.000002 L 30 17.000002 L 29 17.000002 L 26 17.000002 L 25 17.000002 L 23 16.998049 z " />
  </g>
  <g
     id="g1-6">
    <g
       id="g2"
       style="stroke:none">
      <path
         style="fill:#ffffff;fill-opacity:1;stroke:none;stroke-width:2.2336;stroke-linecap:round;stroke-linejoin:round;stroke-miterlimit:4;stroke-dasharray:none;stroke-opacity:1"
         d="m 17,11 -4.94255,-4e-5 L 10,15 3,10 h 5 l 2,-3 z"
         id="rect843-3-3-7-8"
         sodipodi:nodetypes="ccccccc" />
      <path
         style="fill:#ffffff;fill-opacity:1;stroke:none;stroke-width:2;stroke-linecap:round;stroke-linejoin:round;stroke-miterlimit:4;stroke-dasharray:none;stroke-opacity:1"
         d="m 17,11 -4.94255,-4e-5 L 10,15 3,10 h 5 l 2,-3 z"
         id="rect843-3-3-7-8-3"
         sodipodi:nodetypes="ccccccc" />
    </g>
  </g>
</svg>
