<?xml version="1.0" encoding="UTF-8" standalone="no"?>
<svg
   id="svg7"
   version="1.1"
   viewBox="0 0 22 22"
   sodipodi:docname="software-updates-important.svg"
   inkscape:version="1.3.2 (091e20ef0f, 2023-11-25, custom)"
   xmlns:inkscape="http://www.inkscape.org/namespaces/inkscape"
   xmlns:sodipodi="http://sodipodi.sourceforge.net/DTD/sodipodi-0.dtd"
   xmlns:xlink="http://www.w3.org/1999/xlink"
   xmlns="http://www.w3.org/2000/svg"
   xmlns:svg="http://www.w3.org/2000/svg">
  <sodipodi:namedview
     id="namedview1"
     pagecolor="#ffffff"
     bordercolor="#000000"
     borderopacity="0.25"
     inkscape:showpageshadow="2"
     inkscape:pageopacity="0.0"
     inkscape:pagecheckerboard="0"
     inkscape:deskcolor="#d1d1d1"
     inkscape:zoom="13.386364"
     inkscape:cx="0.78438031"
     inkscape:cy="18.526316"
     inkscape:window-width="2560"
     inkscape:window-height="1364"
     inkscape:window-x="0"
     inkscape:window-y="0"
     inkscape:window-maximized="1"
     inkscape:current-layer="g1"
     showgrid="true">
    <inkscape:grid
       id="grid1"
       units="px"
       originx="0"
       originy="0"
       spacingx="1"
       spacingy="1"
       empcolor="#0099e5"
       empopacity="0.30196078"
       color="#0099e5"
       opacity="0.14902"
       empspacing="5"
       dotted="false"
       gridanglex="30"
       gridanglez="30"
       visible="true" />
  </sodipodi:namedview>
  <defs
     id="defs3">
    <style
       type="text/css"
       id="current-color-scheme">
        .ColorScheme-Text {            color:#232629;        }
    </style>
    <linearGradient
       inkscape:collect="always"
       xlink:href="#linearGradient4111"
       id="linearGradient4113"
       x1="3.7041664"
       y1="1.0583333"
       x2="3.7041664"
       y2="5.2916665"
       gradientUnits="userSpaceOnUse" />
    <linearGradient
       inkscape:collect="always"
       id="linearGradient4111">
      <stop
         style="stop-color:#cfa679;stop-opacity:1;"
         offset="0"
         id="stop4107" />
      <stop
         style="stop-color:#d9b389;stop-opacity:1;"
         offset="1"
         id="stop4109" />
    </linearGradient>
    <linearGradient
       inkscape:collect="always"
       xlink:href="#linearGradient33372"
       id="linearGradient80605"
       gradientUnits="userSpaceOnUse"
       gradientTransform="translate(-49.401553,-430.50668)"
       x1="63.535721"
       y1="451.50504"
       x2="64.40155"
       y2="441.50668" />
    <linearGradient
       inkscape:collect="always"
       id="linearGradient33372">
      <stop
         style="stop-color:#ffca00;stop-opacity:1;"
         offset="0"
         id="stop33368" />
      <stop
         style="stop-color:#ffe000;stop-opacity:1;"
         offset="1"
         id="stop33370" />
    </linearGradient>
  </defs>
  <g
     id="g1"
     transform="translate(0.99999998,2)">
    <g
       id="g3"
       transform="translate(-32,-30)">
      <g
         id="g2"
         transform="matrix(1,0,0,-1,30,51)">
        <g
           inkscape:label="Capa 1"
           id="layer1"
           transform="scale(3.7795276)">
          <path
             id="rect1728"
             style="opacity:1;fill:#806956;fill-opacity:1;stroke-width:0.529167;stroke-linecap:round;stroke-linejoin:round;stroke-miterlimit:1.8;paint-order:fill markers stroke;stop-color:#000000"
             d="m 1.0583333,0.52916664 h 4.2333332 c 0.2931583,0 0.5291666,0.23600832 0.5291666,0.52916666 v 4.2333332 c 0,0.2931583 -0.2360083,0.5291666 -0.5291666,0.5291666 H 1.0583333 c -0.29315834,0 -0.52916666,-0.2360083 -0.52916666,-0.5291666 V 1.0583333 c 0,-0.29315834 0.23600832,-0.52916666 0.52916666,-0.52916666 z" />
          <path
             id="rect1728-7"
             style="fill:url(#linearGradient4113);stroke-width:0.529167;stroke-linecap:round;stroke-linejoin:round;stroke-miterlimit:1.8;paint-order:fill markers stroke;stop-color:#000000"
             d="m 1.0583333,0.79374999 h 4.2333341 c 0.1465792,0 0.2645834,0.11800416 0.2645834,0.26458331 v 4.2333332 c 0,0.1465791 -0.1180042,0.2645833 -0.2645834,0.2645833 H 1.0583333 c -0.14657915,0 -0.26458331,-0.1180042 -0.26458331,-0.2645833 V 1.0583333 c 0,-0.14657915 0.11800416,-0.26458331 0.26458331,-0.26458331 z" />
        </g>
      </g>
      <path
         d="m 39.009338,29 v 1 1 1 7 c 0,1.66202 1.338,3 3,3 1.662,0 3,-1.33798 3,-3 v -7 -1 -1 -1 z"
         fill="#010102"
         id="path13"
         sodipodi:nodetypes="ccccsssccccc" />
      <path
         d="m 40.009338,29.99992 v 2.99997 6.00008 c 0,1.108 0.892,2.00002 2,2.00002 1.108,0 2,-0.89202 2,-2.00002 v -6.00008 -2.99997 h -2 z"
         fill="url(#a)"
         id="path14"
         style="fill:#262626;fill-opacity:1"
         sodipodi:nodetypes="ccssscccc" />
      <path
         d="m 42.009338,30 h 1 z m 0,0 h -1 v 1 h 1 z m 0,1 v 1 h 1 v -1 z m 0,1 h -1 v 1 h 1 z m 0,1 v 1 h 1 v -1 z m 0,1 h -1 v 1 h 1 z m 0,1 v 1 h 1 v -1 z m 0,1 h -1 v 1 h 1 z m 0,1 v 1 h 1 v -1 z m 0,1 h -1 v 1 h 1 z m 0,1 v 1 h 1 v -1 z"
         fill="#fefefe"
         id="path15"
         sodipodi:nodetypes="ccccccccccccccccccccccccccccccccccccccccccccccccccccc" />
      <g
         id="g2-0"
         transform="translate(31,28)">
        <path
           style="color:#000000;fill:#fe9500;fill-opacity:1;stroke-linecap:round;stroke-linejoin:round;stroke-miterlimit:1.8;paint-order:fill markers stroke"
           d="m 15.002207,10 c -0.34696,-2.196e-4 -0.66925,0.1794 -0.85156,0.47461 l -5.9999997,10 c -0.41138,0.6665 0.0683,1.5258 0.85156,1.52539 H 21.002207 c 0.78323,4.1e-4 1.26294,-0.85889 0.85156,-1.52539 l -6,-10 C 15.671457,10.1794 15.349167,9.9997804 15.002207,10 Z"
           id="path68074-0-5"
           sodipodi:nodetypes="cccccccc" />
        <path
           style="color:#000000;fill:url(#linearGradient80605);stroke-width:2;stroke-linecap:round;stroke-linejoin:round;stroke-miterlimit:1.8;paint-order:fill markers stroke"
           d="M 9.0027473,20.99918 H 21.002747 l -6,-10 z"
           id="path68072-4-1"
           sodipodi:nodetypes="cccc" />
        <path
           id="rect34256-9-0-7-5"
           style="fill:#fe9500;fill-opacity:1;stroke-width:2;stroke-linecap:round;stroke-linejoin:round;stroke-miterlimit:1.8;paint-order:fill markers stroke;stop-color:#000000"
           d="m 14.951172,15 c -0.529828,0.02668 -0.949219,0.463323 -0.949219,1 v 1 c 0,0.553999 0.446001,1 1,1 0.554,0 1,-0.446001 1,-1 v -1 c 0,-0.553989 -0.446,-1 -1,-1 -0.01731,0 -0.03369,-8.61e-4 -0.05078,0 z m 0,4 c -0.529828,0.02668 -0.949219,0.463313 -0.949219,1 0,0.553999 0.446001,1 1,1 0.554,0 1,-0.446001 1,-1 0,-0.553999 -0.446,-1 -1,-1 -0.01731,0 -0.03369,-8.61e-4 -0.05078,0 z" />
        <path
           id="rect34256-9-0-7"
           style="fill:#714300;fill-opacity:1;stroke-width:2;stroke-linecap:round;stroke-linejoin:round;stroke-miterlimit:1.8;paint-order:fill markers stroke;stop-color:#000000"
           d="m 14.951172,14 c -0.529828,0.02668 -0.949219,0.463323 -0.949219,1 v 1 c 0,0.553999 0.446001,1 1,1 0.554,0 1,-0.446001 1,-1 v -1 c 0,-0.553989 -0.446,-1 -1,-1 -0.01731,0 -0.03369,-8.61e-4 -0.05078,0 z m 0,4 c -0.529828,0.02668 -0.949219,0.463313 -0.949219,1 0,0.553999 0.446001,1 1,1 0.554,0 1,-0.446001 1,-1 0,-0.553999 -0.446,-1 -1,-1 -0.01731,0 -0.03369,-8.61e-4 -0.05078,0 z" />
      </g>
    </g>
  </g>
</svg>
