<?xml version="1.0" encoding="UTF-8" standalone="no"?>
<svg
   height="22"
   viewBox="0 0 22 22"
   width="22"
   version="1.1"
   id="svg11"
   sodipodi:docname="network-mobile-20-umts-locked.svg"
   xml:space="preserve"
   inkscape:version="1.3.2 (091e20ef0f, 2023-11-25, custom)"
   xmlns:inkscape="http://www.inkscape.org/namespaces/inkscape"
   xmlns:sodipodi="http://sodipodi.sourceforge.net/DTD/sodipodi-0.dtd"
   xmlns:xlink="http://www.w3.org/1999/xlink"
   xmlns="http://www.w3.org/2000/svg"
   xmlns:svg="http://www.w3.org/2000/svg"><defs
     id="defs11"><linearGradient
       id="linearGradient21"
       gradientUnits="userSpaceOnUse"
       x1="11"
       x2="11"
       y1="19.95339"
       y2="3"
       spreadMethod="pad"><stop
         offset="0"
         stop-color="#4a9ef1"
         id="stop20" /><stop
         offset="1"
         stop-color="#a2cff9"
         id="stop21"
         style="stop-color:#f8bd65;stop-opacity:1;" /></linearGradient><linearGradient
       id="linearGradient17"
       gradientUnits="userSpaceOnUse"
       x1="11"
       x2="11"
       y1="19.95339"
       y2="3"
       spreadMethod="pad"><stop
         offset="0"
         stop-color="#4a9ef1"
         id="stop16"
         style="stop-color:#edf3f3;stop-opacity:1;" /><stop
         offset="1"
         stop-color="#a2cff9"
         id="stop17" /></linearGradient><linearGradient
       id="linearGradient15"
       gradientUnits="userSpaceOnUse"
       x1="11"
       x2="11"
       y1="19.95339"
       y2="3"
       spreadMethod="pad"><stop
         offset="0"
         stop-color="#4a9ef1"
         id="stop14"
         style="stop-color:#edf4f4;stop-opacity:1;" /><stop
         offset="1"
         stop-color="#a2cff9"
         id="stop15" /></linearGradient><linearGradient
       id="b"
       gradientUnits="userSpaceOnUse"
       x1="17"
       x2="17"
       y1="15"
       y2="10"><stop
         offset="0"
         stop-color="#d1e4e4"
         id="stop3" /><stop
         offset="1"
         stop-color="#fafafa"
         id="stop4" /></linearGradient><linearGradient
       id="c"
       gradientUnits="userSpaceOnUse"
       x1="17"
       x2="17"
       y1="21"
       y2="16"><stop
         offset="0"
         stop-color="#dca34a"
         id="stop5" /><stop
         offset="1"
         stop-color="#e3bd85"
         id="stop6" /></linearGradient><linearGradient
       id="linearGradient22"
       inkscape:collect="always"><stop
         style="stop-color:#f95269;stop-opacity:1;"
         offset="0"
         id="stop22" /><stop
         style="stop-color:#fb6378;stop-opacity:1;"
         offset="1"
         id="stop23" /></linearGradient><linearGradient
       id="linearGradient18"
       inkscape:collect="always"><stop
         style="stop-color:#edf3f3;stop-opacity:1;"
         offset="0"
         id="stop18" /><stop
         style="stop-color:#f1f6f6;stop-opacity:1;"
         offset="1"
         id="stop19" /></linearGradient><linearGradient
       inkscape:collect="always"
       xlink:href="#linearGradient27"
       id="linearGradient26"
       gradientUnits="userSpaceOnUse"
       x1="18.683697"
       y1="20.730484"
       x2="17.999435"
       y2="2" /><linearGradient
       id="linearGradient27"
       inkscape:collect="always"><stop
         style="stop-color:#e5efef;stop-opacity:1;"
         offset="0"
         id="stop26" /><stop
         style="stop-color:#f2f6f6;stop-opacity:1;"
         offset="1"
         id="stop27" /></linearGradient><linearGradient
       inkscape:collect="always"
       xlink:href="#linearGradient18"
       id="linearGradient19"
       x1="13"
       y1="15"
       x2="13"
       y2="7"
       gradientUnits="userSpaceOnUse" /><linearGradient
       inkscape:collect="always"
       xlink:href="#linearGradient22"
       id="linearGradient23"
       x1="8"
       y1="20"
       x2="8"
       y2="11"
       gradientUnits="userSpaceOnUse" /></defs><sodipodi:namedview
     id="namedview11"
     pagecolor="#ffffff"
     bordercolor="#000000"
     borderopacity="0.25"
     inkscape:showpageshadow="2"
     inkscape:pageopacity="0.0"
     inkscape:pagecheckerboard="0"
     inkscape:deskcolor="#d1d1d1"
     inkscape:zoom="52.727273"
     inkscape:cx="10.990517"
     inkscape:cy="11.018965"
     inkscape:window-width="2560"
     inkscape:window-height="1364"
     inkscape:window-x="0"
     inkscape:window-y="0"
     inkscape:window-maximized="1"
     inkscape:current-layer="svg11" /><linearGradient
     id="a"
     gradientUnits="userSpaceOnUse"
     x1="11"
     x2="11"
     y1="19.95339"
     y2="3"><stop
       offset="0"
       stop-color="#4a9ef1"
       id="stop1" /><stop
       offset="1"
       stop-color="#a2cff9"
       id="stop2" /></linearGradient><path
     d="M 1.5,2 C 1.2230003,2 1,2.2230003 1,2.5 v 1 1 V 5 C 1,6.1079967 1.8920033,7 3,7 H 4 C 5.1079967,7 6,6.1079967 6,5 v -0.5 -1 -1 C 6,2.2230003 5.7769997,2 5.5,2 5.2230003,2 5,2.2230003 5,2.5 v 1 1 V 5 C 5,5.5539982 4.5539982,6 4,6 H 3 C 2.4460018,6 2,5.5539982 2,5 v -0.5 -1 -1 C 2,2.2230003 1.7769997,2 1.5,2 Z"
     stroke-width="2"
     id="path2"
     style="fill:#cc0120;stroke-linecap:round;stroke-linejoin:round;fill-opacity:1" /><style
     type="text/css"
     id="current-color-scheme">
      .ColorScheme-Text {
        color:#31363b;
      }
      .ColorScheme-Background {
        color:#eff0f1;
      }
      .ColorScheme-Highlight {
        color:#3498db;
      }
      .ColorScheme-ViewText {
        color:#31363b;
      }
      .ColorScheme-ViewBackground {
        color:#fcfcfc;
      }
      .ColorScheme-ViewHover {
        color:#93cee9;
      }
      .ColorScheme-ViewFocus{
        color:#3daee9;
      }
      .ColorScheme-ButtonText {
        color:#31363b;
      }
      .ColorScheme-ButtonBackground {
        color:#eff0f1;
      }
      .ColorScheme-ButtonHover {
        color:#93cee9;
      }
      .ColorScheme-ButtonFocus{
        color:#3daee9;
      }
      .ColorScheme-NegativeText{
        color:#e74c3c;
      }
      </style><style
     type="text/css"
     id="current-color-scheme-4">
      .ColorScheme-Text {
        color:#31363b;
      }
      .ColorScheme-Background {
        color:#eff0f1;
      }
      .ColorScheme-Highlight {
        color:#3498db;
      }
      .ColorScheme-ViewText {
        color:#31363b;
      }
      .ColorScheme-ViewBackground {
        color:#fcfcfc;
      }
      .ColorScheme-ViewHover {
        color:#93cee9;
      }
      .ColorScheme-ViewFocus{
        color:#3daee9;
      }
      .ColorScheme-ButtonText {
        color:#31363b;
      }
      .ColorScheme-ButtonBackground {
        color:#eff0f1;
      }
      .ColorScheme-ButtonHover {
        color:#93cee9;
      }
      .ColorScheme-ButtonFocus{
        color:#3daee9;
      }
      .ColorScheme-NegativeText{
        color:#e74c3c;
      }
      </style><g
     fill="#3172ca"
     id="g10"
     style="stroke-linecap:round;stroke-linejoin:round"><g
       stroke-linecap="round"
       stroke-linejoin="round"
       id="g10-9"><g
         fill="#3172ca"
         id="g9"><path
           d="m 13,5 c 1.108,0 2,0.892 2,2 v 8 c 0,1.108 -0.892,2 -2,2 -1.108,0 -2,-0.892 -2,-2 V 7 c 0,-1.108 0.892,-2 2,-2 z"
           stroke-width="1.73205"
           id="path3"
           style="fill:#90a4ae;fill-opacity:1" /><path
           d="m 8,9 c 1.108,0 2,0.892 2,2 v 4 C 10,16.108 9.108,17 8,17 6.892,17 6,16.108 6,15 V 11 C 6,9.892 6.892,9 8,9 Z"
           stroke-width="1.41421"
           id="path4"
           style="fill:#cc0120;fill-opacity:1" /><path
           d="m 3,13 c 1.108,0 2,0.892 2,2 0,1.108 -0.892,2 -2,2 -1.108,0 -2,-0.892 -2,-2 0,-1.108 0.892,-2 2,-2 z"
           id="path5"
           style="fill:#cc0120;fill-opacity:1" /><path
           d="m 12.95339,18 h 0.09322 C 14.128788,18 15,18.871212 15,19.95339 v 0.09322 C 15,21.128788 14.128788,22 13.04661,22 H 12.95339 C 11.871212,22 11,21.128788 11,20.04661 V 19.95339 C 11,18.871212 11.871212,18 12.95339,18 Z"
           stroke-width="2"
           id="path7"
           style="fill:#90a4ae;fill-opacity:1" /><path
           d="m 7.9533899,18 h 0.09322 C 9.1287881,18 10,18.871212 10,19.95339 v 0.09322 C 10,21.128788 9.1287881,22 8.0466101,22 h -0.09322 C 6.8712119,22 6,21.128788 6,20.04661 V 19.95339 C 6,18.871212 6.8712119,18 7.9533899,18 Z"
           stroke-width="2"
           id="path8"
           style="fill:#cc0120;fill-opacity:1" /><path
           d="m 2.9533899,18 h 0.09322 C 4.1287881,18 5,18.871212 5,19.95339 v 0.09322 C 5,21.128788 4.1287881,22 3.0466101,22 h -0.09322 C 1.8712119,22 1,21.128788 1,20.04661 V 19.95339 C 1,18.871212 1.8712119,18 2.9533899,18 Z"
           stroke-width="2"
           id="path9"
           style="fill:#cc0120;fill-opacity:1" /></g><path
         style="fill:url(#a)"
         d="m 13,19 c -0.553999,0 -1,0.446001 -1,1 0,0.553999 0.446001,1 1,1 0.553999,0 1,-0.446001 1,-1 0,-0.553999 -0.446001,-1 -1,-1 z"
         id="path12" /><path
         id="path11"
         style="fill:url(#linearGradient23);fill-opacity:1"
         d="m 8,10 c -0.5539988,0 -1,0.446002 -1,1 v 4 c 0,0.553998 0.4460012,1 1,1 0.5539988,0 1,-0.446002 1,-1 V 11 C 9,10.446002 8.5539988,10 8,10 Z m -5,4 c -0.5539988,0 -1,0.446002 -1,1 0,0.553998 0.4460012,1 1,1 0.5539988,0 1,-0.446002 1,-1 0,-0.553998 -0.4460012,-1 -1,-1 z m 0,5 c -0.5539988,0 -1,0.446002 -1,1 0,0.553998 0.4460012,1 1,1 0.5539988,0 1,-0.446002 1,-1 0,-0.553998 -0.4460012,-1 -1,-1 z m 5,0 c -0.5539988,0 -1,0.446002 -1,1 0,0.553998 0.4460012,1 1,1 0.5539988,0 1,-0.446002 1,-1 0,-0.553998 -0.4460012,-1 -1,-1 z" /><path
         style="fill:url(#linearGradient19);fill-opacity:1"
         d="m 13,6 c -0.553999,0 -1,0.4460006 -1,1 v 8 c 0,0.553999 0.446001,1 1,1 0.553999,0 1,-0.446001 1,-1 V 7 C 14,6.4460006 13.553999,6 13,6 Z"
         id="path10" /><path
         id="rect1-6"
         style="fill:#90a4ae;fill-opacity:1;stroke-width:2;stroke-linecap:round;stroke-linejoin:round;paint-order:stroke fill markers"
         d="m 18,1 c 1.108,0 2,0.892 2,2 v 8 c 0,1.108 -0.892,2 -2,2 -1.108,0 -2,-0.892 -2,-2 V 3 c 0,-1.108 0.892,-2 2,-2 z"
         sodipodi:nodetypes="sssssss" /><path
         id="rect2-9"
         style="fill:#90a4ae;fill-opacity:1;stroke-width:2;stroke-linecap:round;stroke-linejoin:round;paint-order:stroke fill markers"
         d="m 17.95339,18 h 0.09322 C 19.128788,18 20,18.871212 20,19.95339 v 0.09322 C 20,21.128788 19.128788,22 18.04661,22 H 17.95339 C 16.871212,22 16,21.128788 16,20.04661 V 19.95339 C 16,18.871212 16.871212,18 17.95339,18 Z" /><path
         id="path26"
         style="fill:url(#linearGradient26);fill-opacity:1;stroke-width:0.5;stroke-linecap:round;stroke-linejoin:round;paint-order:stroke fill markers"
         d="m 17.999436,2 c -0.553998,0 -1,0.4460012 -1,1 v 8 c 0,0.553998 0.446002,1 1,1 0.553999,0 1,-0.446002 1,-1 V 3 c 0,-0.5539988 -0.446001,-1 -1,-1 z m 0,17 c -0.553998,0 -1,0.446002 -1,1 0,0.553998 0.446002,1 1,1 0.553999,0 1,-0.446002 1,-1 0,-0.553998 -0.446001,-1 -1,-1 z"
         sodipodi:nodetypes="ssssssssssss" /></g><g
       id="g18"><path
         d="m 17,10 c -2.216,0 -4,1.784 -4,4 v 1 h 3 v -1 c 0,-0.554 0.446,-1 1,-1 0.554,0 1,0.446 1,1 v 1 h 3 v -1 c 0,-2.216 -1.784,-4 -4,-4 z"
         fill="#90a4ae"
         id="path15" /><path
         d="m 17,11 c -1.662,0 -3,1.338 -3,3 v 1 h 1 v -1 c 0,-1.108 0.892,-2 2,-2 1.108,0 2,0.892 2,2 v 1 h 1 v -1 c 0,-1.662 -1.338,-3 -3,-3 z"
         fill="url(#b)"
         id="path16"
         style="fill:url(#b)" /><path
         d="m 13,15 c -0.554,0 -1,0.446 -1,1 v 5 c 0,0.554 0.446,1 1,1 h 4 4 c 0.554,0 1,-0.446 1,-1 v -5 c 0,-0.554 -0.446,-1 -1,-1 h -3 -2 z"
         fill="#a9906c"
         id="path17" /><path
         d="m 20,16 h -1 -4 -1 -1 v 5 h 4 4 v -5 z"
         fill="url(#c)"
         id="path18"
         style="fill:url(#c)" /></g></g><style
     type="text/css"
     id="current-color-scheme-0">
      .ColorScheme-Text {
        color:#31363b;
      }
      .ColorScheme-Background {
        color:#eff0f1;
      }
      .ColorScheme-Highlight {
        color:#3498db;
      }
      .ColorScheme-ViewText {
        color:#31363b;
      }
      .ColorScheme-ViewBackground {
        color:#fcfcfc;
      }
      .ColorScheme-ViewHover {
        color:#93cee9;
      }
      .ColorScheme-ViewFocus{
        color:#3daee9;
      }
      .ColorScheme-ButtonText {
        color:#31363b;
      }
      .ColorScheme-ButtonBackground {
        color:#eff0f1;
      }
      .ColorScheme-ButtonHover {
        color:#93cee9;
      }
      .ColorScheme-ButtonFocus{
        color:#3daee9;
      }
      .ColorScheme-NegativeText{
        color:#e74c3c;
      }
      </style><style
     type="text/css"
     id="current-color-scheme-4-5">
      .ColorScheme-Text {
        color:#31363b;
      }
      .ColorScheme-Background {
        color:#eff0f1;
      }
      .ColorScheme-Highlight {
        color:#3498db;
      }
      .ColorScheme-ViewText {
        color:#31363b;
      }
      .ColorScheme-ViewBackground {
        color:#fcfcfc;
      }
      .ColorScheme-ViewHover {
        color:#93cee9;
      }
      .ColorScheme-ViewFocus{
        color:#3daee9;
      }
      .ColorScheme-ButtonText {
        color:#31363b;
      }
      .ColorScheme-ButtonBackground {
        color:#eff0f1;
      }
      .ColorScheme-ButtonHover {
        color:#93cee9;
      }
      .ColorScheme-ButtonFocus{
        color:#3daee9;
      }
      .ColorScheme-NegativeText{
        color:#e74c3c;
      }
      </style></svg>
