<?xml version="1.0" encoding="UTF-8" standalone="no"?>
<svg
   height="16"
   width="16"
   version="1.1"
   id="svg1"
   sodipodi:docname="battery-080.svg"
   inkscape:version="1.3.2 (091e20ef0f, 2023-11-25, custom)"
   xmlns:inkscape="http://www.inkscape.org/namespaces/inkscape"
   xmlns:sodipodi="http://sodipodi.sourceforge.net/DTD/sodipodi-0.dtd"
   xmlns:xlink="http://www.w3.org/1999/xlink"
   xmlns="http://www.w3.org/2000/svg"
   xmlns:svg="http://www.w3.org/2000/svg">
  <sodipodi:namedview
     id="namedview1"
     pagecolor="#ffffff"
     bordercolor="#000000"
     borderopacity="0.25"
     inkscape:showpageshadow="2"
     inkscape:pageopacity="0.0"
     inkscape:pagecheckerboard="0"
     inkscape:deskcolor="#d1d1d1"
     inkscape:zoom="25.455844"
     inkscape:cx="-2.6123667"
     inkscape:cy="3.8890873"
     inkscape:window-width="2560"
     inkscape:window-height="1356"
     inkscape:window-x="0"
     inkscape:window-y="0"
     inkscape:window-maximized="1"
     inkscape:current-layer="svg1" />
  <defs
     id="defs1">
    <style
       type="text/css"
       id="current-color-scheme">
            .ColorScheme-Text {
                color:#232629;
            }
        </style>
    <linearGradient
       inkscape:collect="always"
       xlink:href="#linearGradient6"
       id="linearGradient7"
       x1="25"
       y1="0"
       x2="25"
       y2="-10"
       gradientUnits="userSpaceOnUse"
       gradientTransform="translate(-2,23)" />
    <linearGradient
       id="linearGradient6"
       inkscape:collect="always">
      <stop
         style="stop-color:#252a34;stop-opacity:1;"
         offset="0"
         id="stop6" />
      <stop
         style="stop-color:#343c4a;stop-opacity:1;"
         offset="1"
         id="stop7" />
    </linearGradient>
    <linearGradient
       inkscape:collect="always"
       xlink:href="#linearGradient8"
       id="linearGradient9"
       x1="25"
       y1="-1.2655923"
       x2="25"
       y2="-8.4471455"
       gradientUnits="userSpaceOnUse"
       gradientTransform="translate(-2,23)" />
    <linearGradient
       id="linearGradient8"
       inkscape:collect="always">
      <stop
         style="stop-color:#454545;stop-opacity:1;"
         offset="0"
         id="stop8" />
      <stop
         style="stop-color:#212121;stop-opacity:1;"
         offset="1"
         id="stop9" />
    </linearGradient>
    <linearGradient
       inkscape:collect="always"
       xlink:href="#linearGradient28"
       id="linearGradient13"
       x1="-3.0962617"
       y1="1.1023517"
       x2="-3.0962617"
       y2="-0.48514828"
       gradientUnits="userSpaceOnUse"
       gradientTransform="matrix(3.7795276,0,0,3.7795276,30.702407,16.833631)" />
    <linearGradient
       id="linearGradient28"
       inkscape:collect="always">
      <stop
         style="stop-color:#0fcc5b;stop-opacity:1;"
         offset="0"
         id="stop27" />
      <stop
         style="stop-color:#6fd87b;stop-opacity:1;"
         offset="1"
         id="stop28" />
    </linearGradient>
  </defs>
  <g
     id="g1"
     transform="translate(-15,-10)">
    <path
       id="rect1"
       style="fill:#15151a;fill-opacity:1;stroke-width:2;stroke-linecap:round;stroke-linejoin:round;stroke-opacity:0.960784;paint-order:stroke fill markers"
       d="m 16,12 c -0.553999,0 -1,0.446001 -1,1 v 10 c 0,0.553999 0.446001,1 1,1 h 12 c 0.553999,0 1,-0.446001 1,-1 v -1 h 1 c 0.553999,0 1,-0.446001 1,-1 v -6 c 0,-0.553999 -0.446001,-1 -1,-1 h -1 v -1 c 0,-0.553999 -0.446001,-1 -1,-1 z" />
    <path
       id="rect3"
       style="fill:url(#linearGradient7);fill-opacity:1;stroke-width:2;stroke-linecap:round;stroke-linejoin:round;stroke-opacity:0.960784;paint-order:stroke fill markers"
       d="m 16,13 v 10 h 12 v -2 h 2 v -6 h -2 v -2 z" />
    <path
       id="rect5"
       style="fill:url(#linearGradient9);fill-opacity:1;stroke-width:2;stroke-linecap:round;stroke-linejoin:round;stroke-opacity:0.960784;paint-order:stroke fill markers"
       d="m 17,14 v 8 h 10 v -2 h 2 v -4 h -2 v -2 z" />
    <rect
       style="fill:url(#linearGradient13);stroke-width:2;stroke-linecap:round;stroke-linejoin:round;stroke-opacity:0.960784;paint-order:stroke fill markers"
       id="rect11"
       width="7.9999995"
       height="6"
       x="18"
       y="15" />
  </g>
</svg>
